RUN,SAMPLE,STATUS,PATIENT,TIME,PIPELINE,PUBLISHED,RECEPTOR,RAW_DIR,TAIL,PRESTO_DIR
RQ10475_LYME3,192561_0_IGH,Blood,192561,0,presto_docker,TRUE,BCR,/data/raw_bulk,FIN_collapse-unique_atleast-2.fastq,/data/presto
RQ10475_LYME3,192563_0_IGH,Blood,192563,0,presto_docker,TRUE,BCR,/data/raw_bulk,FIN_collapse-unique_atleast-2.fastq,/data/presto
RQ10475_LYME3,192564_0_IGH,Blood,192564,0,presto_docker,TRUE,BCR,/data/raw_bulk,FIN_collapse-unique_atleast-2.fastq,/data/presto
RQ10475_LYME3,192565_0_IGH,Blood,192565,0,presto_docker,TRUE,BCR,/data/raw_bulk,FIN_collapse-unique_atleast-2.fastq,/data/presto
RQ10475_LYME3,192566_0_IGH,Blood,192566,0,presto_docker,TRUE,BCR,/data/raw_bulk,FIN_collapse-unique_atleast-2.fastq,/data/presto
RQ10475_LYME3,192567_0_IGH,Blood,192567,0,presto_docker,TRUE,BCR,/data/raw_bulk,FIN_collapse-unique_atleast-2.fastq,/data/presto
RQ10475_LYME3,192561_0_TCRB,Blood,192561,0,presto_tcr,TRUE,TCR,/data/raw_bulk,FIN_collapse-unique_atleast-2.fastq,/data/presto
RQ10475_LYME3,192563_0_TCRB,Blood,192563,0,presto_tcr,TRUE,TCR,/data/raw_bulk,FIN_collapse-unique_atleast-2.fastq,/data/presto
RQ10475_LYME3,192564_0_TCRB,Blood,192564,0,presto_tcr,TRUE,TCR,/data/raw_bulk,FIN_collapse-unique_atleast-2.fastq,/data/presto
RQ10475_LYME3,192565_0_TCRB,Blood,192565,0,presto_tcr,TRUE,TCR,/data/raw_bulk,FIN_collapse-unique_atleast-2.fastq,/data/presto
RQ10475_LYME3,192566_0_TCRB,Blood,192566,0,presto_tcr,TRUE,TCR,/data/raw_bulk,FIN_collapse-unique_atleast-2.fastq,/data/presto
RQ10475_LYME3,192567_0_TCRB,Blood,192567,0,presto_tcr,TRUE,TCR,/data/raw_bulk,FIN_collapse-unique_atleast-2.fastq,/data/presto