"","p_val","avg_log2FC","pct.1","pct.2","p_val_adj","cluster","gene"
"NXPH4",2.13965512216832e-15,0.769892178661631,0.395,0.058,4.29214817506965e-11,"in clone","NXPH4"
"RPS3",4.45941242902532e-15,0.505881544107137,1,1,8.94558133262478e-11,"in clone","RPS3"
"APP",3.07707815676589e-14,0.686504932155375,0.326,0.042,6.17261878247237e-10,"in clone","APP"
"RPS27A",1.33859371373882e-13,0.431760264970473,1,1,2.68521898976008e-09,"in clone","RPS27A"
"RPS3A",4.28951185074612e-12,0.401752992191762,1,1,8.60476077259673e-08,"in clone","RPS3A"
"RPS23",3.49051303577023e-11,0.399039725135396,1,1,7.00196914975507e-07,"in clone","RPS23"
"RPL30",2.74786592635195e-10,0.344622841936121,1,1,5.512219048262e-06,"in clone","RPL30"
"RPL32",5.13840973452202e-10,0.292945074486772,1,1,1.03076499274512e-05,"in clone","RPL32"
"HLA-DRB1",4.14828813619564e-09,-0.671692106052003,1,0.995,8.32146600120844e-05,"in clone","HLA-DRB1"
"RPL19",6.86449791537007e-09,0.310890335238625,1,1,0.000137701828182324,"in clone","RPL19"
"RPL34",7.87946080375568e-09,0.292271454343649,1,1,0.000158061983723339,"in clone","RPL34"
"HOPX",1.7891711282931e-08,-1.55526779658831,0.023,0.495,0.000358907728335596,"in clone","HOPX"
"EEF1A1",3.66380851727966e-08,0.2582416088708,1,1,0.0007349599885663,"in clone","EEF1A1"
"LHPP",3.92371871552381e-08,0.861004014263603,0.814,0.476,0.000787097974334076,"in clone","LHPP"
"PDE4D",4.39669020542884e-08,-1.24007221436983,0.093,0.559,0.000881976055209025,"in clone","PDE4D"
"RPS26",4.54238622137988e-08,0.313127830720616,1,0.998,0.000911202676008803,"in clone","RPS26"
"RPS4X",5.71262392413185e-08,0.300314857059826,1,1,0.00114595235918085,"in clone","RPS4X"
"RPS13",6.2891805618544e-08,0.291399386887089,1,1,0.00126160962070799,"in clone","RPS13"
"RPL11",1.14524088524707e-07,0.27124633633946,1,1,0.00229735321580562,"in clone","RPL11"
"RPS28",1.56407582251372e-07,0.274498051978765,1,1,0.00313753609996253,"in clone","RPS28"
"XPO7",2.07578655090928e-07,0.434355363816073,0.233,0.045,0.00416402782112402,"in clone","XPO7"
"FCER2",2.18101340466491e-07,-1.49571309615565,0.07,0.487,0.00437511288975781,"in clone","FCER2"
"RPS12",2.55406086749859e-07,0.349146863033089,1,1,0.00512344610020216,"in clone","RPS12"
"ARHGAP24",2.74849349870309e-07,0.678422781902129,0.674,0.332,0.0055134779583984,"in clone","ARHGAP24"
"CD74",2.78121247690505e-07,-0.279873621487813,1,1,0.00557911222867154,"in clone","CD74"
"MT-CYB",3.60104698616064e-07,0.380235051313255,1,1,0.00722370025423825,"in clone","MT-CYB"
"FAM177B",3.83003253097801e-07,0.393494617616052,0.186,0.03,0.00768304525714188,"in clone","FAM177B"
"PABPC1",4.81988298032776e-07,0.398155207053153,1,0.998,0.00966868525853749,"in clone","PABPC1"
"RPLP1",5.16303998705021e-07,0.304502653420462,1,1,0.0103570582140227,"in clone","RPLP1"
"AC243960.1",6.22433198890878e-07,-0.979908729186126,0.023,0.416,0.012486009969751,"in clone","AC243960.1"
"HLA-DPA1",6.70304783769185e-07,-0.524721036328904,1,1,0.0134463139624099,"in clone","HLA-DPA1"
"HLA-DRA",8.71661907266949e-07,-0.465905957772259,1,1,0.017485537859775,"in clone","HLA-DRA"
"ACTB",8.87825086506386e-07,-0.592171876174808,1,1,0.0178097712353181,"in clone","ACTB"
"ADNP2",1.38093732904355e-06,0.286180673754782,0.116,0.013,0.0277016028206135,"in clone","ADNP2"
"TMSB4X",1.38300002326499e-06,-0.524125424210857,1,0.998,0.0277429804666957,"in clone","TMSB4X"
"CD52",1.54713349861849e-06,-0.517456909840521,1,1,0.0310354979822869,"in clone","CD52"
"RPS27",2.60803930072075e-06,0.273600784259503,1,1,0.0523172683724582,"in clone","RPS27"
"EEF1B2",2.97253406304156e-06,0.338287841523745,1,1,0.0596290333046137,"in clone","EEF1B2"
"RPL7",3.12053172140095e-06,0.449730789790482,1,0.983,0.062597866331303,"in clone","RPL7"
"SELENOH",3.37627619918953e-06,-0.837948456321662,0.326,0.7,0.067728100555742,"in clone","SELENOH"
"RPL9",3.79452097705848e-06,0.314803790829433,1,1,0.0761180907997932,"in clone","RPL9"
"CARNS1",3.88065109362408e-06,0.50109914755329,0.163,0.028,0.0778458609380991,"in clone","CARNS1"
"PTPN6",4.09410252507586e-06,-0.75573893374038,0.535,0.836,0.0821276966530217,"in clone","PTPN6"
"RPL3",4.89695432587837e-06,0.310566400302366,1,0.998,0.0982329037771201,"in clone","RPL3"
"PFN1",5.75570708663846e-06,-0.55568042331257,1,0.997,0.115459484157968,"in clone","PFN1"
"FAM30A",8.85711966811916e-06,-1.1720720414043,0,0.332,0.17767382054247,"in clone","FAM30A"
"COMMD6",1.04545869229792e-05,0.440346372246863,0.977,0.945,0.209719013674963,"in clone","COMMD6"
"EPB41L5",1.14552677870604e-05,0.279655259521668,0.116,0.016,0.229792671808432,"in clone","EPB41L5"
"ARL17A",1.2589742971367e-05,0.34224286767449,0.163,0.031,0.252550244005621,"in clone","ARL17A"
"JCHAIN",2.1344309821744e-05,-1.39734159869015,0.047,0.385,0.428166855024185,"in clone","JCHAIN"
"TCEA1",2.21027908436101e-05,-0.667255273093921,0.349,0.779,0.443381984322818,"in clone","TCEA1"
"SCIMP",3.27854829957438e-05,-0.84032838460599,0.279,0.621,0.657676788894621,"in clone","SCIMP"
"S100A10",3.4906213128505e-05,-1.04182213846107,0.721,0.847,0.70021863535781,"in clone","S100A10"
"HLA-DQB1",3.6312746007313e-05,-0.56546181287353,0.977,0.98,0.728433684906699,"in clone","HLA-DQB1"
"SUB1",3.99064331770447e-05,-0.905947461603784,0.628,0.809,0.800523049531517,"in clone","SUB1"
"RPL10A",4.43104613551807e-05,0.291020070672284,1,1,0.888867854784925,"in clone","RPL10A"
"HLA-DMB",5.11616624701509e-05,-0.815412490558107,0.372,0.682,1,"in clone","HLA-DMB"
"JUNB",5.39476602321378e-05,0.559601163708813,1,0.936,1,"in clone","JUNB"
"MEF2C",5.66133683054044e-05,-0.803362710596099,0.535,0.745,1,"in clone","MEF2C"
"GSTK1",5.72803379101826e-05,-0.790863142201898,0.512,0.754,1,"in clone","GSTK1"
"RNF130",7.23936994751193e-05,0.354630212203237,0.186,0.045,1,"in clone","RNF130"
"PCBP1",8.60858690113215e-05,-0.435446226314351,0.93,0.959,1,"in clone","PCBP1"
"DUSP1",8.95023024337842e-05,0.554468290482735,0.977,0.923,1,"in clone","DUSP1"
"TMEM191B",9.28080261668832e-05,0.419261769139955,0.233,0.07,1,"in clone","TMEM191B"
"SSFA2",0.000111562877907122,0.282347522212303,0.14,0.028,1,"in clone","SSFA2"
"MT-ND1",0.000130725427919077,0.367268464461032,1,0.997,1,"in clone","MT-ND1"
"CAPZB",0.000133962178845917,-0.751469634889806,0.535,0.762,1,"in clone","CAPZB"
"OAZ1",0.000136130897691167,-0.415074830636921,0.93,0.994,1,"in clone","OAZ1"
"PPIA",0.000138128321257495,-0.412267483913782,0.977,0.991,1,"in clone","PPIA"
"GCSAM",0.000142184297278525,-0.793873709993819,0,0.261,1,"in clone","GCSAM"
"RIN3",0.000148555277116111,0.524235524674576,0.256,0.088,1,"in clone","RIN3"
"TMSB10",0.000153643259014568,-0.447565810652431,1,1,1,"in clone","TMSB10"
"HLA-DPB1",0.000167273659261683,-0.403304509784474,1,1,1,"in clone","HLA-DPB1"
"BIN2",0.000193589205000967,-0.715600165287836,0.116,0.405,1,"in clone","BIN2"
"RPS9",0.00020245209769354,0.273343268741498,1,0.997,1,"in clone","RPS9"
"ZFP36L2",0.000215449107595013,0.72135350721188,0.907,0.792,1,"in clone","ZFP36L2"
"LRCH3",0.000218709381408301,0.449437445621462,0.326,0.13,1,"in clone","LRCH3"
"FAM98C",0.000241504177248565,0.39981948291483,0.326,0.131,1,"in clone","FAM98C"
"UCKL1",0.000275873241264268,0.461710043669113,0.488,0.257,1,"in clone","UCKL1"
"YBX1",0.000310419006942099,-0.471913968445197,0.907,0.972,1,"in clone","YBX1"
"ERH",0.000399261115870715,-0.56599031120029,0.233,0.556,1,"in clone","ERH"
"AKT3",0.000420833334516806,0.254276034943864,0.116,0.023,1,"in clone","AKT3"
"ACIN1",0.000458572692727333,0.39816039611706,0.419,0.208,1,"in clone","ACIN1"
"PSMA7",0.000474158042201649,-0.584525486007867,0.442,0.678,1,"in clone","PSMA7"
"TES",0.00049454433238546,-0.57903220914563,0.047,0.297,1,"in clone","TES"
"IL4R",0.000495971177082425,-0.943368599194187,0.047,0.291,1,"in clone","IL4R"
"ITGB1",0.000502830849377604,0.459477757101898,0.721,0.452,1,"in clone","ITGB1"
"LDHA",0.000578989639090286,-0.644080640337497,0.279,0.565,1,"in clone","LDHA"
"NCOR1",0.000607114419468613,0.497890382537286,0.674,0.473,1,"in clone","NCOR1"
"SYTL1",0.000621117658391447,-0.663414602677669,0.256,0.527,1,"in clone","SYTL1"
"CAPG",0.000641363389779784,-0.59940331903104,0.465,0.707,1,"in clone","CAPG"
"ARPC2",0.000707188210816116,-0.427431701908811,0.907,0.947,1,"in clone","ARPC2"
"SENP2",0.00083244896418671,0.297257452557259,0.14,0.036,1,"in clone","SENP2"
"GADD45B",0.000876578579649488,0.493916643651048,0.791,0.645,1,"in clone","GADD45B"
"RAP1B",0.000880769202459785,-0.602221461543939,0.326,0.581,1,"in clone","RAP1B"
"ARPC1B",0.000899165853546166,-0.657129765595035,0.163,0.418,1,"in clone","ARPC1B"
"MAN2B2",0.000994693046954572,0.35860706302866,0.209,0.074,1,"in clone","MAN2B2"
"RGS2",0.001000467336949,0.52631586951655,0.326,0.144,1,"in clone","RGS2"
"PPID",0.00105525543683556,-0.472373023949472,0,0.205,1,"in clone","PPID"
"LYPLAL1",0.00107134841574191,-0.655192296908578,0.186,0.435,1,"in clone","LYPLAL1"
"SAP18",0.00113342682640927,-0.491515887143814,0.442,0.707,1,"in clone","SAP18"
"CAP1",0.00116242709966004,-0.562385138180435,0.442,0.665,1,"in clone","CAP1"
"FGR",0.001173694906731,-0.608146413946425,0,0.202,1,"in clone","FGR"
"RPL24",0.00120814099044917,0.257402124736894,1,0.998,1,"in clone","RPL24"
"VAMP8",0.00135811260539516,-0.5264219921895,0.256,0.52,1,"in clone","VAMP8"
"HLA-DMA",0.00138783038397695,-0.538617506582318,0.791,0.872,1,"in clone","HLA-DMA"
"AP1M1",0.00141171630101298,-0.538869538904275,0.07,0.302,1,"in clone","AP1M1"
"HHEX",0.00141815325442935,-0.54229505141845,0.14,0.396,1,"in clone","HHEX"
"ZNF580",0.00142800732690491,0.417995309510314,0.349,0.171,1,"in clone","ZNF580"
"MDH1",0.00152451965287504,-0.529309942988959,0.14,0.391,1,"in clone","MDH1"
"GYPC",0.001541753208363,-0.569941231166287,0.279,0.565,1,"in clone","GYPC"
"GMFG",0.00158318394598513,-0.543742388896195,0.326,0.638,1,"in clone","GMFG"
"CD53",0.00161508490503509,-0.591340603365579,0.884,0.897,1,"in clone","CD53"
"PLEK",0.00169753263437035,-0.625840120437913,0.279,0.527,1,"in clone","PLEK"
"MICU2",0.00172302912983734,-0.558489226641235,0.093,0.336,1,"in clone","MICU2"
"RNPS1",0.00186157405405431,-0.540814270184126,0.326,0.61,1,"in clone","RNPS1"
"HLA-DRB5",0.00190181573082499,-0.502093006397193,0.86,0.934,1,"in clone","HLA-DRB5"
"SELENOM",0.00192014188342964,0.396783670284594,0.465,0.254,1,"in clone","SELENOM"
"RPS11",0.00196008607454088,0.269170910717613,1,0.995,1,"in clone","RPS11"
"RNGTT",0.00198037375973106,-0.615161910932343,0.163,0.421,1,"in clone","RNGTT"
"H3F3A",0.002027003447196,-0.416104045483341,0.977,0.973,1,"in clone","H3F3A"
"CXCR4",0.0021601971467085,0.470486900466872,0.744,0.545,1,"in clone","CXCR4"
"RILPL2",0.00217391632333594,-0.52227167367701,0.14,0.396,1,"in clone","RILPL2"
"PSMA5",0.00222951497758055,-0.529786388743564,0.116,0.354,1,"in clone","PSMA5"
"PARM1",0.00224432301711011,-0.491388959193116,0.023,0.225,1,"in clone","PARM1"
"RHOA",0.00230375205300381,-0.366113632211328,0.884,0.958,1,"in clone","RHOA"
"SIK3",0.00243097703228022,0.338712044202146,0.163,0.053,1,"in clone","SIK3"
"HLA-DQA1",0.00246948561079249,-0.411825971477436,0.977,0.981,1,"in clone","HLA-DQA1"
"PRKACB",0.00254718017899151,-0.450451929579376,0.093,0.327,1,"in clone","PRKACB"
"LINC01781",0.00270690506738141,0.394365328769428,0.744,0.534,1,"in clone","LINC01781"
"HCST",0.00275561460539383,-0.56764296468181,0.047,0.25,1,"in clone","HCST"
"SDHAF1",0.00276243375268429,0.325353823012469,0.279,0.124,1,"in clone","SDHAF1"
"ADK",0.00277887629254907,-0.635070048925023,0.302,0.549,1,"in clone","ADK"
"TP53I11",0.00284082888358882,0.271456099643702,0.233,0.089,1,"in clone","TP53I11"
"TRIM4",0.00284398516399884,-0.434794912654814,0,0.175,1,"in clone","TRIM4"
"TRAF3IP3",0.00294238211819716,-0.42756352367195,0.302,0.577,1,"in clone","TRAF3IP3"
"CD79B",0.00311969945922332,-0.471102927750273,0.837,0.897,1,"in clone","CD79B"
"TXNIP",0.00322858681288934,0.299576896937306,0.977,0.981,1,"in clone","TXNIP"
"ZFAS1",0.00326267785865791,0.383397893127923,0.93,0.887,1,"in clone","ZFAS1"
"MYDGF",0.00329653393657871,-0.454074863555247,0.047,0.246,1,"in clone","MYDGF"
"ATP6V1F",0.00332397510800166,-0.502452549559523,0.302,0.531,1,"in clone","ATP6V1F"
"TBC1D9B",0.00332705160354448,0.374262083657068,0.326,0.166,1,"in clone","TBC1D9B"
"EIF2S3",0.00333816098659399,0.386180653861373,0.837,0.798,1,"in clone","EIF2S3"
"SAMM50",0.00340297229048081,-0.430603763378177,0.047,0.241,1,"in clone","SAMM50"
"NME2",0.00354440031098231,-0.530388585165474,0.372,0.618,1,"in clone","NME2"
"CAMK2G",0.00355757962174455,0.343153302002994,0.279,0.128,1,"in clone","CAMK2G"
"C12orf75",0.00355771541306903,-0.502753105326603,0.047,0.235,1,"in clone","C12orf75"
"SHMT2",0.00361309603507402,0.548330676055882,0.581,0.427,1,"in clone","SHMT2"
"KRTCAP2",0.00361648798113065,-0.437098963177937,0.372,0.607,1,"in clone","KRTCAP2"
"PLPP5",0.00370925144705758,-0.688015976378432,0.209,0.397,1,"in clone","PLPP5"
"C5orf15",0.00405624947663655,-0.40279674757679,0,0.164,1,"in clone","C5orf15"
"TRAPPC6A",0.00412533136500248,-0.467378581701737,0.093,0.3,1,"in clone","TRAPPC6A"
"RAB6A",0.0041558888237757,-0.45877256129296,0.07,0.274,1,"in clone","RAB6A"
"SHARPIN",0.00417297652301834,-0.425645973440795,0.023,0.203,1,"in clone","SHARPIN"
"ALG2",0.00419720201379533,0.284154466813697,0.186,0.07,1,"in clone","ALG2"
"ZNF134",0.00420458719848012,0.268682322378036,0.163,0.056,1,"in clone","ZNF134"
"IL13RA1",0.0042106632377881,-0.498351473449611,0.023,0.205,1,"in clone","IL13RA1"
"SNX17",0.00425760622021734,-0.523680269640866,0.233,0.465,1,"in clone","SNX17"
"CSK",0.00430094298781332,-0.529423707438661,0.442,0.624,1,"in clone","CSK"
"WTAP",0.00435960514272715,-0.501040866362355,0.093,0.299,1,"in clone","WTAP"
"KLF9",0.00436079944854234,0.304453065654879,0.186,0.069,1,"in clone","KLF9"
"NDUFA12",0.00440365270769802,-0.485200327095882,0.163,0.41,1,"in clone","NDUFA12"
"RRP1B",0.0044851079677591,-0.397144626478217,0,0.161,1,"in clone","RRP1B"
"SLC36A4",0.00459435009412721,0.38393046598422,0.186,0.072,1,"in clone","SLC36A4"
"ARFGAP2",0.0046590621951288,-0.466238460467963,0.093,0.313,1,"in clone","ARFGAP2"
"TBXAS1",0.00469581317331291,-0.478980952259305,0.047,0.236,1,"in clone","TBXAS1"
"SYNE2",0.00471553306510388,-0.403610766242079,0,0.16,1,"in clone","SYNE2"
"PSME2",0.00477542800950971,-0.422934343680385,0.349,0.588,1,"in clone","PSME2"
"ANP32A",0.00477871715932475,-0.485097285468536,0.233,0.477,1,"in clone","ANP32A"
"CLINT1",0.00481264975967744,-0.462086904704011,0.07,0.266,1,"in clone","CLINT1"
"PEF1",0.00484012292436482,-0.411561749325899,0.047,0.238,1,"in clone","PEF1"
"ITGB2",0.0048523304927778,-0.485325756505487,0.419,0.599,1,"in clone","ITGB2"
"UBB",0.00490665330047574,-0.355241745199838,0.814,0.886,1,"in clone","UBB"
"STK38",0.00493363089631979,-0.445961408245503,0.07,0.277,1,"in clone","STK38"
"BLK",0.00499301180281731,-0.464684943675487,0.698,0.84,1,"in clone","BLK"
"RAD23B",0.00508953566944424,-0.423082881407908,0.023,0.192,1,"in clone","RAD23B"
"KRAS",0.00511503291225265,0.394182841516921,0.372,0.218,1,"in clone","KRAS"
"PDHB",0.00516534292220313,-0.377703773994975,0.023,0.202,1,"in clone","PDHB"
"RFTN1",0.00521094915499662,-0.395777236426439,0,0.156,1,"in clone","RFTN1"
"ITGB7",0.00531894953033773,-0.427199839415548,0.209,0.457,1,"in clone","ITGB7"
"MRPS35",0.00532445523774142,-0.427726304926044,0.093,0.299,1,"in clone","MRPS35"
"PRPF8",0.00540426356550679,-0.47204671630392,0.116,0.336,1,"in clone","PRPF8"
"PIM3",0.00553783682837503,-0.485670559343783,0.116,0.332,1,"in clone","PIM3"
"RAB10",0.00556950551952955,-0.406108782713043,0.023,0.194,1,"in clone","RAB10"
"ETV7",0.0057561578343718,-0.494391596139432,0,0.153,1,"in clone","ETV7"
"RTF1",0.00582766747788252,-0.392536300906663,0.023,0.196,1,"in clone","RTF1"
"TRADD",0.00596832420013654,-0.526129304550782,0.186,0.382,1,"in clone","TRADD"
"CNOT8",0.00602895044187912,-0.443618808701421,0.047,0.225,1,"in clone","CNOT8"
"SLC2A1",0.00603229232411101,0.353011784694969,0.279,0.131,1,"in clone","SLC2A1"
"MYO1G",0.00623820309752948,-0.5176386607704,0.372,0.537,1,"in clone","MYO1G"
"EMC6",0.00627833752923788,-0.363868842126871,0.047,0.227,1,"in clone","EMC6"
"PRKAR1A",0.00630360654865521,-0.44090275775667,0.116,0.34,1,"in clone","PRKAR1A"
"TOMM7",0.00631844673551054,0.330504714000464,0.977,0.987,1,"in clone","TOMM7"
"TAGLN2",0.00633624645160545,-0.484298454834322,0.93,0.942,1,"in clone","TAGLN2"
"ERI3",0.00635596037986282,-0.371799533422261,0,0.15,1,"in clone","ERI3"
"PTP4A2",0.00648404464219264,-0.451482544680535,0.186,0.407,1,"in clone","PTP4A2"
"NECAP2",0.00653599847208123,-0.477816684399172,0.116,0.316,1,"in clone","NECAP2"
"TBC1D9",0.00658235661548349,0.355011014026185,0.186,0.074,1,"in clone","TBC1D9"
"DAAM1",0.00658427900098793,-0.42477622143739,0.047,0.224,1,"in clone","DAAM1"
"ZNF706",0.00664089278881649,-0.453726313607242,0.279,0.505,1,"in clone","ZNF706"
"GNAI2",0.00664413174046062,-0.491446659636764,0.14,0.326,1,"in clone","GNAI2"
"WIPF1",0.0067406814916838,-0.47358616893313,0.209,0.452,1,"in clone","WIPF1"
"ZMAT3",0.00690943597797236,0.274437306973437,0.186,0.074,1,"in clone","ZMAT3"
"EIF3I",0.00696708720530636,-0.350056048064865,0.233,0.488,1,"in clone","EIF3I"
"UBE2J1",0.00698154859116832,-0.42270194489934,0.674,0.867,1,"in clone","UBE2J1"
"BCL7A",0.00701562017099499,-0.433757265586774,0,0.147,1,"in clone","BCL7A"
"PLD4",0.00703249889271485,0.444688314335214,0.326,0.175,1,"in clone","PLD4"
"ATP6V1G1",0.00712871933644882,-0.389904713503999,0.674,0.864,1,"in clone","ATP6V1G1"
"NDUFA4",0.00722999602101916,-0.41742274067637,0.558,0.762,1,"in clone","NDUFA4"
"COL4A3",0.0072878635610753,0.280811306892214,0.186,0.074,1,"in clone","COL4A3"
"ATP6V1E1",0.00736967286255251,-0.354712337590848,0,0.146,1,"in clone","ATP6V1E1"
"RHOBTB2",0.00736967599813364,-0.374022152175126,0,0.146,1,"in clone","RHOBTB2"
"TENT5C",0.00741207561323441,0.428141539343291,0.256,0.125,1,"in clone","TENT5C"
"ARAP1",0.00753516102023352,0.298970705336861,0.279,0.135,1,"in clone","ARAP1"
"TWF2",0.00760681162326896,-0.456681066060349,0.163,0.382,1,"in clone","TWF2"
"HOTAIRM1",0.00774089620013985,-0.349732035354328,0,0.144,1,"in clone","HOTAIRM1"
"NR4A2",0.00780143082509872,0.447837070851346,0.465,0.305,1,"in clone","NR4A2"
"MRPL20",0.00780433718760112,-0.44085994768809,0.14,0.352,1,"in clone","MRPL20"
"CD40",0.00785381598754015,-0.459739508201355,0.395,0.587,1,"in clone","CD40"
"CYBA",0.0078923501444008,-0.336933179781033,0.884,0.948,1,"in clone","CYBA"
"MAT2A",0.00833611714727366,-0.350300989037675,0.07,0.247,1,"in clone","MAT2A"
"TOMM20",0.00835281213944182,0.287132398941705,0.884,0.77,1,"in clone","TOMM20"
"DDIT4",0.00844577824749218,0.402718316442271,0.326,0.186,1,"in clone","DDIT4"
"CORO1A",0.00847743259787179,-0.369472525709858,0.977,0.977,1,"in clone","CORO1A"
"SS18L2",0.00854579993603033,0.34962501669939,0.465,0.311,1,"in clone","SS18L2"
"SNAP23",0.00862722098400227,-0.456899557695242,0.186,0.408,1,"in clone","SNAP23"
"C1orf162",0.00874362068382719,-0.551422111639241,0.07,0.241,1,"in clone","C1orf162"
"NEAT1",0.00884218402443552,-0.559327025629206,0.163,0.362,1,"in clone","NEAT1"
"SERF2",0.00886406978369871,-0.295267410238029,1,0.972,1,"in clone","SERF2"
"PMPCB",0.00891862435727534,-0.432174327452484,0.163,0.371,1,"in clone","PMPCB"
"MS4A1",0.00902160633612973,-0.308617994089535,0.977,0.987,1,"in clone","MS4A1"
"TRIM8",0.00902439948992251,0.267591450565479,0.302,0.15,1,"in clone","TRIM8"
"PRKCD",0.00906315347244123,-0.452770769511736,0.14,0.34,1,"in clone","PRKCD"
"HLA-F",0.00912827850725032,-0.496033767121541,0.512,0.649,1,"in clone","HLA-F"
"LDOC1",0.00916392076443955,0.290041428462728,0.163,0.063,1,"in clone","LDOC1"
"SSR2",0.00917163228330186,0.350613219296254,0.907,0.793,1,"in clone","SSR2"
"CSTB",0.0093474718100599,-0.488075584156178,0.419,0.618,1,"in clone","CSTB"
"KBTBD4",0.00938385885002467,0.302144984205272,0.209,0.095,1,"in clone","KBTBD4"
"FCRL3",0.0094140736000124,-0.423456889106412,0,0.138,1,"in clone","FCRL3"
"GLUL",0.0094140775668748,-0.352849576974487,0,0.138,1,"in clone","GLUL"
"MRPS5",0.00945146397910448,-0.400424685277728,0.093,0.275,1,"in clone","MRPS5"
"TMEM191C",0.00956114789378923,0.285533154584862,0.163,0.063,1,"in clone","TMEM191C"
"TRMT112",0.00957212355618973,-0.382489542399201,0.488,0.692,1,"in clone","TRMT112"
"FBXW5",0.00963480615202207,-0.379587948962231,0.116,0.315,1,"in clone","FBXW5"
"RNF44",0.00969667291840782,-0.395175514823502,0.07,0.243,1,"in clone","RNF44"
"MAPKAPK5-AS1",0.00993056344344698,-0.398900785935116,0.07,0.239,1,"in clone","MAPKAPK5-AS1"
"THEM4",0.00999552120058191,-0.361396314666199,0.023,0.178,1,"in clone","THEM4"
"NXPH4.1",2.13965512216832e-15,-0.769892178661631,0.058,0.395,4.29214817506965e-11,"other","NXPH4"
"RPS3.1",4.45941242902532e-15,-0.505881544107137,1,1,8.94558133262478e-11,"other","RPS3"
"APP.1",3.07707815676589e-14,-0.686504932155375,0.042,0.326,6.17261878247237e-10,"other","APP"
"RPS27A.1",1.33859371373882e-13,-0.431760264970473,1,1,2.68521898976008e-09,"other","RPS27A"
"RPS3A.1",4.28951185074612e-12,-0.401752992191762,1,1,8.60476077259673e-08,"other","RPS3A"
"RPS23.1",3.49051303577023e-11,-0.399039725135396,1,1,7.00196914975507e-07,"other","RPS23"
"RPL30.1",2.74786592635195e-10,-0.344622841936121,1,1,5.512219048262e-06,"other","RPL30"
"RPL32.1",5.13840973452202e-10,-0.292945074486772,1,1,1.03076499274512e-05,"other","RPL32"
"HLA-DRB1.1",4.14828813619564e-09,0.671692106052003,0.995,1,8.32146600120844e-05,"other","HLA-DRB1"
"RPL19.1",6.86449791537007e-09,-0.310890335238625,1,1,0.000137701828182324,"other","RPL19"
"RPL34.1",7.87946080375568e-09,-0.292271454343649,1,1,0.000158061983723339,"other","RPL34"
"HOPX.1",1.7891711282931e-08,1.55526779658831,0.495,0.023,0.000358907728335596,"other","HOPX"
"EEF1A1.1",3.66380851727966e-08,-0.2582416088708,1,1,0.0007349599885663,"other","EEF1A1"
"LHPP.1",3.92371871552381e-08,-0.861004014263603,0.476,0.814,0.000787097974334076,"other","LHPP"
"PDE4D.1",4.39669020542884e-08,1.24007221436983,0.559,0.093,0.000881976055209025,"other","PDE4D"
"RPS26.1",4.54238622137988e-08,-0.313127830720616,0.998,1,0.000911202676008803,"other","RPS26"
"RPS4X.1",5.71262392413185e-08,-0.300314857059826,1,1,0.00114595235918085,"other","RPS4X"
"RPS13.1",6.2891805618544e-08,-0.291399386887089,1,1,0.00126160962070799,"other","RPS13"
"RPL11.1",1.14524088524707e-07,-0.27124633633946,1,1,0.00229735321580562,"other","RPL11"
"RPS28.1",1.56407582251372e-07,-0.274498051978765,1,1,0.00313753609996253,"other","RPS28"
"XPO7.1",2.07578655090928e-07,-0.434355363816073,0.045,0.233,0.00416402782112402,"other","XPO7"
"FCER2.1",2.18101340466491e-07,1.49571309615565,0.487,0.07,0.00437511288975781,"other","FCER2"
"RPS12.1",2.55406086749859e-07,-0.349146863033089,1,1,0.00512344610020216,"other","RPS12"
"ARHGAP24.1",2.74849349870309e-07,-0.678422781902129,0.332,0.674,0.0055134779583984,"other","ARHGAP24"
"CD74.1",2.78121247690505e-07,0.279873621487813,1,1,0.00557911222867154,"other","CD74"
"MT-CYB.1",3.60104698616064e-07,-0.380235051313255,1,1,0.00722370025423825,"other","MT-CYB"
"FAM177B.1",3.83003253097801e-07,-0.393494617616052,0.03,0.186,0.00768304525714188,"other","FAM177B"
"PABPC1.1",4.81988298032776e-07,-0.398155207053153,0.998,1,0.00966868525853749,"other","PABPC1"
"RPLP1.1",5.16303998705021e-07,-0.304502653420462,1,1,0.0103570582140227,"other","RPLP1"
"AC243960.1.1",6.22433198890878e-07,0.979908729186126,0.416,0.023,0.012486009969751,"other","AC243960.1"
"HLA-DPA1.1",6.70304783769185e-07,0.524721036328904,1,1,0.0134463139624099,"other","HLA-DPA1"
"HLA-DRA.1",8.71661907266949e-07,0.465905957772259,1,1,0.017485537859775,"other","HLA-DRA"
"ACTB.1",8.87825086506386e-07,0.592171876174808,1,1,0.0178097712353181,"other","ACTB"
"ADNP2.1",1.38093732904355e-06,-0.286180673754782,0.013,0.116,0.0277016028206135,"other","ADNP2"
"TMSB4X.1",1.38300002326499e-06,0.524125424210857,0.998,1,0.0277429804666957,"other","TMSB4X"
"CD52.1",1.54713349861849e-06,0.517456909840521,1,1,0.0310354979822869,"other","CD52"
"RPS27.1",2.60803930072075e-06,-0.273600784259503,1,1,0.0523172683724582,"other","RPS27"
"EEF1B2.1",2.97253406304156e-06,-0.338287841523745,1,1,0.0596290333046137,"other","EEF1B2"
"RPL7.1",3.12053172140095e-06,-0.449730789790482,0.983,1,0.062597866331303,"other","RPL7"
"SELENOH.1",3.37627619918953e-06,0.837948456321662,0.7,0.326,0.067728100555742,"other","SELENOH"
"RPL9.1",3.79452097705848e-06,-0.314803790829433,1,1,0.0761180907997932,"other","RPL9"
"CARNS1.1",3.88065109362408e-06,-0.50109914755329,0.028,0.163,0.0778458609380991,"other","CARNS1"
"PTPN6.1",4.09410252507586e-06,0.75573893374038,0.836,0.535,0.0821276966530217,"other","PTPN6"
"RPL3.1",4.89695432587837e-06,-0.310566400302366,0.998,1,0.0982329037771201,"other","RPL3"
"PFN1.1",5.75570708663846e-06,0.55568042331257,0.997,1,0.115459484157968,"other","PFN1"
"FAM30A.1",8.85711966811916e-06,1.1720720414043,0.332,0,0.17767382054247,"other","FAM30A"
"COMMD6.1",1.04545869229792e-05,-0.440346372246863,0.945,0.977,0.209719013674963,"other","COMMD6"
"EPB41L5.1",1.14552677870604e-05,-0.279655259521668,0.016,0.116,0.229792671808432,"other","EPB41L5"
"ARL17A.1",1.2589742971367e-05,-0.34224286767449,0.031,0.163,0.252550244005621,"other","ARL17A"
"JCHAIN.1",2.1344309821744e-05,1.39734159869015,0.385,0.047,0.428166855024185,"other","JCHAIN"
"TCEA1.1",2.21027908436101e-05,0.667255273093921,0.779,0.349,0.443381984322818,"other","TCEA1"
"SCIMP.1",3.27854829957438e-05,0.84032838460599,0.621,0.279,0.657676788894621,"other","SCIMP"
"S100A10.1",3.4906213128505e-05,1.04182213846107,0.847,0.721,0.70021863535781,"other","S100A10"
"HLA-DQB1.1",3.6312746007313e-05,0.56546181287353,0.98,0.977,0.728433684906699,"other","HLA-DQB1"
"SUB1.1",3.99064331770447e-05,0.905947461603784,0.809,0.628,0.800523049531517,"other","SUB1"
"RPL10A.1",4.43104613551807e-05,-0.291020070672284,1,1,0.888867854784925,"other","RPL10A"
"HLA-DMB.1",5.11616624701509e-05,0.815412490558107,0.682,0.372,1,"other","HLA-DMB"
"JUNB.1",5.39476602321378e-05,-0.559601163708813,0.936,1,1,"other","JUNB"
"MEF2C.1",5.66133683054044e-05,0.803362710596099,0.745,0.535,1,"other","MEF2C"
"GSTK1.1",5.72803379101826e-05,0.790863142201898,0.754,0.512,1,"other","GSTK1"
"RNF130.1",7.23936994751193e-05,-0.354630212203237,0.045,0.186,1,"other","RNF130"
"PCBP1.1",8.60858690113215e-05,0.435446226314351,0.959,0.93,1,"other","PCBP1"
"DUSP1.1",8.95023024337842e-05,-0.554468290482735,0.923,0.977,1,"other","DUSP1"
"TMEM191B.1",9.28080261668832e-05,-0.419261769139955,0.07,0.233,1,"other","TMEM191B"
"SSFA2.1",0.000111562877907122,-0.282347522212303,0.028,0.14,1,"other","SSFA2"
"MT-ND1.1",0.000130725427919077,-0.367268464461032,0.997,1,1,"other","MT-ND1"
"CAPZB.1",0.000133962178845917,0.751469634889806,0.762,0.535,1,"other","CAPZB"
"OAZ1.1",0.000136130897691167,0.415074830636921,0.994,0.93,1,"other","OAZ1"
"PPIA.1",0.000138128321257495,0.412267483913782,0.991,0.977,1,"other","PPIA"
"GCSAM.1",0.000142184297278525,0.793873709993819,0.261,0,1,"other","GCSAM"
"RIN3.1",0.000148555277116111,-0.524235524674576,0.088,0.256,1,"other","RIN3"
"TMSB10.1",0.000153643259014568,0.447565810652431,1,1,1,"other","TMSB10"
"HLA-DPB1.1",0.000167273659261683,0.403304509784474,1,1,1,"other","HLA-DPB1"
"BIN2.1",0.000193589205000967,0.715600165287836,0.405,0.116,1,"other","BIN2"
"RPS9.1",0.00020245209769354,-0.273343268741498,0.997,1,1,"other","RPS9"
"ZFP36L2.1",0.000215449107595013,-0.72135350721188,0.792,0.907,1,"other","ZFP36L2"
"LRCH3.1",0.000218709381408301,-0.449437445621462,0.13,0.326,1,"other","LRCH3"
"FAM98C.1",0.000241504177248565,-0.39981948291483,0.131,0.326,1,"other","FAM98C"
"UCKL1.1",0.000275873241264268,-0.461710043669113,0.257,0.488,1,"other","UCKL1"
"YBX1.1",0.000310419006942099,0.471913968445197,0.972,0.907,1,"other","YBX1"
"ERH.1",0.000399261115870715,0.56599031120029,0.556,0.233,1,"other","ERH"
"AKT3.1",0.000420833334516806,-0.254276034943864,0.023,0.116,1,"other","AKT3"
"ACIN1.1",0.000458572692727333,-0.39816039611706,0.208,0.419,1,"other","ACIN1"
"PSMA7.1",0.000474158042201649,0.584525486007867,0.678,0.442,1,"other","PSMA7"
"TES.1",0.00049454433238546,0.57903220914563,0.297,0.047,1,"other","TES"
"IL4R.1",0.000495971177082425,0.943368599194187,0.291,0.047,1,"other","IL4R"
"ITGB1.1",0.000502830849377604,-0.459477757101898,0.452,0.721,1,"other","ITGB1"
"LDHA.1",0.000578989639090286,0.644080640337497,0.565,0.279,1,"other","LDHA"
"NCOR1.1",0.000607114419468613,-0.497890382537286,0.473,0.674,1,"other","NCOR1"
"SYTL1.1",0.000621117658391447,0.663414602677669,0.527,0.256,1,"other","SYTL1"
"CAPG.1",0.000641363389779784,0.59940331903104,0.707,0.465,1,"other","CAPG"
"ARPC2.1",0.000707188210816116,0.427431701908811,0.947,0.907,1,"other","ARPC2"
"SENP2.1",0.00083244896418671,-0.297257452557259,0.036,0.14,1,"other","SENP2"
"GADD45B.1",0.000876578579649488,-0.493916643651048,0.645,0.791,1,"other","GADD45B"
"RAP1B.1",0.000880769202459785,0.602221461543939,0.581,0.326,1,"other","RAP1B"
"ARPC1B.1",0.000899165853546166,0.657129765595035,0.418,0.163,1,"other","ARPC1B"
"MAN2B2.1",0.000994693046954572,-0.35860706302866,0.074,0.209,1,"other","MAN2B2"
"RGS2.1",0.001000467336949,-0.52631586951655,0.144,0.326,1,"other","RGS2"
"PPID.1",0.00105525543683556,0.472373023949472,0.205,0,1,"other","PPID"
"LYPLAL1.1",0.00107134841574191,0.655192296908578,0.435,0.186,1,"other","LYPLAL1"
"SAP18.1",0.00113342682640927,0.491515887143814,0.707,0.442,1,"other","SAP18"
"CAP1.1",0.00116242709966004,0.562385138180435,0.665,0.442,1,"other","CAP1"
"FGR.1",0.001173694906731,0.608146413946425,0.202,0,1,"other","FGR"
"RPL24.1",0.00120814099044917,-0.257402124736894,0.998,1,1,"other","RPL24"
"VAMP8.1",0.00135811260539516,0.5264219921895,0.52,0.256,1,"other","VAMP8"
"HLA-DMA.1",0.00138783038397695,0.538617506582318,0.872,0.791,1,"other","HLA-DMA"
"AP1M1.1",0.00141171630101298,0.538869538904275,0.302,0.07,1,"other","AP1M1"
"HHEX.1",0.00141815325442935,0.54229505141845,0.396,0.14,1,"other","HHEX"
"ZNF580.1",0.00142800732690491,-0.417995309510314,0.171,0.349,1,"other","ZNF580"
"MDH1.1",0.00152451965287504,0.529309942988959,0.391,0.14,1,"other","MDH1"
"GYPC.1",0.001541753208363,0.569941231166287,0.565,0.279,1,"other","GYPC"
"GMFG.1",0.00158318394598513,0.543742388896195,0.638,0.326,1,"other","GMFG"
"CD53.1",0.00161508490503509,0.591340603365579,0.897,0.884,1,"other","CD53"
"PLEK.1",0.00169753263437035,0.625840120437913,0.527,0.279,1,"other","PLEK"
"MICU2.1",0.00172302912983734,0.558489226641235,0.336,0.093,1,"other","MICU2"
"RNPS1.1",0.00186157405405431,0.540814270184126,0.61,0.326,1,"other","RNPS1"
"HLA-DRB5.1",0.00190181573082499,0.502093006397193,0.934,0.86,1,"other","HLA-DRB5"
"SELENOM.1",0.00192014188342964,-0.396783670284594,0.254,0.465,1,"other","SELENOM"
"RPS11.1",0.00196008607454088,-0.269170910717613,0.995,1,1,"other","RPS11"
"RNGTT.1",0.00198037375973106,0.615161910932343,0.421,0.163,1,"other","RNGTT"
"H3F3A.1",0.002027003447196,0.416104045483341,0.973,0.977,1,"other","H3F3A"
"CXCR4.1",0.0021601971467085,-0.470486900466872,0.545,0.744,1,"other","CXCR4"
"RILPL2.1",0.00217391632333594,0.52227167367701,0.396,0.14,1,"other","RILPL2"
"PSMA5.1",0.00222951497758055,0.529786388743564,0.354,0.116,1,"other","PSMA5"
"PARM1.1",0.00224432301711011,0.491388959193116,0.225,0.023,1,"other","PARM1"
"RHOA.1",0.00230375205300381,0.366113632211328,0.958,0.884,1,"other","RHOA"
"SIK3.1",0.00243097703228022,-0.338712044202146,0.053,0.163,1,"other","SIK3"
"HLA-DQA1.1",0.00246948561079249,0.411825971477436,0.981,0.977,1,"other","HLA-DQA1"
"PRKACB.1",0.00254718017899151,0.450451929579376,0.327,0.093,1,"other","PRKACB"
"LINC01781.1",0.00270690506738141,-0.394365328769428,0.534,0.744,1,"other","LINC01781"
"HCST.1",0.00275561460539383,0.56764296468181,0.25,0.047,1,"other","HCST"
"SDHAF1.1",0.00276243375268429,-0.325353823012469,0.124,0.279,1,"other","SDHAF1"
"ADK.1",0.00277887629254907,0.635070048925023,0.549,0.302,1,"other","ADK"
"TP53I11.1",0.00284082888358882,-0.271456099643702,0.089,0.233,1,"other","TP53I11"
"TRIM4.1",0.00284398516399884,0.434794912654814,0.175,0,1,"other","TRIM4"
"TRAF3IP3.1",0.00294238211819716,0.42756352367195,0.577,0.302,1,"other","TRAF3IP3"
"CD79B.1",0.00311969945922332,0.471102927750273,0.897,0.837,1,"other","CD79B"
"TXNIP.1",0.00322858681288934,-0.299576896937306,0.981,0.977,1,"other","TXNIP"
"ZFAS1.1",0.00326267785865791,-0.383397893127923,0.887,0.93,1,"other","ZFAS1"
"MYDGF.1",0.00329653393657871,0.454074863555247,0.246,0.047,1,"other","MYDGF"
"ATP6V1F.1",0.00332397510800166,0.502452549559523,0.531,0.302,1,"other","ATP6V1F"
"TBC1D9B.1",0.00332705160354448,-0.374262083657068,0.166,0.326,1,"other","TBC1D9B"
"EIF2S3.1",0.00333816098659399,-0.386180653861373,0.798,0.837,1,"other","EIF2S3"
"SAMM50.1",0.00340297229048081,0.430603763378177,0.241,0.047,1,"other","SAMM50"
"NME2.1",0.00354440031098231,0.530388585165474,0.618,0.372,1,"other","NME2"
"CAMK2G.1",0.00355757962174455,-0.343153302002994,0.128,0.279,1,"other","CAMK2G"
"C12orf75.1",0.00355771541306903,0.502753105326603,0.235,0.047,1,"other","C12orf75"
"SHMT2.1",0.00361309603507402,-0.548330676055882,0.427,0.581,1,"other","SHMT2"
"KRTCAP2.1",0.00361648798113065,0.437098963177937,0.607,0.372,1,"other","KRTCAP2"
"PLPP5.1",0.00370925144705758,0.688015976378432,0.397,0.209,1,"other","PLPP5"
"C5orf15.1",0.00405624947663655,0.40279674757679,0.164,0,1,"other","C5orf15"
"TRAPPC6A.1",0.00412533136500248,0.467378581701737,0.3,0.093,1,"other","TRAPPC6A"
"RAB6A.1",0.0041558888237757,0.45877256129296,0.274,0.07,1,"other","RAB6A"
"SHARPIN.1",0.00417297652301834,0.425645973440795,0.203,0.023,1,"other","SHARPIN"
"ALG2.1",0.00419720201379533,-0.284154466813697,0.07,0.186,1,"other","ALG2"
"ZNF134.1",0.00420458719848012,-0.268682322378036,0.056,0.163,1,"other","ZNF134"
"IL13RA1.1",0.0042106632377881,0.498351473449611,0.205,0.023,1,"other","IL13RA1"
"SNX17.1",0.00425760622021734,0.523680269640866,0.465,0.233,1,"other","SNX17"
"CSK.1",0.00430094298781332,0.529423707438661,0.624,0.442,1,"other","CSK"
"WTAP.1",0.00435960514272715,0.501040866362355,0.299,0.093,1,"other","WTAP"
"KLF9.1",0.00436079944854234,-0.304453065654879,0.069,0.186,1,"other","KLF9"
"NDUFA12.1",0.00440365270769802,0.485200327095882,0.41,0.163,1,"other","NDUFA12"
"RRP1B.1",0.0044851079677591,0.397144626478217,0.161,0,1,"other","RRP1B"
"SLC36A4.1",0.00459435009412721,-0.38393046598422,0.072,0.186,1,"other","SLC36A4"
"ARFGAP2.1",0.0046590621951288,0.466238460467963,0.313,0.093,1,"other","ARFGAP2"
"TBXAS1.1",0.00469581317331291,0.478980952259305,0.236,0.047,1,"other","TBXAS1"
"SYNE2.1",0.00471553306510388,0.403610766242079,0.16,0,1,"other","SYNE2"
"PSME2.1",0.00477542800950971,0.422934343680385,0.588,0.349,1,"other","PSME2"
"ANP32A.1",0.00477871715932475,0.485097285468536,0.477,0.233,1,"other","ANP32A"
"CLINT1.1",0.00481264975967744,0.462086904704011,0.266,0.07,1,"other","CLINT1"
"PEF1.1",0.00484012292436482,0.411561749325899,0.238,0.047,1,"other","PEF1"
"ITGB2.1",0.0048523304927778,0.485325756505487,0.599,0.419,1,"other","ITGB2"
"UBB.1",0.00490665330047574,0.355241745199838,0.886,0.814,1,"other","UBB"
"STK38.1",0.00493363089631979,0.445961408245503,0.277,0.07,1,"other","STK38"
"BLK.1",0.00499301180281731,0.464684943675487,0.84,0.698,1,"other","BLK"
"RAD23B.1",0.00508953566944424,0.423082881407908,0.192,0.023,1,"other","RAD23B"
"KRAS.1",0.00511503291225265,-0.394182841516921,0.218,0.372,1,"other","KRAS"
"PDHB.1",0.00516534292220313,0.377703773994975,0.202,0.023,1,"other","PDHB"
"RFTN1.1",0.00521094915499662,0.395777236426439,0.156,0,1,"other","RFTN1"
"ITGB7.1",0.00531894953033773,0.427199839415548,0.457,0.209,1,"other","ITGB7"
"MRPS35.1",0.00532445523774142,0.427726304926044,0.299,0.093,1,"other","MRPS35"
"PRPF8.1",0.00540426356550679,0.47204671630392,0.336,0.116,1,"other","PRPF8"
"PIM3.1",0.00553783682837503,0.485670559343783,0.332,0.116,1,"other","PIM3"
"RAB10.1",0.00556950551952955,0.406108782713043,0.194,0.023,1,"other","RAB10"
"ETV7.1",0.0057561578343718,0.494391596139432,0.153,0,1,"other","ETV7"
"RTF1.1",0.00582766747788252,0.392536300906663,0.196,0.023,1,"other","RTF1"
"TRADD.1",0.00596832420013654,0.526129304550782,0.382,0.186,1,"other","TRADD"
"CNOT8.1",0.00602895044187912,0.443618808701421,0.225,0.047,1,"other","CNOT8"
"SLC2A1.1",0.00603229232411101,-0.353011784694969,0.131,0.279,1,"other","SLC2A1"
"MYO1G.1",0.00623820309752948,0.5176386607704,0.537,0.372,1,"other","MYO1G"
"EMC6.1",0.00627833752923788,0.363868842126871,0.227,0.047,1,"other","EMC6"
"PRKAR1A.1",0.00630360654865521,0.44090275775667,0.34,0.116,1,"other","PRKAR1A"
"TOMM7.1",0.00631844673551054,-0.330504714000464,0.987,0.977,1,"other","TOMM7"
"TAGLN2.1",0.00633624645160545,0.484298454834322,0.942,0.93,1,"other","TAGLN2"
"ERI3.1",0.00635596037986282,0.371799533422261,0.15,0,1,"other","ERI3"
"PTP4A2.1",0.00648404464219264,0.451482544680535,0.407,0.186,1,"other","PTP4A2"
"NECAP2.1",0.00653599847208123,0.477816684399172,0.316,0.116,1,"other","NECAP2"
"TBC1D9.1",0.00658235661548349,-0.355011014026185,0.074,0.186,1,"other","TBC1D9"
"DAAM1.1",0.00658427900098793,0.42477622143739,0.224,0.047,1,"other","DAAM1"
"ZNF706.1",0.00664089278881649,0.453726313607242,0.505,0.279,1,"other","ZNF706"
"GNAI2.1",0.00664413174046062,0.491446659636764,0.326,0.14,1,"other","GNAI2"
"WIPF1.1",0.0067406814916838,0.47358616893313,0.452,0.209,1,"other","WIPF1"
"ZMAT3.1",0.00690943597797236,-0.274437306973437,0.074,0.186,1,"other","ZMAT3"
"EIF3I.1",0.00696708720530636,0.350056048064865,0.488,0.233,1,"other","EIF3I"
"UBE2J1.1",0.00698154859116832,0.42270194489934,0.867,0.674,1,"other","UBE2J1"
"BCL7A.1",0.00701562017099499,0.433757265586774,0.147,0,1,"other","BCL7A"
"PLD4.1",0.00703249889271485,-0.444688314335214,0.175,0.326,1,"other","PLD4"
"ATP6V1G1.1",0.00712871933644882,0.389904713503999,0.864,0.674,1,"other","ATP6V1G1"
"NDUFA4.1",0.00722999602101916,0.41742274067637,0.762,0.558,1,"other","NDUFA4"
"COL4A3.1",0.0072878635610753,-0.280811306892214,0.074,0.186,1,"other","COL4A3"
"ATP6V1E1.1",0.00736967286255251,0.354712337590848,0.146,0,1,"other","ATP6V1E1"
"RHOBTB2.1",0.00736967599813364,0.374022152175126,0.146,0,1,"other","RHOBTB2"
"TENT5C.1",0.00741207561323441,-0.428141539343291,0.125,0.256,1,"other","TENT5C"
"ARAP1.1",0.00753516102023352,-0.298970705336861,0.135,0.279,1,"other","ARAP1"
"TWF2.1",0.00760681162326896,0.456681066060349,0.382,0.163,1,"other","TWF2"
"HOTAIRM1.1",0.00774089620013985,0.349732035354328,0.144,0,1,"other","HOTAIRM1"
"NR4A2.1",0.00780143082509872,-0.447837070851346,0.305,0.465,1,"other","NR4A2"
"MRPL20.1",0.00780433718760112,0.44085994768809,0.352,0.14,1,"other","MRPL20"
"CD40.1",0.00785381598754015,0.459739508201355,0.587,0.395,1,"other","CD40"
"CYBA.1",0.0078923501444008,0.336933179781033,0.948,0.884,1,"other","CYBA"
"MAT2A.1",0.00833611714727366,0.350300989037675,0.247,0.07,1,"other","MAT2A"
"TOMM20.1",0.00835281213944182,-0.287132398941705,0.77,0.884,1,"other","TOMM20"
"DDIT4.1",0.00844577824749218,-0.402718316442271,0.186,0.326,1,"other","DDIT4"
"CORO1A.1",0.00847743259787179,0.369472525709858,0.977,0.977,1,"other","CORO1A"
"SS18L2.1",0.00854579993603033,-0.34962501669939,0.311,0.465,1,"other","SS18L2"
"SNAP23.1",0.00862722098400227,0.456899557695242,0.408,0.186,1,"other","SNAP23"
"C1orf162.1",0.00874362068382719,0.551422111639241,0.241,0.07,1,"other","C1orf162"
"NEAT1.1",0.00884218402443552,0.559327025629206,0.362,0.163,1,"other","NEAT1"
"SERF2.1",0.00886406978369871,0.295267410238029,0.972,1,1,"other","SERF2"
"PMPCB.1",0.00891862435727534,0.432174327452484,0.371,0.163,1,"other","PMPCB"
"MS4A1.1",0.00902160633612973,0.308617994089535,0.987,0.977,1,"other","MS4A1"
"TRIM8.1",0.00902439948992251,-0.267591450565479,0.15,0.302,1,"other","TRIM8"
"PRKCD.1",0.00906315347244123,0.452770769511736,0.34,0.14,1,"other","PRKCD"
"HLA-F.1",0.00912827850725032,0.496033767121541,0.649,0.512,1,"other","HLA-F"
"LDOC1.1",0.00916392076443955,-0.290041428462728,0.063,0.163,1,"other","LDOC1"
"SSR2.1",0.00917163228330186,-0.350613219296254,0.793,0.907,1,"other","SSR2"
"CSTB.1",0.0093474718100599,0.488075584156178,0.618,0.419,1,"other","CSTB"
"KBTBD4.1",0.00938385885002467,-0.302144984205272,0.095,0.209,1,"other","KBTBD4"
"FCRL3.1",0.0094140736000124,0.423456889106412,0.138,0,1,"other","FCRL3"
"GLUL.1",0.0094140775668748,0.352849576974487,0.138,0,1,"other","GLUL"
"MRPS5.1",0.00945146397910448,0.400424685277728,0.275,0.093,1,"other","MRPS5"
"TMEM191C.1",0.00956114789378923,-0.285533154584862,0.063,0.163,1,"other","TMEM191C"
"TRMT112.1",0.00957212355618973,0.382489542399201,0.692,0.488,1,"other","TRMT112"
"FBXW5.1",0.00963480615202207,0.379587948962231,0.315,0.116,1,"other","FBXW5"
"RNF44.1",0.00969667291840782,0.395175514823502,0.243,0.07,1,"other","RNF44"
"MAPKAPK5-AS1.1",0.00993056344344698,0.398900785935116,0.239,0.07,1,"other","MAPKAPK5-AS1"
"THEM4.1",0.00999552120058191,0.361396314666199,0.178,0.023,1,"other","THEM4"
