﻿,HC014-aDT,HC014-aDT,HC014-aDT,HC014-aDT,FA044-aAra h2,FA044-aAra h2,FA079-aAra h2,,,,,
,C1,C2,C3,C4,C5,C6,C7,C8,C9,C10,C11,C12
A,1,9 K/L,17 G,25 G,1 G,9,17 G,,,,,
B,2 G,10 K/L,18 G,26 K/L,2 G,10 G,18 G,,,,,
C,3 M,11 G,19 G,27 G,3 M,11 G,,,,,,
D,4 G,12 M or G,20 G,28 G,4 G,12 G,,,,,,
E,5 G,13 G,21 G,29 G,5 G,13 G,,,,,,
F,6 G,14 G,22 M or G,30 M,6 G,14,,,,,,
G,7 K/L,15 G,23 G,31 G,7 G,15 G,,,,,,
H,8  K/L,16 M or G,24 M,32 G,8 G,16 G,,,,,,