CLONE	NSEQ	NSITE	TREE_LENGTH	LHOOD	KAPPA_MLE	OMEGA_FWR_MLE	OMEGA_CDR_MLE	OMEGA_CDR_LCI	OMEGA_CDR_UCI	WRC_2_MLE	GYW_0_MLE	WA_1_MLE	TW_0_MLE	SYC_2_MLE	GRS_0_MLE	TREE
REPERTOIRE	20	105.0000	0.3288	-1232.2545	2.3955	0.5911	1.3277	0.7308	2.5972	2.4857	3.6379	2.4403	0.3753	-0.9900	-0.7301	`igphyml --repfile IB7_4_collapsed_ncdr_lineages_gy.tsv -m HLP -o lr --omega e,ce --run_id hlp --oformat tab --threads 18 `
25030	2	100	0.3665	-119.3356	2.3955	0.5911	1.3277	0.7308	2.5972	2.4857	3.6379	2.4403	0.3753	-0.9900	-0.7301	((CCCTTAAAAGAAATAAA_1:0.0000000100,CCCTTAAAAGAAATAAA:0.0000004141):0.3664790035,25030_GERM:0.0000100000);
99919	2	108	0.3799	-147.8929	2.3955	0.5911	1.3277	0.7308	2.5972	2.4857	3.6379	2.4403	0.3753	-0.9900	-0.7301	((GGGACAACGGGTAATGT_1:0.0000006198,GGGACAACGGGTAATGT:0.0000006198):0.3798899631,99919_GERM:0.0000100000);
19929	2	109	0.4461	-157.8357	2.3955	0.5911	1.3277	0.7308	2.5972	2.4857	3.6379	2.4403	0.3753	-0.9900	-0.7301	((ACTATTTTACATCATAT_1:0.0000007217,ACTATTTTACATCATAT:0.0000007217):0.4460848500,19929_GERM:0.0000100000);
99878	2	108	0.2651	-109.9785	2.3955	0.5911	1.3277	0.7308	2.5972	2.4857	3.6379	2.4403	0.3753	-0.9900	-0.7301	((AATAAATAAACTTATCA:0.0000000100,AATAAATAAACTTATCA_1:0.0000007103):0.2651453626,99878_GERM:0.0000100000);
3041	2	106	0.2844	-115.8760	2.3955	0.5911	1.3277	0.7308	2.5972	2.4857	3.6379	2.4403	0.3753	-0.9900	-0.7301	((AGGGCTAAAACATTTAA_1:0.0000006904,AGGGCTAAAACATTTAA:0.0000000100):0.2843757596,3041_GERM:0.0000100000);
145029	2	108	0.2323	-101.5944	2.3955	0.5911	1.3277	0.7308	2.5972	2.4857	3.6379	2.4403	0.3753	-0.9900	-0.7301	((GGCGAAAATACTTCATT_1:0.0000000100,GGCGAAAATACTTCATT:0.0000009893):0.2322661309,145029_GERM:0.0000100000);
90359	2	108	0.2695	-110.1074	2.3955	0.5911	1.3277	0.7308	2.5972	2.4857	3.6379	2.4403	0.3753	-0.9900	-0.7301	((AAGAGTTCGGAAAATAA:0.0000007086,AAGAGTTCGGAAAATAA_1:0.0000007086):0.2695063622,90359_GERM:0.0000100000);
57168	2	106	0.3505	-132.0066	2.3955	0.5911	1.3277	0.7308	2.5972	2.4857	3.6379	2.4403	0.3753	-0.9900	-0.7301	((TGTCCTTCATATATTTC_1:0.0000000100,TGTCCTTCATATATTTC:0.0000007514):0.3504496009,57168_GERM:0.0000100000);
56301	2	87	0.4396	-127.0499	2.3955	0.5911	1.3277	0.7308	2.5972	2.4857	3.6379	2.4403	0.3753	-0.9900	-0.7301	((ACACTATCAACTTCAAA:0.0000009995,ACACTATCAACTTCAAA_1:0.0000000100):0.4396287849,56301_GERM:0.0000100000);
57652	2	110	0.2541	-110.5775	2.3955	0.5911	1.3277	0.7308	2.5972	2.4857	3.6379	2.4403	0.3753	-0.9900	-0.7301	((TTTCAAAACTATTTTTT_1:0.0000007086,TTTCAAAACTATTTTTT:0.0000007086):0.2540983922,57652_GERM:0.0000100000);
