CLONE	NSEQ	NSITE	TREE_LENGTH	LHOOD	KAPPA_MLE	OMEGA_FWR_MLE	OMEGA_CDR_MLE	OMEGA_CDR_LCI	OMEGA_CDR_UCI	WRC_2_MLE	GYW_0_MLE	WA_1_MLE	TW_0_MLE	SYC_2_MLE	GRS_0_MLE	TREE
REPERTOIRE	832	105.4567	0.2706	-43838.8476	2.3530	0.4923	0.6903	0.6309	0.7567	4.0358	5.7693	3.3499	0.9129	-0.6548	-0.6433	`igphyml --repfile IB7_0_collapsed_ncdr_lineages_gy.tsv -m HLP -o lr --omega e,ce --run_id hlp --oformat tab --threads 18 `
65256	2	107	0.2376	-97.2177	2.3530	0.4923	0.6903	0.6309	0.7567	4.0358	5.7693	3.3499	0.9129	-0.6548	-0.6433	((GGTGAACCAAAACCTCG_1:0.0000000100,GGTGAACCAAAACCTCG:0.0000004355):0.2375560443,65256_GERM:0.0000100000);
7015	2	108	0.3823	-144.5797	2.3530	0.4923	0.6903	0.6309	0.7567	4.0358	5.7693	3.3499	0.9129	-0.6548	-0.6433	((AGAAATAACATTATTAA:0.0000005950,AGAAATAACATTATTAA_1:0.0000005950):0.3823028422,7015_GERM:0.0000100000);
16304	2	105	0.2910	-107.2411	2.3530	0.4923	0.6903	0.6309	0.7567	4.0358	5.7693	3.3499	0.9129	-0.6548	-0.6433	((TGTTCATCTAATTTATA_1:0.0000000100,TGTTCATCTAATTTATA:0.0000008395):0.2909898073,16304_GERM:0.0000100000);
120087	2	108	0.1824	-84.8176	2.3530	0.4923	0.6903	0.6309	0.7567	4.0358	5.7693	3.3499	0.9129	-0.6548	-0.6433	((TATAGAACGAATTTTAA:0.0000010178,TATAGAACGAATTTTAA_1:0.0000000100):0.1823756468,120087_GERM:0.0000100000);
141114	2	109	0.1893	-90.6923	2.3530	0.4923	0.6903	0.6309	0.7567	4.0358	5.7693	3.3499	0.9129	-0.6548	-0.6433	((CAACGATAAGATTATAT:0.0000004095,CAACGATAAGATTATAT_1:0.0000000100):0.1892743948,141114_GERM:0.0000100000);
26888	2	108	0.2607	-102.9949	2.3530	0.4923	0.6903	0.6309	0.7567	4.0358	5.7693	3.3499	0.9129	-0.6548	-0.6433	((ATAAAAATACCTATATA_1:0.0000000100,ATAAAAATACCTATATA:0.0000004048):0.2606619734,26888_GERM:0.0000100000);
36082	2	110	0.0762	-44.9231	2.3530	0.4923	0.6903	0.6309	0.7567	4.0358	5.7693	3.3499	0.9129	-0.6548	-0.6433	((CCTGCTACATAATCTTT_1:0.0000000100,CCTGCTACATAATCTTT:0.0000006945):0.0761566870,36082_GERM:0.0000100000);
138155	2	109	0.1875	-90.1744	2.3530	0.4923	0.6903	0.6309	0.7567	4.0358	5.7693	3.3499	0.9129	-0.6548	-0.6433	((TAAATATGAGTTTGGGG_1:0.0000007893,TAAATATGAGTTTGGGG:0.0000000100):0.1875140050,138155_GERM:0.0000100000);
10767	2	109	0.1360	-67.4251	2.3530	0.4923	0.6903	0.6309	0.7567	4.0358	5.7693	3.3499	0.9129	-0.6548	-0.6433	((ACATTATCTCGTAGGGC_1:0.0000009989,ACATTATCTCGTAGGGC:0.0000000100):0.1360342303,10767_GERM:0.0000100000);
117200	2	108	0.2566	-99.2778	2.3530	0.4923	0.6903	0.6309	0.7567	4.0358	5.7693	3.3499	0.9129	-0.6548	-0.6433	((CATGGTATACATACTCA:0.0000000100,CATGGTATACATACTCA_1:0.0000004083):0.2566345318,117200_GERM:0.0000100000);
28435	2	107	0.2616	-105.5807	2.3530	0.4923	0.6903	0.6309	0.7567	4.0358	5.7693	3.3499	0.9129	-0.6548	-0.6433	((GAAATATAAATACATCA_1:0.0000007086,GAAATATAAATACATCA:0.0000007086):0.2616410907,28435_GERM:0.0000100000);
38707	2	108	0.4593	-154.1647	2.3530	0.4923	0.6903	0.6309	0.7567	4.0358	5.7693	3.3499	0.9129	-0.6548	-0.6433	((ATCTTTAACTTATACTA:0.0000009906,ATCTTTAACTTATACTA_1:0.0000000100):0.4592491588,38707_GERM:0.0000100000);
3771	2	109	0.1577	-78.7766	2.3530	0.4923	0.6903	0.6309	0.7567	4.0358	5.7693	3.3499	0.9129	-0.6548	-0.6433	((TCTAGTTAATTACTTCT_1:0.0000008328,TCTAGTTAATTACTTCT:0.0000000100):0.1576526819,3771_GERM:0.0000100000);
100341	2	107	0.3948	-137.0459	2.3530	0.4923	0.6903	0.6309	0.7567	4.0358	5.7693	3.3499	0.9129	-0.6548	-0.6433	((ACCAGTCTATTAATTAA:0.0000005809,ACCAGTCTATTAATTAA_1:0.0000005809):0.3948461454,100341_GERM:0.0000100000);
132524	2	109	0.2390	-115.2269	2.3530	0.4923	0.6903	0.6309	0.7567	4.0358	5.7693	3.3499	0.9129	-0.6548	-0.6433	((TATCAATTATTACCTAT_1:0.0000007086,TATCAATTATTACCTAT:0.0000007086):0.2390052806,132524_GERM:0.0000100000);
10963	2	107	0.3858	-137.5377	2.3530	0.4923	0.6903	0.6309	0.7567	4.0358	5.7693	3.3499	0.9129	-0.6548	-0.6433	((AATGATAGTGCAGACGT_1:0.0000006259,AATGATAGTGCAGACGT:0.0000006259):0.3857908479,10963_GERM:0.0000100000);
50311	2	109	0.0777	-42.9682	2.3530	0.4923	0.6903	0.6309	0.7567	4.0358	5.7693	3.3499	0.9129	-0.6548	-0.6433	((TACAAAACAAGTTCTTA_1:0.0000006913,TACAAAACAAGTTCTTA:0.0000000100):0.0776935943,50311_GERM:0.0000100000);
101191	2	108	0.4221	-155.7490	2.3530	0.4923	0.6903	0.6309	0.7567	4.0358	5.7693	3.3499	0.9129	-0.6548	-0.6433	((AGGACTTTCCAAAACAT_1:0.0000000100,AGGACTTTCCAAAACAT:0.0000006672):0.4220635505,101191_GERM:0.0000100000);
120450	2	108	0.2100	-91.5623	2.3530	0.4923	0.6903	0.6309	0.7567	4.0358	5.7693	3.3499	0.9129	-0.6548	-0.6433	((GGCATACTAAAACATAA_1:0.0000007800,GGCATACTAAAACATAA:0.0000000100):0.2100235098,120450_GERM:0.0000100000);
3671	2	110	0.0857	-52.1272	2.3530	0.4923	0.6903	0.6309	0.7567	4.0358	5.7693	3.3499	0.9129	-0.6548	-0.6433	((ACGCAAATATCAATAAC_1:0.0000004299,ACGCAAATATCAATAAC:0.0000000100):0.0857185844,3671_GERM:0.0000100000);
101796	2	108	0.1966	-92.1135	2.3530	0.4923	0.6903	0.6309	0.7567	4.0358	5.7693	3.3499	0.9129	-0.6548	-0.6433	((CTACATGCTTATGGGCA_1:0.0000004261,CTACATGCTTATGGGCA:0.0000000100):0.1965497097,101796_GERM:0.0000100000);
26887	2	108	0.2850	-105.3843	2.3530	0.4923	0.6903	0.6309	0.7567	4.0358	5.7693	3.3499	0.9129	-0.6548	-0.6433	((AGAACTCATTTAAATTA:0.0000007834,AGAACTCATTTAAATTA_1:0.0000000100):0.2849723117,26887_GERM:0.0000100000);
63170	2	99	0.1395	-58.3511	2.3530	0.4923	0.6903	0.6309	0.7567	4.0358	5.7693	3.3499	0.9129	-0.6548	-0.6433	((GTATTATCATCAAAAAA_1:0.0000008750,GTATTATCATCAAAAAA:0.0000000100):0.1395053456,63170_GERM:0.0000100000);
25312	2	59	0.3748	-72.4024	2.3530	0.4923	0.6903	0.6309	0.7567	4.0358	5.7693	3.3499	0.9129	-0.6548	-0.6433	((AGTAAACTCATATAATA_1:0.0000019409,AGTAAACTCATATAATA:0.0000000100):0.3748168067,25312_GERM:0.0000100000);
128080	2	108	0.1285	-62.9488	2.3530	0.4923	0.6903	0.6309	0.7567	4.0358	5.7693	3.3499	0.9129	-0.6548	-0.6433	((AACCTAAACATTTTAAA_1:0.0000008371,AACCTAAACATTTTAAA:0.0000003287):0.1285181490,128080_GERM:0.0000100000);
114787	2	108	0.2241	-90.2097	2.3530	0.4923	0.6903	0.6309	0.7567	4.0358	5.7693	3.3499	0.9129	-0.6548	-0.6433	((GAAAAAGCGCTAACGAC:0.0000006777,GAAAAAGCGCTAACGAC_1:0.0000000100):0.2241452265,114787_GERM:0.0000100000);
74962	2	83	0.4280	-120.9059	2.3530	0.4923	0.6903	0.6309	0.7567	4.0358	5.7693	3.3499	0.9129	-0.6548	-0.6433	((AAACGTAAAGGTATAAG_1:0.0000007086,AAACGTAAAGGTATAAG:0.0000007086):0.4279523659,74962_GERM:0.0000100000);
70493	2	108	0.2315	-98.7823	2.3530	0.4923	0.6903	0.6309	0.7567	4.0358	5.7693	3.3499	0.9129	-0.6548	-0.6433	((TGCACACACAAACTATA_1:0.0000000100,TGCACACACAAACTATA:0.0000004084):0.2315291644,70493_GERM:0.0000100000);
70266	2	108	0.1602	-75.0698	2.3530	0.4923	0.6903	0.6309	0.7567	4.0358	5.7693	3.3499	0.9129	-0.6548	-0.6433	((TGAAAATTACCATACTA:0.0000000100,TGAAAATTACCATACTA_1:0.0000007488):0.1602030153,70266_GERM:0.0000100000);
93229	2	109	0.3306	-125.8448	2.3530	0.4923	0.6903	0.6309	0.7567	4.0358	5.7693	3.3499	0.9129	-0.6548	-0.6433	((TTAGGTTTTAATTTATA_1:0.0000007086,TTAGGTTTTAATTTATA:0.0000007086):0.3305715618,93229_GERM:0.0000100000);
21545	2	107	0.1868	-86.0446	2.3530	0.4923	0.6903	0.6309	0.7567	4.0358	5.7693	3.3499	0.9129	-0.6548	-0.6433	((AGTTCAACAGCTGATAC:0.0000000100,AGTTCAACAGCTGATAC_1:0.0000007736):0.1867753620,21545_GERM:0.0000100000);
18279	2	108	0.3339	-120.0409	2.3530	0.4923	0.6903	0.6309	0.7567	4.0358	5.7693	3.3499	0.9129	-0.6548	-0.6433	((CATCGTATTATAAATAA:0.0000004289,CATCGTATTATAAATAA_1:0.0000000100):0.3338778501,18279_GERM:0.0000100000);
90179	2	108	0.3649	-137.9632	2.3530	0.4923	0.6903	0.6309	0.7567	4.0358	5.7693	3.3499	0.9129	-0.6548	-0.6433	((AATACTACTCTATTTAT_1:0.0000006065,AATACTACTCTATTTAT:0.0000006065):0.3648798127,90179_GERM:0.0000100000);
133809	2	108	0.1775	-79.2380	2.3530	0.4923	0.6903	0.6309	0.7567	4.0358	5.7693	3.3499	0.9129	-0.6548	-0.6433	((GGCAAACACCCAACAAA_1:0.0000006905,GGCAAACACCCAACAAA:0.0000000100):0.1775243345,133809_GERM:0.0000100000);
25274	2	109	0.3157	-117.9276	2.3530	0.4923	0.6903	0.6309	0.7567	4.0358	5.7693	3.3499	0.9129	-0.6548	-0.6433	((AAACAAGCAATACGGTA:0.0000006862,AAACAAGCAATACGGTA_1:0.0000000100):0.3156730579,25274_GERM:0.0000100000);
96433	2	107	0.2218	-93.6745	2.3530	0.4923	0.6903	0.6309	0.7567	4.0358	5.7693	3.3499	0.9129	-0.6548	-0.6433	((GCGTATTTTATTTATTA_1:0.0000007086,GCGTATTTTATTTATTA:0.0000007086):0.2218416861,96433_GERM:0.0000100000);
31118	2	107	0.1206	-58.7173	2.3530	0.4923	0.6903	0.6309	0.7567	4.0358	5.7693	3.3499	0.9129	-0.6548	-0.6433	((AAAGTTCCAACAAAGAT_1:0.0000007086,AAAGTTCCAACAAAGAT:0.0000007086):0.1205490518,31118_GERM:0.0000100000);
90359	2	108	0.2725	-111.6752	2.3530	0.4923	0.6903	0.6309	0.7567	4.0358	5.7693	3.3499	0.9129	-0.6548	-0.6433	((AAGAGTTCGGAAAATAA:0.0000007086,AAGAGTTCGGAAAATAA_1:0.0000007086):0.2724955021,90359_GERM:0.0000100000);
3069	2	108	0.4523	-160.0854	2.3530	0.4923	0.6903	0.6309	0.7567	4.0358	5.7693	3.3499	0.9129	-0.6548	-0.6433	((TTTGATTGAGGTAAGTT:0.0000006890,TTTGATTGAGGTAAGTT_1:0.0000000100):0.4523204585,3069_GERM:0.0000100000);
81688	2	89	0.4947	-134.0953	2.3530	0.4923	0.6903	0.6309	0.7567	4.0358	5.7693	3.3499	0.9129	-0.6548	-0.6433	((GACAGTTTTCATTTTTT_1:0.0000005173,GACAGTTTTCATTTTTT:0.0000000100):0.4946609321,81688_GERM:0.0000100000);
144402	2	108	0.4401	-149.8970	2.3530	0.4923	0.6903	0.6309	0.7567	4.0358	5.7693	3.3499	0.9129	-0.6548	-0.6433	((GGAACAGATCATGAATA_1:0.0000000100,GGAACAGATCATGAATA:0.0000007146):0.4400961309,144402_GERM:0.0000100000);
93401	2	106	0.3452	-132.1860	2.3530	0.4923	0.6903	0.6309	0.7567	4.0358	5.7693	3.3499	0.9129	-0.6548	-0.6433	((ACGGATTGCTTTTTAAA:0.0000006901,ACGGATTGCTTTTTAAA_1:0.0000000100):0.3452007592,93401_GERM:0.0000100000);
137866	2	107	0.2851	-108.9530	2.3530	0.4923	0.6903	0.6309	0.7567	4.0358	5.7693	3.3499	0.9129	-0.6548	-0.6433	((CTTGTACATATACAAAA:0.0000000100,CTTGTACATATACAAAA_1:0.0000006100):0.2851326454,137866_GERM:0.0000100000);
14428	2	108	0.3022	-118.9551	2.3530	0.4923	0.6903	0.6309	0.7567	4.0358	5.7693	3.3499	0.9129	-0.6548	-0.6433	((GACTGACAGTTTATTTT_1:0.0000010214,GACTGACAGTTTATTTT:0.0000000100):0.3021547251,14428_GERM:0.0000100000);
87250	2	109	0.2883	-110.7203	2.3530	0.4923	0.6903	0.6309	0.7567	4.0358	5.7693	3.3499	0.9129	-0.6548	-0.6433	((ATACCATACTATTAATA_1:0.0000006856,ATACCATACTATTAATA:0.0000000100):0.2883004926,87250_GERM:0.0000100000);
99473	2	108	0.1559	-77.3630	2.3530	0.4923	0.6903	0.6309	0.7567	4.0358	5.7693	3.3499	0.9129	-0.6548	-0.6433	((CCATTTAGGGTTAAATA_1:0.0000007019,CCATTTAGGGTTAAATA:0.0000007019):0.1559479045,99473_GERM:0.0000100000);
133790	2	108	0.2584	-98.1466	2.3530	0.4923	0.6903	0.6309	0.7567	4.0358	5.7693	3.3499	0.9129	-0.6548	-0.6433	((ACATATTTACCTATATA_1:0.0000010128,ACATATTTACCTATATA:0.0000000100):0.2584212660,133790_GERM:0.0000100000);
128629	2	108	0.2335	-101.1665	2.3530	0.4923	0.6903	0.6309	0.7567	4.0358	5.7693	3.3499	0.9129	-0.6548	-0.6433	((GCTAAAGGTCAACTACT:0.0000009815,GCTAAAGGTCAACTACT_1:0.0000000100):0.2335130200,128629_GERM:0.0000100000);
13189	2	108	0.2485	-100.0588	2.3530	0.4923	0.6903	0.6309	0.7567	4.0358	5.7693	3.3499	0.9129	-0.6548	-0.6433	((TGCGCAGCGACTGAGGT_1:0.0000006362,TGCGCAGCGACTGAGGT:0.0000000100):0.2484651984,13189_GERM:0.0000100000);
134504	2	108	0.4531	-169.1111	2.3530	0.4923	0.6903	0.6309	0.7567	4.0358	5.7693	3.3499	0.9129	-0.6548	-0.6433	((CAGAAAAACTATTCAAT:0.0000000100,CAGAAAAACTATTCAAT_1:0.0000006599):0.4531240076,134504_GERM:0.0000100000);
5989	2	106	0.2811	-122.1810	2.3530	0.4923	0.6903	0.6309	0.7567	4.0358	5.7693	3.3499	0.9129	-0.6548	-0.6433	((AGGAAACCTAAAATCTA_1:0.0000008083,AGGAAACCTAAAATCTA:0.0000000100):0.2811166680,5989_GERM:0.0000100000);
86581	2	107	0.2278	-98.6682	2.3530	0.4923	0.6903	0.6309	0.7567	4.0358	5.7693	3.3499	0.9129	-0.6548	-0.6433	((TTATGTTTCATTATCAT:0.0000004054,TTATGTTTCATTATCAT_1:0.0000000100):0.2277738690,86581_GERM:0.0000100000);
99854	2	108	0.2827	-112.5415	2.3530	0.4923	0.6903	0.6309	0.7567	4.0358	5.7693	3.3499	0.9129	-0.6548	-0.6433	((AAATCACATCCATTATT:0.0000008049,AAATCACATCCATTATT_1:0.0000000100):0.2827430313,99854_GERM:0.0000100000);
37788	2	108	0.2862	-118.7927	2.3530	0.4923	0.6903	0.6309	0.7567	4.0358	5.7693	3.3499	0.9129	-0.6548	-0.6433	((TCTTGTGATAATTATCT:0.0000007880,TCTTGTGATAATTATCT_1:0.0000000100):0.2862372784,37788_GERM:0.0000100000);
64712	2	107	0.4022	-141.6515	2.3530	0.4923	0.6903	0.6309	0.7567	4.0358	5.7693	3.3499	0.9129	-0.6548	-0.6433	((TAGAAACACACTATGCG_1:0.0000006319,TAGAAACACACTATGCG:0.0000006319):0.4022109040,64712_GERM:0.0000100000);
3573	2	106	0.1710	-75.8952	2.3530	0.4923	0.6903	0.6309	0.7567	4.0358	5.7693	3.3499	0.9129	-0.6548	-0.6433	((GTCACAATCTTAATATA_1:0.0000008143,GTCACAATCTTAATATA:0.0000000100):0.1709765539,3573_GERM:0.0000100000);
37331	2	107	0.2657	-102.8962	2.3530	0.4923	0.6903	0.6309	0.7567	4.0358	5.7693	3.3499	0.9129	-0.6548	-0.6433	((AATGCACTGAAAACCAA_1:0.0000007086,AATGCACTGAAAACCAA:0.0000007086):0.2656536648,37331_GERM:0.0000100000);
62526	2	71	0.2773	-70.8806	2.3530	0.4923	0.6903	0.6309	0.7567	4.0358	5.7693	3.3499	0.9129	-0.6548	-0.6433	((GGATCCGCCAACACCCA_1:0.0000006283,GGATCCGCCAACACCCA:0.0000000100):0.2772781855,62526_GERM:0.0000100000);
128645	2	108	0.1055	-51.8522	2.3530	0.4923	0.6903	0.6309	0.7567	4.0358	5.7693	3.3499	0.9129	-0.6548	-0.6433	((GGTTATTTAATACGAAG:0.0000010253,GGTTATTTAATACGAAG_1:0.0000000100):0.1054996827,128645_GERM:0.0000100000);
112129	2	108	0.1988	-87.2503	2.3530	0.4923	0.6903	0.6309	0.7567	4.0358	5.7693	3.3499	0.9129	-0.6548	-0.6433	((GGCACTAATCAATTAAT_1:0.0000005428,GGCACTAATCAATTAAT:0.0000005428):0.1987862645,112129_GERM:0.0000100000);
94484	2	107	0.1793	-79.9849	2.3530	0.4923	0.6903	0.6309	0.7567	4.0358	5.7693	3.3499	0.9129	-0.6548	-0.6433	((ACGTTAAGACAAAGTAG_1:0.0000008332,ACGTTAAGACAAAGTAG:0.0000000100):0.1793473187,94484_GERM:0.0000100000);
59183	2	75	0.1601	-53.1260	2.3530	0.4923	0.6903	0.6309	0.7567	4.0358	5.7693	3.3499	0.9129	-0.6548	-0.6433	((AATGAAGGGTCCACAGT:0.0000005640,AATGAAGGGTCCACAGT_1:0.0000000100):0.1601364505,59183_GERM:0.0000100000);
51037	2	85	0.2832	-88.8856	2.3530	0.4923	0.6903	0.6309	0.7567	4.0358	5.7693	3.3499	0.9129	-0.6548	-0.6433	((GGTCATGCAGATATGCT_1:0.0000004805,GGTCATGCAGATATGCT:0.0000000100):0.2831989306,51037_GERM:0.0000100000);
17298	2	107	0.1090	-54.6318	2.3530	0.4923	0.6903	0.6309	0.7567	4.0358	5.7693	3.3499	0.9129	-0.6548	-0.6433	((AGTTATAAATTATCTCA_1:0.0000007078,AGTTATAAATTATCTCA:0.0000007078):0.1090361568,17298_GERM:0.0000100000);
31069	2	106	0.0976	-51.4725	2.3530	0.4923	0.6903	0.6309	0.7567	4.0358	5.7693	3.3499	0.9129	-0.6548	-0.6433	((GATCCAGGGAGAGCAAC:0.0000007919,GATCCAGGGAGAGCAAC_1:0.0000000100):0.0976260588,31069_GERM:0.0000100000);
110785	2	108	0.1073	-54.7904	2.3530	0.4923	0.6903	0.6309	0.7567	4.0358	5.7693	3.3499	0.9129	-0.6548	-0.6433	((TCAAATGTAATAAACCC_1:0.0000000100,TCAAATGTAATAAACCC:0.0000006774):0.1072579128,110785_GERM:0.0000100000);
56362	2	65	0.2568	-66.1268	2.3530	0.4923	0.6903	0.6309	0.7567	4.0358	5.7693	3.3499	0.9129	-0.6548	-0.6433	((GATAAATTATTATTTAT_1:0.0000007105,GATAAATTATTATTTAT:0.0000007105):0.2567996396,56362_GERM:0.0000100000);
74493	2	111	0.1718	-84.3584	2.3530	0.4923	0.6903	0.6309	0.7567	4.0358	5.7693	3.3499	0.9129	-0.6548	-0.6433	((CTTCAAGGAGAATCGGA_1:0.0000009931,CTTCAAGGAGAATCGGA:0.0000000100):0.1718466420,74493_GERM:0.0000100000);
35304	2	107	0.2146	-94.7964	2.3530	0.4923	0.6903	0.6309	0.7567	4.0358	5.7693	3.3499	0.9129	-0.6548	-0.6433	((CGTCGTCGCCAAGAAAT:0.0000005763,CGTCGTCGCCAAGAAAT_1:0.0000005763):0.2146033232,35304_GERM:0.0000100000);
104262	2	108	0.2691	-114.1969	2.3530	0.4923	0.6903	0.6309	0.7567	4.0358	5.7693	3.3499	0.9129	-0.6548	-0.6433	((GTTCATAACATTTCAAT:0.0000007086,GTTCATAACATTTCAAT_1:0.0000007086):0.2691297743,104262_GERM:0.0000100000);
110279	2	107	0.2536	-108.4078	2.3530	0.4923	0.6903	0.6309	0.7567	4.0358	5.7693	3.3499	0.9129	-0.6548	-0.6433	((GAGAATATCAATATTAA_1:0.0000008181,GAGAATATCAATATTAA:0.0000000100):0.2536395649,110279_GERM:0.0000100000);
99744	2	108	0.0889	-47.1976	2.3530	0.4923	0.6903	0.6309	0.7567	4.0358	5.7693	3.3499	0.9129	-0.6548	-0.6433	((AGACATTGCACTATCCA_1:0.0000008041,AGACATTGCACTATCCA:0.0000000100):0.0888995606,99744_GERM:0.0000100000);
48431	2	108	0.6443	-192.3313	2.3530	0.4923	0.6903	0.6309	0.7567	4.0358	5.7693	3.3499	0.9129	-0.6548	-0.6433	((AAAATAAAAATATATCC_1:0.0000007610,AAAATAAAAATATATCC:0.0000000100):0.6443059023,48431_GERM:0.0000100000);
55834	2	110	0.1030	-64.4240	2.3530	0.4923	0.6903	0.6309	0.7567	4.0358	5.7693	3.3499	0.9129	-0.6548	-0.6433	((TCTACTGGTTCTATATT_1:0.0000010288,TCTACTGGTTCTATATT:0.0000000100):0.1030227213,55834_GERM:0.0000100000);
89190	2	108	0.1821	-84.6165	2.3530	0.4923	0.6903	0.6309	0.7567	4.0358	5.7693	3.3499	0.9129	-0.6548	-0.6433	((GAGTTTTTATCTACTTA:0.0000006916,GAGTTTTTATCTACTTA_1:0.0000000100):0.1821482562,89190_GERM:0.0000100000);
51761	2	108	0.2548	-110.7612	2.3530	0.4923	0.6903	0.6309	0.7567	4.0358	5.7693	3.3499	0.9129	-0.6548	-0.6433	((ACAGGATCAAAAGCAGA:0.0000004409,ACAGGATCAAAAGCAGA_1:0.0000000100):0.2548323185,51761_GERM:0.0000100000);
24217	2	108	0.4117	-150.5414	2.3530	0.4923	0.6903	0.6309	0.7567	4.0358	5.7693	3.3499	0.9129	-0.6548	-0.6433	((ACGGGAACAGAAGAACC_1:0.0000006328,ACGGGAACAGAAGAACC:0.0000006328):0.4117113514,24217_GERM:0.0000100000);
120275	2	108	0.1974	-83.0269	2.3530	0.4923	0.6903	0.6309	0.7567	4.0358	5.7693	3.3499	0.9129	-0.6548	-0.6433	((GCAGCAGTTTATTACAT:0.0000004390,GCAGCAGTTTATTACAT_1:0.0000000100):0.1974462461,120275_GERM:0.0000100000);
6585	2	109	0.1576	-68.1274	2.3530	0.4923	0.6903	0.6309	0.7567	4.0358	5.7693	3.3499	0.9129	-0.6548	-0.6433	((AGCCAAGCTCATAGAAC_1:0.0000007098,AGCCAAGCTCATAGAAC:0.0000007098):0.1576071715,6585_GERM:0.0000100000);
67860	2	108	0.5257	-172.7123	2.3530	0.4923	0.6903	0.6309	0.7567	4.0358	5.7693	3.3499	0.9129	-0.6548	-0.6433	((CAGGAACGCTGATCACG:0.0000000100,CAGGAACGCTGATCACG_1:0.0000007778):0.5256703382,67860_GERM:0.0000100000);
65257	2	107	0.1270	-71.4556	2.3530	0.4923	0.6903	0.6309	0.7567	4.0358	5.7693	3.3499	0.9129	-0.6548	-0.6433	((CCCACAGTATCAGTTAC_1:0.0000006394,CCCACAGTATCAGTTAC:0.0000000100):0.1270020079,65257_GERM:0.0000100000);
46090	2	108	0.4021	-146.3640	2.3530	0.4923	0.6903	0.6309	0.7567	4.0358	5.7693	3.3499	0.9129	-0.6548	-0.6433	((ATCACTCTTTTTCTTCT_1:0.0000007107,ATCACTCTTTTTCTTCT:0.0000007107):0.4021353000,46090_GERM:0.0000100000);
145344	2	107	0.0996	-50.0322	2.3530	0.4923	0.6903	0.6309	0.7567	4.0358	5.7693	3.3499	0.9129	-0.6548	-0.6433	((TCAAGATTGATACATTA:0.0000007737,TCAAGATTGATACATTA_1:0.0000000100):0.0996014900,145344_GERM:0.0000100000);
19929	2	109	0.4490	-158.9263	2.3530	0.4923	0.6903	0.6309	0.7567	4.0358	5.7693	3.3499	0.9129	-0.6548	-0.6433	((ACTATTTTACATCATAT_1:0.0000007217,ACTATTTTACATCATAT:0.0000007217):0.4489911417,19929_GERM:0.0000100000);
99904	2	108	0.2844	-126.0743	2.3530	0.4923	0.6903	0.6309	0.7567	4.0358	5.7693	3.3499	0.9129	-0.6548	-0.6433	((TAGTCACTAATTTTTTA:0.0000007373,TAGTCACTAATTTTTTA_1:0.0000000100):0.2844118705,99904_GERM:0.0000100000);
6621	2	109	0.2302	-98.1171	2.3530	0.4923	0.6903	0.6309	0.7567	4.0358	5.7693	3.3499	0.9129	-0.6548	-0.6433	((CTTTGAACAAATTATCA_1:0.0000005975,CTTTGAACAAATTATCA:0.0000005975):0.2302113963,6621_GERM:0.0000100000);
18827	2	106	0.5718	-188.0870	2.3530	0.4923	0.6903	0.6309	0.7567	4.0358	5.7693	3.3499	0.9129	-0.6548	-0.6433	((CCACTTGCATAACATTA_1:0.0000007123,CCACTTGCATAACATTA:0.0000000100):0.5718420485,18827_GERM:0.0000100000);
7362	2	110	0.1720	-87.9481	2.3530	0.4923	0.6903	0.6309	0.7567	4.0358	5.7693	3.3499	0.9129	-0.6548	-0.6433	((AAAACACTTCTAAAATA_1:0.0000005501,AAAACACTTCTAAAATA:0.0000005501):0.1719633273,7362_GERM:0.0000100000);
100644	2	107	0.2494	-99.9268	2.3530	0.4923	0.6903	0.6309	0.7567	4.0358	5.7693	3.3499	0.9129	-0.6548	-0.6433	((CGGGATTTCCATGTAAC_1:0.0000006545,CGGGATTTCCATGTAAC:0.0000000100):0.2493686029,100644_GERM:0.0000100000);
92624	2	110	0.1028	-56.3685	2.3530	0.4923	0.6903	0.6309	0.7567	4.0358	5.7693	3.3499	0.9129	-0.6548	-0.6433	((AAAGTTAGTGGTGTAAC:0.0000000100,AAAGTTAGTGGTGTAAC_1:0.0000004235):0.1028216900,92624_GERM:0.0000100000);
120330	2	108	0.2419	-97.7264	2.3530	0.4923	0.6903	0.6309	0.7567	4.0358	5.7693	3.3499	0.9129	-0.6548	-0.6433	((GCCGGATCAGTTTCATA_1:0.0000010184,GCCGGATCAGTTTCATA:0.0000000100):0.2419229985,120330_GERM:0.0000100000);
47013	2	107	0.2182	-87.9188	2.3530	0.4923	0.6903	0.6309	0.7567	4.0358	5.7693	3.3499	0.9129	-0.6548	-0.6433	((CGGTCAAGCACTAATAA_1:0.0000006434,CGGTCAAGCACTAATAA:0.0000000100):0.2182185306,47013_GERM:0.0000100000);
141369	2	108	0.2425	-103.3647	2.3530	0.4923	0.6903	0.6309	0.7567	4.0358	5.7693	3.3499	0.9129	-0.6548	-0.6433	((GGGGGTTACATTAATCA_1:0.0000007826,GGGGGTTACATTAATCA:0.0000000100):0.2424522380,141369_GERM:0.0000100000);
57651	2	110	0.1918	-83.0457	2.3530	0.4923	0.6903	0.6309	0.7567	4.0358	5.7693	3.3499	0.9129	-0.6548	-0.6433	((GTCATTGACTAACAACA_1:0.0000006627,GTCATTGACTAACAACA:0.0000000100):0.1917778166,57651_GERM:0.0000100000);
7629	2	110	0.3258	-127.0272	2.3530	0.4923	0.6903	0.6309	0.7567	4.0358	5.7693	3.3499	0.9129	-0.6548	-0.6433	((ATGAGAATTTTATAATA:0.0000000100,ATGAGAATTTTATAATA_1:0.0000008080):0.3257774414,7629_GERM:0.0000100000);
46894	2	109	0.1484	-68.2860	2.3530	0.4923	0.6903	0.6309	0.7567	4.0358	5.7693	3.3499	0.9129	-0.6548	-0.6433	((AACGCATTGTAAATTTA:0.0000000100,AACGCATTGTAAATTTA_1:0.0000009764):0.1483614774,46894_GERM:0.0000100000);
137936	2	107	0.0781	-47.1253	2.3530	0.4923	0.6903	0.6309	0.7567	4.0358	5.7693	3.3499	0.9129	-0.6548	-0.6433	((CAGCATAATCTAATACA_1:0.0000010117,CAGCATAATCTAATACA:0.0000000100):0.0781344621,137936_GERM:0.0000100000);
131352	2	107	0.5136	-173.3746	2.3530	0.4923	0.6903	0.6309	0.7567	4.0358	5.7693	3.3499	0.9129	-0.6548	-0.6433	((ATTAAAGAAGAAGTTAA_1:0.0000004440,ATTAAAGAAGAAGTTAA:0.0000000100):0.5136352270,131352_GERM:0.0000100000);
60113	2	108	0.4544	-152.7637	2.3530	0.4923	0.6903	0.6309	0.7567	4.0358	5.7693	3.3499	0.9129	-0.6548	-0.6433	((GAACCTAAGACTTATAA:0.0000004457,GAACCTAAGACTTATAA_1:0.0000000100):0.4543557392,60113_GERM:0.0000100000);
140992	2	64	0.3926	-81.2262	2.3530	0.4923	0.6903	0.6309	0.7567	4.0358	5.7693	3.3499	0.9129	-0.6548	-0.6433	((ATGAGACTCGCAACCTG:0.0000007105,ATGAGACTCGCAACCTG_1:0.0000007105):0.3926079594,140992_GERM:0.0000100000);
122044	2	107	0.2232	-98.3748	2.3530	0.4923	0.6903	0.6309	0.7567	4.0358	5.7693	3.3499	0.9129	-0.6548	-0.6433	((CTGTTATAAATTTCTTA:0.0000000100,CTGTTATAAATTTCTTA_1:0.0000004255):0.2231516675,122044_GERM:0.0000100000);
134348	2	107	0.2538	-104.0116	2.3530	0.4923	0.6903	0.6309	0.7567	4.0358	5.7693	3.3499	0.9129	-0.6548	-0.6433	((GAACGATTTGCAATCTA_1:0.0000007086,GAACGATTTGCAATCTA:0.0000007086):0.2537792796,134348_GERM:0.0000100000);
48402	2	108	0.1694	-83.5213	2.3530	0.4923	0.6903	0.6309	0.7567	4.0358	5.7693	3.3499	0.9129	-0.6548	-0.6433	((AGGGTATCATTTTCTAC:0.0000007145,AGGGTATCATTTTCTAC_1:0.0000007145):0.1694327925,48402_GERM:0.0000100000);
133889	2	108	0.3437	-129.4959	2.3530	0.4923	0.6903	0.6309	0.7567	4.0358	5.7693	3.3499	0.9129	-0.6548	-0.6433	((CGGATACAACGAGAAGC:0.0000006612,CGGATACAACGAGAAGC_1:0.0000000100):0.3436942278,133889_GERM:0.0000100000);
57556	2	107	0.3061	-121.6010	2.3530	0.4923	0.6903	0.6309	0.7567	4.0358	5.7693	3.3499	0.9129	-0.6548	-0.6433	((TCCGCTGGATGACAATG_1:0.0000009619,TCCGCTGGATGACAATG:0.0000000100):0.3060852664,57556_GERM:0.0000100000);
90082	2	108	0.2016	-93.2645	2.3530	0.4923	0.6903	0.6309	0.7567	4.0358	5.7693	3.3499	0.9129	-0.6548	-0.6433	((GCACATTCCACAATTAT:0.0000000100,GCACATTCCACAATTAT_1:0.0000007274):0.2015690235,90082_GERM:0.0000100000);
120201	2	108	0.2986	-120.8810	2.3530	0.4923	0.6903	0.6309	0.7567	4.0358	5.7693	3.3499	0.9129	-0.6548	-0.6433	((CACTTAGCCTTTCACAG_1:0.0000010339,CACTTAGCCTTTCACAG:0.0000000100):0.2985920180,120201_GERM:0.0000100000);
34313	2	107	0.4143	-148.8872	2.3530	0.4923	0.6903	0.6309	0.7567	4.0358	5.7693	3.3499	0.9129	-0.6548	-0.6433	((ATCGGTGAAAATGCTAA_1:0.0000007086,ATCGGTGAAAATGCTAA:0.0000007086):0.4143478274,34313_GERM:0.0000100000);
4387	2	108	0.2464	-103.9982	2.3530	0.4923	0.6903	0.6309	0.7567	4.0358	5.7693	3.3499	0.9129	-0.6548	-0.6433	((GCAACTGATATAATTAT:0.0000009709,GCAACTGATATAATTAT_1:0.0000000100):0.2464394835,4387_GERM:0.0000100000);
22544	2	108	0.3031	-122.0545	2.3530	0.4923	0.6903	0.6309	0.7567	4.0358	5.7693	3.3499	0.9129	-0.6548	-0.6433	((AAACGATGATATGGGAC_1:0.0000007086,AAACGATGATATGGGAC:0.0000007086):0.3030713711,22544_GERM:0.0000100000);
86399	2	110	0.0862	-54.4827	2.3530	0.4923	0.6903	0.6309	0.7567	4.0358	5.7693	3.3499	0.9129	-0.6548	-0.6433	((CACATTTGCCAATGAAG:0.0000004226,CACATTTGCCAATGAAG_1:0.0000000100):0.0861932726,86399_GERM:0.0000100000);
7525	2	110	0.3156	-121.4324	2.3530	0.4923	0.6903	0.6309	0.7567	4.0358	5.7693	3.3499	0.9129	-0.6548	-0.6433	((TCCTCTTTCTTTTAAAA_1:0.0000007086,TCCTCTTTCTTTTAAAA:0.0000007086):0.3156291868,7525_GERM:0.0000100000);
65559	2	108	0.3868	-138.1928	2.3530	0.4923	0.6903	0.6309	0.7567	4.0358	5.7693	3.3499	0.9129	-0.6548	-0.6433	((ATTCGTTTTTTATTTAT_1:0.0000009597,ATTCGTTTTTTATTTAT:0.0000000100):0.3867975571,65559_GERM:0.0000100000);
65629	2	108	0.1577	-76.8427	2.3530	0.4923	0.6903	0.6309	0.7567	4.0358	5.7693	3.3499	0.9129	-0.6548	-0.6433	((CATTAATTAATATATTT:0.0000010317,CATTAATTAATATATTT_1:0.0000000100):0.1576512415,65629_GERM:0.0000100000);
3041	2	106	0.2850	-116.5631	2.3530	0.4923	0.6903	0.6309	0.7567	4.0358	5.7693	3.3499	0.9129	-0.6548	-0.6433	((AGGGCTAAAACATTTAA_1:0.0000006904,AGGGCTAAAACATTTAA:0.0000000100):0.2850030119,3041_GERM:0.0000100000);
52016	2	108	0.3551	-135.8737	2.3530	0.4923	0.6903	0.6309	0.7567	4.0358	5.7693	3.3499	0.9129	-0.6548	-0.6433	((ACAAATTACACAACGGG_1:0.0000005719,ACAAATTACACAACGGG:0.0000005719):0.3550573777,52016_GERM:0.0000100000);
116306	2	107	0.3582	-137.7019	2.3530	0.4923	0.6903	0.6309	0.7567	4.0358	5.7693	3.3499	0.9129	-0.6548	-0.6433	((AAAGTTCTTCATCAATA:0.0000005957,AAAGTTCTTCATCAATA_1:0.0000005957):0.3581848576,116306_GERM:0.0000100000);
43077	2	108	0.3834	-136.2642	2.3530	0.4923	0.6903	0.6309	0.7567	4.0358	5.7693	3.3499	0.9129	-0.6548	-0.6433	((CTCTCTCTAAAACATTA:0.0000000100,CTCTCTCTAAAACATTA_1:0.0000004276):0.3834402043,43077_GERM:0.0000100000);
110173	2	110	0.1221	-71.8604	2.3530	0.4923	0.6903	0.6309	0.7567	4.0358	5.7693	3.3499	0.9129	-0.6548	-0.6433	((ACCTCTATTTTATCACA_1:0.0000005868,ACCTCTATTTTATCACA:0.0000005868):0.1220530672,110173_GERM:0.0000100000);
18712	2	108	0.2450	-99.4134	2.3530	0.4923	0.6903	0.6309	0.7567	4.0358	5.7693	3.3499	0.9129	-0.6548	-0.6433	((TTAGCAAGAAATCCAAC_1:0.0000000100,TTAGCAAGAAATCCAAC:0.0000007132):0.2449799303,18712_GERM:0.0000100000);
101186	2	108	0.2551	-103.2232	2.3530	0.4923	0.6903	0.6309	0.7567	4.0358	5.7693	3.3499	0.9129	-0.6548	-0.6433	((GAATCAATCACTTATTA_1:0.0000007086,GAATCAATCACTTATTA:0.0000007086):0.2551272742,101186_GERM:0.0000100000);
29283	2	109	0.3352	-129.6707	2.3530	0.4923	0.6903	0.6309	0.7567	4.0358	5.7693	3.3499	0.9129	-0.6548	-0.6433	((TAGGTAATGTGACACGT_1:0.0000008251,TAGGTAATGTGACACGT:0.0000000100):0.3351655093,29283_GERM:0.0000100000);
45745	2	108	0.1172	-59.9385	2.3530	0.4923	0.6903	0.6309	0.7567	4.0358	5.7693	3.3499	0.9129	-0.6548	-0.6433	((TAGCTAAAAACAAAAAT:0.0000007086,TAGCTAAAAACAAAAAT_1:0.0000007086):0.1171823846,45745_GERM:0.0000100000);
127647	2	108	0.1501	-72.0429	2.3530	0.4923	0.6903	0.6309	0.7567	4.0358	5.7693	3.3499	0.9129	-0.6548	-0.6433	((GCTACAACCACATTTTA:0.0000007086,GCTACAACCACATTTTA_1:0.0000007086):0.1501058143,127647_GERM:0.0000100000);
135224	2	106	0.2751	-114.4581	2.3530	0.4923	0.6903	0.6309	0.7567	4.0358	5.7693	3.3499	0.9129	-0.6548	-0.6433	((GTGCATTATCCTATATA:0.0000004683,GTGCATTATCCTATATA_1:0.0000000100):0.2750688164,135224_GERM:0.0000100000);
94483	2	107	0.2830	-114.5423	2.3530	0.4923	0.6903	0.6309	0.7567	4.0358	5.7693	3.3499	0.9129	-0.6548	-0.6433	((TCTCAATATATTTTCTA_1:0.0000004088,TCTCAATATATTTTCTA:0.0000000100):0.2830317598,94483_GERM:0.0000100000);
104057	2	108	0.0885	-51.3597	2.3530	0.4923	0.6903	0.6309	0.7567	4.0358	5.7693	3.3499	0.9129	-0.6548	-0.6433	((GCCGCAGATACTATAAA:0.0000000100,GCCGCAGATACTATAAA_1:0.0000007590):0.0885314607,104057_GERM:0.0000100000);
72226	2	108	0.4255	-145.2096	2.3530	0.4923	0.6903	0.6309	0.7567	4.0358	5.7693	3.3499	0.9129	-0.6548	-0.6433	((GAAAAAGTCACACACTA:0.0000007086,GAAAAAGTCACACACTA_1:0.0000007086):0.4254687098,72226_GERM:0.0000100000);
138196	2	109	0.2727	-112.1660	2.3530	0.4923	0.6903	0.6309	0.7567	4.0358	5.7693	3.3499	0.9129	-0.6548	-0.6433	((ACCTATTAATCATACTC:0.0000006360,ACCTATTAATCATACTC_1:0.0000000100):0.2726787019,138196_GERM:0.0000100000);
137580	2	107	0.1638	-77.2540	2.3530	0.4923	0.6903	0.6309	0.7567	4.0358	5.7693	3.3499	0.9129	-0.6548	-0.6433	((TGGGTATTATTATAACT_1:0.0000000100,TGGGTATTATTATAACT:0.0000004072):0.1637508499,137580_GERM:0.0000100000);
137663	2	109	0.3167	-122.6969	2.3530	0.4923	0.6903	0.6309	0.7567	4.0358	5.7693	3.3499	0.9129	-0.6548	-0.6433	((ACAACTATCCAATACAA:0.0000010141,ACAACTATCCAATACAA_1:0.0000000100):0.3166548319,137663_GERM:0.0000100000);
107805	2	108	0.2749	-104.6246	2.3530	0.4923	0.6903	0.6309	0.7567	4.0358	5.7693	3.3499	0.9129	-0.6548	-0.6433	((AAGAGAGGAATATACAT_1:0.0000006973,AAGAGAGGAATATACAT:0.0000000100):0.2748840738,107805_GERM:0.0000100000);
61102	2	108	0.2880	-113.7632	2.3530	0.4923	0.6903	0.6309	0.7567	4.0358	5.7693	3.3499	0.9129	-0.6548	-0.6433	((AACTATAAATCATCAAT_1:0.0000007780,AACTATAAATCATCAAT:0.0000000100):0.2880389622,61102_GERM:0.0000100000);
100648	2	107	0.4178	-149.4066	2.3530	0.4923	0.6903	0.6309	0.7567	4.0358	5.7693	3.3499	0.9129	-0.6548	-0.6433	((ATTCAATATTAACCTCT_1:0.0000004179,ATTCAATATTAACCTCT:0.0000000100):0.4177605618,100648_GERM:0.0000100000);
65294	2	109	0.3269	-128.8964	2.3530	0.4923	0.6903	0.6309	0.7567	4.0358	5.7693	3.3499	0.9129	-0.6548	-0.6433	((CTGACACGGAGAACTGT:0.0000000100,CTGACACGGAGAACTGT_1:0.0000007221):0.3269318024,65294_GERM:0.0000100000);
40089	2	109	0.1899	-76.7239	2.3530	0.4923	0.6903	0.6309	0.7567	4.0358	5.7693	3.3499	0.9129	-0.6548	-0.6433	((AGAGCAGTTTTTCCTAA:0.0000000100,AGAGCAGTTTTTCCTAA_1:0.0000006346):0.1899224549,40089_GERM:0.0000100000);
137812	2	107	0.2372	-101.1492	2.3530	0.4923	0.6903	0.6309	0.7567	4.0358	5.7693	3.3499	0.9129	-0.6548	-0.6433	((TATGATAATATAAATTA_1:0.0000009692,TATGATAATATAAATTA:0.0000000100):0.2371649940,137812_GERM:0.0000100000);
56301	2	87	0.4428	-127.2465	2.3530	0.4923	0.6903	0.6309	0.7567	4.0358	5.7693	3.3499	0.9129	-0.6548	-0.6433	((ACACTATCAACTTCAAA:0.0000009995,ACACTATCAACTTCAAA_1:0.0000000100):0.4427949894,56301_GERM:0.0000100000);
116394	2	109	0.2353	-99.1983	2.3530	0.4923	0.6903	0.6309	0.7567	4.0358	5.7693	3.3499	0.9129	-0.6548	-0.6433	((ACGTCAAACAGAACCCG_1:0.0000000100,ACGTCAAACAGAACCCG:0.0000004057):0.2352713841,116394_GERM:0.0000100000);
31400	2	110	0.1973	-92.0027	2.3530	0.4923	0.6903	0.6309	0.7567	4.0358	5.7693	3.3499	0.9129	-0.6548	-0.6433	((ACATATACAATTTTAAA_1:0.0000000100,ACATATACAATTTTAAA:0.0000009764):0.1972970674,31400_GERM:0.0000100000);
111854	2	107	0.5048	-159.7075	2.3530	0.4923	0.6903	0.6309	0.7567	4.0358	5.7693	3.3499	0.9129	-0.6548	-0.6433	((CGAAATCACACTCCAAA_1:0.0000007086,CGAAATCACACTCCAAA:0.0000007086):0.5048159297,111854_GERM:0.0000100000);
140917	2	108	0.1176	-60.0603	2.3530	0.4923	0.6903	0.6309	0.7567	4.0358	5.7693	3.3499	0.9129	-0.6548	-0.6433	((CACCTAAGCCTTTCAAA_1:0.0000004257,CACCTAAGCCTTTCAAA:0.0000000100):0.1176216080,140917_GERM:0.0000100000);
144268	2	108	0.2265	-99.1054	2.3530	0.4923	0.6903	0.6309	0.7567	4.0358	5.7693	3.3499	0.9129	-0.6548	-0.6433	((TAGGAATATTGAAAGTT_1:0.0000000100,TAGGAATATTGAAAGTT:0.0000006843):0.2264875181,144268_GERM:0.0000100000);
106982	2	107	0.1822	-82.2914	2.3530	0.4923	0.6903	0.6309	0.7567	4.0358	5.7693	3.3499	0.9129	-0.6548	-0.6433	((AAGTGTACCGCTGAATC_1:0.0000004263,AAGTGTACCGCTGAATC:0.0000000100):0.1822199967,106982_GERM:0.0000100000);
65765	2	108	0.2393	-107.8463	2.3530	0.4923	0.6903	0.6309	0.7567	4.0358	5.7693	3.3499	0.9129	-0.6548	-0.6433	((AGTTAAATCGGTTCACC_1:0.0000007086,AGTTAAATCGGTTCACC:0.0000007086):0.2393205722,65765_GERM:0.0000100000);
86849	2	109	0.4598	-156.4358	2.3530	0.4923	0.6903	0.6309	0.7567	4.0358	5.7693	3.3499	0.9129	-0.6548	-0.6433	((AGTGTAGATATTTCTGG_1:0.0000007086,AGTGTAGATATTTCTGG:0.0000007086):0.4597866023,86849_GERM:0.0000100000);
36264	2	108	0.2952	-113.7198	2.3530	0.4923	0.6903	0.6309	0.7567	4.0358	5.7693	3.3499	0.9129	-0.6548	-0.6433	((GGTATAACCCAAATTTT:0.0000004122,GGTATAACCCAAATTTT_1:0.0000000100):0.2952428567,36264_GERM:0.0000100000);
59087	2	108	0.3172	-125.9198	2.3530	0.4923	0.6903	0.6309	0.7567	4.0358	5.7693	3.3499	0.9129	-0.6548	-0.6433	((GAAGGAAAAATTTCGAC_1:0.0000004534,GAAGGAAAAATTTCGAC:0.0000000100):0.3171502948,59087_GERM:0.0000100000);
100242	2	107	0.0475	-27.6382	2.3530	0.4923	0.6903	0.6309	0.7567	4.0358	5.7693	3.3499	0.9129	-0.6548	-0.6433	((ATATCTTCAGCTACCTA:0.0000006719,ATATCTTCAGCTACCTA_1:0.0000000100):0.0475160244,100242_GERM:0.0000100000);
72595	2	107	0.2513	-115.2629	2.3530	0.4923	0.6903	0.6309	0.7567	4.0358	5.7693	3.3499	0.9129	-0.6548	-0.6433	((GGACATACAGTTTATTT_1:0.0000007086,GGACATACAGTTTATTT:0.0000007086):0.2512746440,72595_GERM:0.0000100000);
889	2	108	0.1473	-74.9526	2.3530	0.4923	0.6903	0.6309	0.7567	4.0358	5.7693	3.3499	0.9129	-0.6548	-0.6433	((ATGATTATTATTGCTAT_1:0.0000007086,ATGATTATTATTGCTAT:0.0000007086):0.1473153392,889_GERM:0.0000100000);
13306	2	108	0.2524	-112.3733	2.3530	0.4923	0.6903	0.6309	0.7567	4.0358	5.7693	3.3499	0.9129	-0.6548	-0.6433	((TTTGTAACAAGTGAAGG:0.0000007068,TTTGTAACAAGTGAAGG_1:0.0000007068):0.2523951838,13306_GERM:0.0000100000);
22231	2	108	0.2923	-123.1979	2.3530	0.4923	0.6903	0.6309	0.7567	4.0358	5.7693	3.3499	0.9129	-0.6548	-0.6433	((CTAAATCTTAAATATCA_1:0.0000007086,CTAAATCTTAAATATCA:0.0000007086):0.2923253329,22231_GERM:0.0000100000);
99930	2	108	0.3067	-120.0765	2.3530	0.4923	0.6903	0.6309	0.7567	4.0358	5.7693	3.3499	0.9129	-0.6548	-0.6433	((GATACTCTTCAAATATC:0.0000007710,GATACTCTTCAAATATC_1:0.0000000100):0.3066882732,99930_GERM:0.0000100000);
71176	2	105	0.1956	-86.6361	2.3530	0.4923	0.6903	0.6309	0.7567	4.0358	5.7693	3.3499	0.9129	-0.6548	-0.6433	((ACGGTAACATCAATCAA:0.0000007284,ACGGTAACATCAATCAA_1:0.0000000100):0.1955901970,71176_GERM:0.0000100000);
104056	2	108	0.2243	-94.7406	2.3530	0.4923	0.6903	0.6309	0.7567	4.0358	5.7693	3.3499	0.9129	-0.6548	-0.6433	((ACAGCACTCACTTACCT_1:0.0000005647,ACAGCACTCACTTACCT:0.0000005647):0.2242940386,104056_GERM:0.0000100000);
145569	2	108	0.2989	-123.4698	2.3530	0.4923	0.6903	0.6309	0.7567	4.0358	5.7693	3.3499	0.9129	-0.6548	-0.6433	((CAGAATGTGATATTAGA:0.0000006376,CAGAATGTGATATTAGA_1:0.0000000100):0.2988653158,145569_GERM:0.0000100000);
144885	2	105	0.2403	-98.4057	2.3530	0.4923	0.6903	0.6309	0.7567	4.0358	5.7693	3.3499	0.9129	-0.6548	-0.6433	((CAAAGATTCTAAGGATT:0.0000007312,CAAAGATTCTAAGGATT_1:0.0000000100):0.2402734383,144885_GERM:0.0000100000);
50319	2	109	0.0762	-43.1508	2.3530	0.4923	0.6903	0.6309	0.7567	4.0358	5.7693	3.3499	0.9129	-0.6548	-0.6433	((TGCAGTACTTTTAATTT_1:0.0000000100,TGCAGTACTTTTAATTT:0.0000004185):0.0761817818,50319_GERM:0.0000100000);
141021	2	107	0.3517	-128.0207	2.3530	0.4923	0.6903	0.6309	0.7567	4.0358	5.7693	3.3499	0.9129	-0.6548	-0.6433	((GGTTTAAAATCATTATA_1:0.0000000100,GGTTTAAAATCATTATA:0.0000006535):0.3516713503,141021_GERM:0.0000100000);
130503	2	107	0.3500	-132.0122	2.3530	0.4923	0.6903	0.6309	0.7567	4.0358	5.7693	3.3499	0.9129	-0.6548	-0.6433	((GCCAAACTCAAATTTAA:0.0000000100,GCCAAACTCAAATTTAA_1:0.0000010322):0.3500171267,130503_GERM:0.0000100000);
17238	2	110	0.2308	-99.1812	2.3530	0.4923	0.6903	0.6309	0.7567	4.0358	5.7693	3.3499	0.9129	-0.6548	-0.6433	((TCTAGTAATAATATACA_1:0.0000006094,TCTAGTAATAATATACA:0.0000006094):0.2308456886,17238_GERM:0.0000100000);
77698	2	108	0.2139	-90.7249	2.3530	0.4923	0.6903	0.6309	0.7567	4.0358	5.7693	3.3499	0.9129	-0.6548	-0.6433	((AACTTATATTTACTATA_1:0.0000006242,AACTTATATTTACTATA:0.0000006242):0.2139068169,77698_GERM:0.0000100000);
101187	2	105	0.2595	-101.2412	2.3530	0.4923	0.6903	0.6309	0.7567	4.0358	5.7693	3.3499	0.9129	-0.6548	-0.6433	((TTTTATGGTTATTTTAT_1:0.0000007073,TTTTATGGTTATTTTAT:0.0000000100):0.2594604178,101187_GERM:0.0000100000);
134098	2	108	0.2831	-118.5481	2.3530	0.4923	0.6903	0.6309	0.7567	4.0358	5.7693	3.3499	0.9129	-0.6548	-0.6433	((AATGAAGACATTTTTTT:0.0000000100,AATGAAGACATTTTTTT_1:0.0000007941):0.2831352574,134098_GERM:0.0000100000);
59885	2	108	0.3359	-132.1507	2.3530	0.4923	0.6903	0.6309	0.7567	4.0358	5.7693	3.3499	0.9129	-0.6548	-0.6433	((GCAGAAGCTTTACACAC:0.0000007385,GCAGAAGCTTTACACAC_1:0.0000000100):0.3359323095,59885_GERM:0.0000100000);
8210	2	108	0.4194	-154.8525	2.3530	0.4923	0.6903	0.6309	0.7567	4.0358	5.7693	3.3499	0.9129	-0.6548	-0.6433	((GTTAAATACATTATTAA_1:0.0000010135,GTTAAATACATTATTAA:0.0000004269):0.4194480963,8210_GERM:0.0000100000);
142182	2	108	0.2543	-106.8020	2.3530	0.4923	0.6903	0.6309	0.7567	4.0358	5.7693	3.3499	0.9129	-0.6548	-0.6433	((GCACATCACTCTATAAA:0.0000000100,GCACATCACTCTATAAA_1:0.0000008403):0.2542760269,142182_GERM:0.0000100000);
74063	2	108	0.2932	-116.5271	2.3530	0.4923	0.6903	0.6309	0.7567	4.0358	5.7693	3.3499	0.9129	-0.6548	-0.6433	((TATGGACATGCTAATAA_1:0.0000007086,TATGGACATGCTAATAA:0.0000007086):0.2932215811,74063_GERM:0.0000100000);
72994	2	108	0.3554	-131.0223	2.3530	0.4923	0.6903	0.6309	0.7567	4.0358	5.7693	3.3499	0.9129	-0.6548	-0.6433	((TTTGATCTCAAAATTAC_1:0.0000005611,TTTGATCTCAAAATTAC:0.0000005611):0.3553963586,72994_GERM:0.0000100000);
90153	2	108	0.3102	-128.7054	2.3530	0.4923	0.6903	0.6309	0.7567	4.0358	5.7693	3.3499	0.9129	-0.6548	-0.6433	((AAGAAAGGGTATTCGAC:0.0000005488,AAGAAAGGGTATTCGAC_1:0.0000005488):0.3101804806,90153_GERM:0.0000100000);
17344	2	108	0.3646	-140.9511	2.3530	0.4923	0.6903	0.6309	0.7567	4.0358	5.7693	3.3499	0.9129	-0.6548	-0.6433	((TACACTATTTTATCTTA_1:0.0000000100,TACACTATTTTATCTTA:0.0000007339):0.3645757039,17344_GERM:0.0000100000);
16529	2	109	0.2755	-115.7573	2.3530	0.4923	0.6903	0.6309	0.7567	4.0358	5.7693	3.3499	0.9129	-0.6548	-0.6433	((AAGAGTGTTATTCAATC:0.0000006556,AAGAGTGTTATTCAATC_1:0.0000000100):0.2754963009,16529_GERM:0.0000100000);
128742	2	44	0.1526	-32.0959	2.3530	0.4923	0.6903	0.6309	0.7567	4.0358	5.7693	3.3499	0.9129	-0.6548	-0.6433	((CGAGGAATATCAGGTTG_1:0.0000024925,CGAGGAATATCAGGTTG:0.0000000100):0.1525543071,128742_GERM:0.0000100000);
99877	2	108	0.0952	-55.1250	2.3530	0.4923	0.6903	0.6309	0.7567	4.0358	5.7693	3.3499	0.9129	-0.6548	-0.6433	((GCAGCATGTAAATACAT:0.0000007376,GCAGCATGTAAATACAT_1:0.0000000100):0.0952400966,99877_GERM:0.0000100000);
29450	2	106	0.1842	-86.1334	2.3530	0.4923	0.6903	0.6309	0.7567	4.0358	5.7693	3.3499	0.9129	-0.6548	-0.6433	((TTAACAATACATATAAC:0.0000007476,TTAACAATACATATAAC_1:0.0000000100):0.1841650561,29450_GERM:0.0000100000);
94157	2	107	0.2371	-99.2868	2.3530	0.4923	0.6903	0.6309	0.7567	4.0358	5.7693	3.3499	0.9129	-0.6548	-0.6433	((AGACCTGTCTCAAAACA_1:0.0000000100,AGACCTGTCTCAAAACA:0.0000004379):0.2371107439,94157_GERM:0.0000100000);
122362	2	107	0.2314	-91.6697	2.3530	0.4923	0.6903	0.6309	0.7567	4.0358	5.7693	3.3499	0.9129	-0.6548	-0.6433	((AGAGCAGGATGTAGGCA:0.0000000100,AGAGCAGGATGTAGGCA_1:0.0000006877):0.2313516603,122362_GERM:0.0000100000);
81363	2	108	0.1606	-73.4897	2.3530	0.4923	0.6903	0.6309	0.7567	4.0358	5.7693	3.3499	0.9129	-0.6548	-0.6433	((CACGATGACGCTCTATA_1:0.0000007086,CACGATGACGCTCTATA:0.0000007086):0.1606404409,81363_GERM:0.0000100000);
1286	2	108	0.2788	-113.7906	2.3530	0.4923	0.6903	0.6309	0.7567	4.0358	5.7693	3.3499	0.9129	-0.6548	-0.6433	((CATACTAGCTCATAAAT_1:0.0000006854,CATACTAGCTCATAAAT:0.0000000100):0.2788476821,1286_GERM:0.0000100000);
56313	2	108	0.1685	-77.5736	2.3530	0.4923	0.6903	0.6309	0.7567	4.0358	5.7693	3.3499	0.9129	-0.6548	-0.6433	((AGTGCTCACGGACTATG_1:0.0000008171,AGTGCTCACGGACTATG:0.0000000100):0.1685383630,56313_GERM:0.0000100000);
109151	2	107	0.2609	-109.8161	2.3530	0.4923	0.6903	0.6309	0.7567	4.0358	5.7693	3.3499	0.9129	-0.6548	-0.6433	((GCAACATGTGCTCTTTT_1:0.0000000100,GCAACATGTGCTCTTTT:0.0000007057):0.2608940212,109151_GERM:0.0000100000);
145029	2	108	0.2349	-101.8938	2.3530	0.4923	0.6903	0.6309	0.7567	4.0358	5.7693	3.3499	0.9129	-0.6548	-0.6433	((GGCGAAAATACTTCATT_1:0.0000000100,GGCGAAAATACTTCATT:0.0000009893):0.2348940671,145029_GERM:0.0000100000);
18720	2	108	0.2154	-95.0964	2.3530	0.4923	0.6903	0.6309	0.7567	4.0358	5.7693	3.3499	0.9129	-0.6548	-0.6433	((GTTACTCTTCATCTAAA:0.0000005332,GTTACTCTTCATCTAAA_1:0.0000005332):0.2154166327,18720_GERM:0.0000100000);
18716	2	107	0.2664	-106.7412	2.3530	0.4923	0.6903	0.6309	0.7567	4.0358	5.7693	3.3499	0.9129	-0.6548	-0.6433	((GACGTTATCATTCTAAT:0.0000004297,GACGTTATCATTCTAAT_1:0.0000000100):0.2664417955,18716_GERM:0.0000100000);
6594	2	109	0.2749	-111.6069	2.3530	0.4923	0.6903	0.6309	0.7567	4.0358	5.7693	3.3499	0.9129	-0.6548	-0.6433	((CACATATAACTTCGAGG_1:0.0000007253,CACATATAACTTCGAGG:0.0000000100):0.2748568728,6594_GERM:0.0000100000);
28609	2	108	0.1514	-76.0163	2.3530	0.4923	0.6903	0.6309	0.7567	4.0358	5.7693	3.3499	0.9129	-0.6548	-0.6433	((GTAGGTATTATTTACAA_1:0.0000007086,GTAGGTATTATTTACAA:0.0000007086):0.1513936812,28609_GERM:0.0000100000);
140974	2	108	0.3113	-123.9638	2.3530	0.4923	0.6903	0.6309	0.7567	4.0358	5.7693	3.3499	0.9129	-0.6548	-0.6433	((AAAAGATGCACACGCGG_1:0.0000005865,AAAAGATGCACACGCGG:0.0000005865):0.3112547785,140974_GERM:0.0000100000);
10465	2	108	0.1262	-66.6737	2.3530	0.4923	0.6903	0.6309	0.7567	4.0358	5.7693	3.3499	0.9129	-0.6548	-0.6433	((GCGGAAAGGCCTGCACG:0.0000007086,GCGGAAAGGCCTGCACG_1:0.0000007086):0.1261662836,10465_GERM:0.0000100000);
104383	2	108	0.4549	-155.5770	2.3530	0.4923	0.6903	0.6309	0.7567	4.0358	5.7693	3.3499	0.9129	-0.6548	-0.6433	((CTCGCATCTTATAGTTA_1:0.0000006350,CTCGCATCTTATAGTTA:0.0000006350):0.4548966094,104383_GERM:0.0000100000);
131048	2	109	0.1432	-73.0388	2.3530	0.4923	0.6903	0.6309	0.7567	4.0358	5.7693	3.3499	0.9129	-0.6548	-0.6433	((AGGGTACCGAGTATAAA_1:0.0000007104,AGGGTACCGAGTATAAA:0.0000007104):0.1431855575,131048_GERM:0.0000100000);
2464	2	108	0.3216	-124.2028	2.3530	0.4923	0.6903	0.6309	0.7567	4.0358	5.7693	3.3499	0.9129	-0.6548	-0.6433	((ATAAGACACAATTATAA_1:0.0000005543,ATAAGACACAATTATAA:0.0000005543):0.3216477450,2464_GERM:0.0000100000);
138839	2	107	0.2982	-121.4912	2.3530	0.4923	0.6903	0.6309	0.7567	4.0358	5.7693	3.3499	0.9129	-0.6548	-0.6433	((GGCGTTGTGGGTTTTGA:0.0000006518,GGCGTTGTGGGTTTTGA_1:0.0000000100):0.2982372902,138839_GERM:0.0000100000);
99899	2	108	0.3475	-140.6049	2.3530	0.4923	0.6903	0.6309	0.7567	4.0358	5.7693	3.3499	0.9129	-0.6548	-0.6433	((GCTATAACTCTTCTAAA_1:0.0000007003,GCTATAACTCTTCTAAA:0.0000000100):0.3475299216,99899_GERM:0.0000100000);
43273	2	108	0.3815	-140.1684	2.3530	0.4923	0.6903	0.6309	0.7567	4.0358	5.7693	3.3499	0.9129	-0.6548	-0.6433	((TGAAAATGACGTCTTCT_1:0.0000000100,TGAAAATGACGTCTTCT:0.0000007107):0.3814748712,43273_GERM:0.0000100000);
8451	2	108	0.2604	-106.2619	2.3530	0.4923	0.6903	0.6309	0.7567	4.0358	5.7693	3.3499	0.9129	-0.6548	-0.6433	((GAGAGTCCTTTACAAAT:0.0000000100,GAGAGTCCTTTACAAAT_1:0.0000006699):0.2603684107,8451_GERM:0.0000100000);
20061	2	107	0.1941	-83.2023	2.3530	0.4923	0.6903	0.6309	0.7567	4.0358	5.7693	3.3499	0.9129	-0.6548	-0.6433	((CATACATTATCTTAATG_1:0.0000004580,CATACATTATCTTAATG:0.0000000100):0.1941226631,20061_GERM:0.0000100000);
11885	2	108	0.6937	-206.9866	2.3530	0.4923	0.6903	0.6309	0.7567	4.0358	5.7693	3.3499	0.9129	-0.6548	-0.6433	((GAAGATCCCTCTGAGAT:0.0000006404,GAAGATCCCTCTGAGAT_1:0.0000006404):0.6937306594,11885_GERM:0.0000100000);
11462	2	107	0.2758	-114.5722	2.3530	0.4923	0.6903	0.6309	0.7567	4.0358	5.7693	3.3499	0.9129	-0.6548	-0.6433	((AGTCGAGTCCTTCTACA:0.0000004349,AGTCGAGTCCTTCTACA_1:0.0000000100):0.2757666615,11462_GERM:0.0000100000);
57652	2	110	0.2547	-110.2091	2.3530	0.4923	0.6903	0.6309	0.7567	4.0358	5.7693	3.3499	0.9129	-0.6548	-0.6433	((TTTCAAAACTATTTTTT_1:0.0000007086,TTTCAAAACTATTTTTT:0.0000007086):0.2547220177,57652_GERM:0.0000100000);
144854	2	108	0.2146	-95.7333	2.3530	0.4923	0.6903	0.6309	0.7567	4.0358	5.7693	3.3499	0.9129	-0.6548	-0.6433	((TAACTTGGTAAATAAGG:0.0000005964,TAACTTGGTAAATAAGG_1:0.0000005964):0.2146223546,144854_GERM:0.0000100000);
35298	2	107	0.6016	-181.4768	2.3530	0.4923	0.6903	0.6309	0.7567	4.0358	5.7693	3.3499	0.9129	-0.6548	-0.6433	((TGTCTACTACATCTATA_1:0.0000006160,TGTCTACTACATCTATA:0.0000006160):0.6016150947,35298_GERM:0.0000100000);
25242	2	107	0.2745	-109.2141	2.3530	0.4923	0.6903	0.6309	0.7567	4.0358	5.7693	3.3499	0.9129	-0.6548	-0.6433	((TGATTTCGAACAGATAC:0.0000006684,TGATTTCGAACAGATAC_1:0.0000000100):0.2745447599,25242_GERM:0.0000100000);
95085	2	108	0.4530	-153.9383	2.3530	0.4923	0.6903	0.6309	0.7567	4.0358	5.7693	3.3499	0.9129	-0.6548	-0.6433	((CGTGAAAACTCTTAATA_1:0.0000007086,CGTGAAAACTCTTAATA:0.0000007086):0.4529725225,95085_GERM:0.0000100000);
18711	2	108	0.4106	-143.0895	2.3530	0.4923	0.6903	0.6309	0.7567	4.0358	5.7693	3.3499	0.9129	-0.6548	-0.6433	((AAAATTGTTCAATATAA:0.0000000100,AAAATTGTTCAATATAA_1:0.0000007238):0.4105657430,18711_GERM:0.0000100000);
24078	2	108	0.1271	-64.2276	2.3530	0.4923	0.6903	0.6309	0.7567	4.0358	5.7693	3.3499	0.9129	-0.6548	-0.6433	((CAGAAAAACACACTGGG_1:0.0000005477,CAGAAAAACACACTGGG:0.0000005953):0.1270904505,24078_GERM:0.0000100000);
90127	2	108	0.2604	-111.4907	2.3530	0.4923	0.6903	0.6309	0.7567	4.0358	5.7693	3.3499	0.9129	-0.6548	-0.6433	((GGGAAAGTATTACACAT_1:0.0000007086,GGGAAAGTATTACACAT:0.0000007086):0.2603558391,90127_GERM:0.0000100000);
87251	2	109	0.4049	-149.8162	2.3530	0.4923	0.6903	0.6309	0.7567	4.0358	5.7693	3.3499	0.9129	-0.6548	-0.6433	((AGAGGACTACATACGCA:0.0000007086,AGAGGACTACATACGCA_1:0.0000007086):0.4048653199,87251_GERM:0.0000100000);
74870	2	107	0.4720	-146.4613	2.3530	0.4923	0.6903	0.6309	0.7567	4.0358	5.7693	3.3499	0.9129	-0.6548	-0.6433	((GAACGGATTCATGAGAC:0.0000007175,GAACGGATTCATGAGAC_1:0.0000000100):0.4720092300,74870_GERM:0.0000100000);
95373	2	108	0.1177	-65.2263	2.3530	0.4923	0.6903	0.6309	0.7567	4.0358	5.7693	3.3499	0.9129	-0.6548	-0.6433	((AAGCGTAAATCAATGAT:0.0000007114,AAGCGTAAATCAATGAT_1:0.0000000100):0.1176735610,95373_GERM:0.0000100000);
29655	2	108	0.3784	-145.3517	2.3530	0.4923	0.6903	0.6309	0.7567	4.0358	5.7693	3.3499	0.9129	-0.6548	-0.6433	((AAAAGAGCATATACAAA:0.0000006321,AAAAGAGCATATACAAA_1:0.0000006321):0.3784320013,29655_GERM:0.0000100000);
99398	2	108	0.2467	-112.7256	2.3530	0.4923	0.6903	0.6309	0.7567	4.0358	5.7693	3.3499	0.9129	-0.6548	-0.6433	((CCTATTTAGGATTCACA:0.0000007086,CCTATTTAGGATTCACA_1:0.0000007086):0.2466753781,99398_GERM:0.0000100000);
61879	2	108	0.1934	-87.9787	2.3530	0.4923	0.6903	0.6309	0.7567	4.0358	5.7693	3.3499	0.9129	-0.6548	-0.6433	((CGACCATTCATATATTA_1:0.0000005336,CGACCATTCATATATTA:0.0000005336):0.1933990107,61879_GERM:0.0000100000);
81653	2	107	0.4697	-154.6847	2.3530	0.4923	0.6903	0.6309	0.7567	4.0358	5.7693	3.3499	0.9129	-0.6548	-0.6433	((AACGGTGCCGAATGCTT_1:0.0000007086,AACGGTGCCGAATGCTT:0.0000007086):0.4697332359,81653_GERM:0.0000100000);
105771	2	73	0.4596	-117.6081	2.3530	0.4923	0.6903	0.6309	0.7567	4.0358	5.7693	3.3499	0.9129	-0.6548	-0.6433	((CGGGAAGATCAAATTAA:0.0000000100,CGGGAAGATCAAATTAA_1:0.0000004623):0.4596060001,105771_GERM:0.0000100000);
104447	2	108	0.3661	-141.1269	2.3530	0.4923	0.6903	0.6309	0.7567	4.0358	5.7693	3.3499	0.9129	-0.6548	-0.6433	((GTTGTAACTCAAATACT_1:0.0000000100,GTTGTAACTCAAATACT:0.0000008121):0.3660821210,104447_GERM:0.0000100000);
18713	2	108	0.2023	-92.0201	2.3530	0.4923	0.6903	0.6309	0.7567	4.0358	5.7693	3.3499	0.9129	-0.6548	-0.6433	((ATCACAATATTATCTTA_1:0.0000000100,ATCACAATATTATCTTA:0.0000009878):0.2023332976,18713_GERM:0.0000100000);
65276	2	108	0.1170	-62.2089	2.3530	0.4923	0.6903	0.6309	0.7567	4.0358	5.7693	3.3499	0.9129	-0.6548	-0.6433	((ATTTGTTAATCTATTAT_1:0.0000007086,ATTTGTTAATCTATTAT:0.0000007086):0.1169832101,65276_GERM:0.0000100000);
75770	2	109	0.1064	-56.6148	2.3530	0.4923	0.6903	0.6309	0.7567	4.0358	5.7693	3.3499	0.9129	-0.6548	-0.6433	((AGTTTTGGACTTCATCC_1:0.0000009985,AGTTTTGGACTTCATCC:0.0000000100):0.1064081483,75770_GERM:0.0000100000);
44331	2	110	0.3482	-136.3203	2.3530	0.4923	0.6903	0.6309	0.7567	4.0358	5.7693	3.3499	0.9129	-0.6548	-0.6433	((TACTTTGTACATCCATA:0.0000000100,TACTTTGTACATCCATA_1:0.0000006963):0.3481580664,44331_GERM:0.0000100000);
140705	2	109	0.1175	-61.0941	2.3530	0.4923	0.6903	0.6309	0.7567	4.0358	5.7693	3.3499	0.9129	-0.6548	-0.6433	((GCAGCTTATTTAAATCA:0.0000010336,GCAGCTTATTTAAATCA_1:0.0000000100):0.1175166801,140705_GERM:0.0000100000);
134800	2	107	0.1083	-56.4814	2.3530	0.4923	0.6903	0.6309	0.7567	4.0358	5.7693	3.3499	0.9129	-0.6548	-0.6433	((CACAGAGGGGAACCGCT:0.0000000100,CACAGAGGGGAACCGCT_1:0.0000007394):0.1082986985,134800_GERM:0.0000100000);
75090	2	75	0.2582	-77.4697	2.3530	0.4923	0.6903	0.6309	0.7567	4.0358	5.7693	3.3499	0.9129	-0.6548	-0.6433	((ATACATCTACCATATAA:0.0000000100,ATACATCTACCATATAA_1:0.0000005870):0.2581953863,75090_GERM:0.0000100000);
51874	2	108	0.1791	-78.9908	2.3530	0.4923	0.6903	0.6309	0.7567	4.0358	5.7693	3.3499	0.9129	-0.6548	-0.6433	((TAGCGATTACAAAAACA:0.0000000100,TAGCGATTACAAAAACA_1:0.0000007760):0.1791288027,51874_GERM:0.0000100000);
21512	2	108	0.3605	-135.6365	2.3530	0.4923	0.6903	0.6309	0.7567	4.0358	5.7693	3.3499	0.9129	-0.6548	-0.6433	((CACATTCAATATTTAAA_1:0.0000005612,CACATTCAATATTTAAA:0.0000005612):0.3605193737,21512_GERM:0.0000100000);
49713	2	108	0.3046	-119.1313	2.3530	0.4923	0.6903	0.6309	0.7567	4.0358	5.7693	3.3499	0.9129	-0.6548	-0.6433	((AATCAAAAAAATAACAC_1:0.0000005340,AATCAAAAAAATAACAC:0.0000005340):0.3045610003,49713_GERM:0.0000100000);
104264	2	108	0.4199	-149.3683	2.3530	0.4923	0.6903	0.6309	0.7567	4.0358	5.7693	3.3499	0.9129	-0.6548	-0.6433	((ATTTGATATATTTCCTA:0.0000007086,ATTTGATATATTTCCTA_1:0.0000007086):0.4198518013,104264_GERM:0.0000100000);
86512	2	107	0.4689	-155.5591	2.3530	0.4923	0.6903	0.6309	0.7567	4.0358	5.7693	3.3499	0.9129	-0.6548	-0.6433	((TAAACAGTCTCATCTCA:0.0000004584,TAAACAGTCTCATCTCA_1:0.0000000100):0.4689054947,86512_GERM:0.0000100000);
15959	2	109	0.1481	-75.2003	2.3530	0.4923	0.6903	0.6309	0.7567	4.0358	5.7693	3.3499	0.9129	-0.6548	-0.6433	((AAGTCAGATAATAAATA_1:0.0000007086,AAGTCAGATAATAAATA:0.0000007086):0.1481183296,15959_GERM:0.0000100000);
123203	2	107	0.3151	-124.2357	2.3530	0.4923	0.6903	0.6309	0.7567	4.0358	5.7693	3.3499	0.9129	-0.6548	-0.6433	((TAGTATTTTGATAAATG:0.0000007309,TAGTATTTTGATAAATG_1:0.0000000100):0.3151006383,123203_GERM:0.0000100000);
50373	2	108	0.2528	-107.7334	2.3530	0.4923	0.6903	0.6309	0.7567	4.0358	5.7693	3.3499	0.9129	-0.6548	-0.6433	((GACCATTTCTCTAAATT_1:0.0000010209,GACCATTTCTCTAAATT:0.0000000100):0.2527834483,50373_GERM:0.0000100000);
85802	2	107	0.1751	-82.7154	2.3530	0.4923	0.6903	0.6309	0.7567	4.0358	5.7693	3.3499	0.9129	-0.6548	-0.6433	((TCTGATTTGGGAGGAAC_1:0.0000007356,TCTGATTTGGGAGGAAC:0.0000000100):0.1751245410,85802_GERM:0.0000100000);
84562	2	109	0.2230	-93.4105	2.3530	0.4923	0.6903	0.6309	0.7567	4.0358	5.7693	3.3499	0.9129	-0.6548	-0.6433	((AGATTTTGCAATTATGT_1:0.0000000100,AGATTTTGCAATTATGT:0.0000009905):0.2229837352,84562_GERM:0.0000100000);
9929	2	108	0.3795	-147.1728	2.3530	0.4923	0.6903	0.6309	0.7567	4.0358	5.7693	3.3499	0.9129	-0.6548	-0.6433	((TGGCGTCCGCTTGCTTT_1:0.0000006946,TGGCGTCCGCTTGCTTT:0.0000006946):0.3794802589,9929_GERM:0.0000100000);
89622	2	108	0.2450	-106.0912	2.3530	0.4923	0.6903	0.6309	0.7567	4.0358	5.7693	3.3499	0.9129	-0.6548	-0.6433	((CGAAATGCCAGTCTTAG_1:0.0000007286,CGAAATGCCAGTCTTAG:0.0000007286):0.2449608803,89622_GERM:0.0000100000);
99903	2	66	0.2722	-71.5531	2.3530	0.4923	0.6903	0.6309	0.7567	4.0358	5.7693	3.3499	0.9129	-0.6548	-0.6433	((TACAGAGCAAGATACGG_1:0.0000007889,TACAGAGCAAGATACGG:0.0000000100):0.2721535547,99903_GERM:0.0000100000);
18751	2	107	0.2603	-108.0128	2.3530	0.4923	0.6903	0.6309	0.7567	4.0358	5.7693	3.3499	0.9129	-0.6548	-0.6433	((GTATGAATAATTTCTTA_1:0.0000007086,GTATGAATAATTTCTTA:0.0000007086):0.2602720438,18751_GERM:0.0000100000);
52046	2	108	0.1984	-84.2616	2.3530	0.4923	0.6903	0.6309	0.7567	4.0358	5.7693	3.3499	0.9129	-0.6548	-0.6433	((TATACATCAAATCTAAA_1:0.0000005777,TATACATCAAATCTAAA:0.0000005777):0.1984235069,52046_GERM:0.0000100000);
75769	2	109	0.1993	-86.2396	2.3530	0.4923	0.6903	0.6309	0.7567	4.0358	5.7693	3.3499	0.9129	-0.6548	-0.6433	((CGTCTACGAAGAGGGCA_1:0.0000000100,CGTCTACGAAGAGGGCA:0.0000007752):0.1993298491,75769_GERM:0.0000100000);
51172	2	107	0.1671	-81.7191	2.3530	0.4923	0.6903	0.6309	0.7567	4.0358	5.7693	3.3499	0.9129	-0.6548	-0.6433	((AGAACATACTTTCACAA:0.0000000100,AGAACATACTTTCACAA_1:0.0000007169):0.1671440505,51172_GERM:0.0000100000);
40067	2	107	0.2710	-108.6407	2.3530	0.4923	0.6903	0.6309	0.7567	4.0358	5.7693	3.3499	0.9129	-0.6548	-0.6433	((CAGCCATTCAATAATAA_1:0.0000004333,CAGCCATTCAATAATAA:0.0000000100):0.2709587245,40067_GERM:0.0000100000);
116478	2	109	0.3113	-122.0070	2.3530	0.4923	0.6903	0.6309	0.7567	4.0358	5.7693	3.3499	0.9129	-0.6548	-0.6433	((CAAAGTTATCTACCTTA:0.0000005499,CAAAGTTATCTACCTTA_1:0.0000005499):0.3113328278,116478_GERM:0.0000100000);
144996	2	107	0.3326	-119.1165	2.3530	0.4923	0.6903	0.6309	0.7567	4.0358	5.7693	3.3499	0.9129	-0.6548	-0.6433	((GTACAACATTATTTCTA_1:0.0000004257,GTACAACATTATTTCTA:0.0000000100):0.3326306523,144996_GERM:0.0000100000);
56300	2	108	0.1368	-69.2808	2.3530	0.4923	0.6903	0.6309	0.7567	4.0358	5.7693	3.3499	0.9129	-0.6548	-0.6433	((AAGCGAAAATCATTTAC:0.0000004209,AAGCGAAAATCATTTAC_1:0.0000000100):0.1367576899,56300_GERM:0.0000100000);
87174	2	107	0.2607	-116.9798	2.3530	0.4923	0.6903	0.6309	0.7567	4.0358	5.7693	3.3499	0.9129	-0.6548	-0.6433	((AACATATTTTATTAATT_1:0.0000004265,AACATATTTTATTAATT:0.0000010164):0.2607349067,87174_GERM:0.0000100000);
92711	2	107	0.2692	-111.9425	2.3530	0.4923	0.6903	0.6309	0.7567	4.0358	5.7693	3.3499	0.9129	-0.6548	-0.6433	((AAAACATTGACATAGAA:0.0000004145,AAAACATTGACATAGAA_1:0.0000000100):0.2692178450,92711_GERM:0.0000100000);
3067	2	108	0.1553	-71.9417	2.3530	0.4923	0.6903	0.6309	0.7567	4.0358	5.7693	3.3499	0.9129	-0.6548	-0.6433	((AAATTATAACATTACAA_1:0.0000007086,AAATTATAACATTACAA:0.0000007086):0.1552821157,3067_GERM:0.0000100000);
69830	2	108	0.1861	-84.0125	2.3530	0.4923	0.6903	0.6309	0.7567	4.0358	5.7693	3.3499	0.9129	-0.6548	-0.6433	((TTAAAAGGAAATCCACA:0.0000000100,TTAAAAGGAAATCCACA_1:0.0000008987):0.1861009376,69830_GERM:0.0000100000);
44330	2	110	0.2635	-113.0827	2.3530	0.4923	0.6903	0.6309	0.7567	4.0358	5.7693	3.3499	0.9129	-0.6548	-0.6433	((TAAAAAGTTAAACTAAA:0.0000000100,TAAAAAGTTAAACTAAA_1:0.0000004261):0.2634763772,44330_GERM:0.0000100000);
128414	2	108	0.1581	-70.6090	2.3530	0.4923	0.6903	0.6309	0.7567	4.0358	5.7693	3.3499	0.9129	-0.6548	-0.6433	((AGAATAACGTGTCATCA_1:0.0000000100,AGAATAACGTGTCATCA:0.0000004431):0.1581479656,128414_GERM:0.0000100000);
66563	2	108	0.2784	-116.1699	2.3530	0.4923	0.6903	0.6309	0.7567	4.0358	5.7693	3.3499	0.9129	-0.6548	-0.6433	((AAATTTTCCAAACAACA_1:0.0000000100,AAATTTTCCAAACAACA:0.0000007004):0.2783643026,66563_GERM:0.0000100000);
11701	2	108	0.1951	-85.3508	2.3530	0.4923	0.6903	0.6309	0.7567	4.0358	5.7693	3.3499	0.9129	-0.6548	-0.6433	((AAACTAAAAATATTCAA:0.0000006758,AAACTAAAAATATTCAA_1:0.0000000100):0.1950606742,11701_GERM:0.0000100000);
67932	2	108	0.3620	-119.3167	2.3530	0.4923	0.6903	0.6309	0.7567	4.0358	5.7693	3.3499	0.9129	-0.6548	-0.6433	((AAAATTTATTAATTTAA_1:0.0000004803,AAAATTTATTAATTTAA:0.0000000100):0.3620305182,67932_GERM:0.0000100000);
117479	2	107	0.2553	-106.6814	2.3530	0.4923	0.6903	0.6309	0.7567	4.0358	5.7693	3.3499	0.9129	-0.6548	-0.6433	((TAACATTCGCATAATTG:0.0000007048,TAACATTCGCATAATTG_1:0.0000007048):0.2552603262,117479_GERM:0.0000100000);
132523	2	108	0.2463	-105.0107	2.3530	0.4923	0.6903	0.6309	0.7567	4.0358	5.7693	3.3499	0.9129	-0.6548	-0.6433	((TAATGTACTTATAAATA_1:0.0000000100,TAATGTACTTATAAATA:0.0000006999):0.2462665396,132523_GERM:0.0000100000);
101612	2	106	0.2179	-98.2820	2.3530	0.4923	0.6903	0.6309	0.7567	4.0358	5.7693	3.3499	0.9129	-0.6548	-0.6433	((TCAGCATGATTTTACAA_1:0.0000000100,TCAGCATGATTTTACAA:0.0000008449):0.2179306326,101612_GERM:0.0000100000);
36081	2	110	0.2884	-112.0295	2.3530	0.4923	0.6903	0.6309	0.7567	4.0358	5.7693	3.3499	0.9129	-0.6548	-0.6433	((TGTCAAACATATCTCAA_1:0.0000007219,TGTCAAACATATCTCAA:0.0000000100):0.2884423958,36081_GERM:0.0000100000);
59171	2	108	0.2388	-104.8713	2.3530	0.4923	0.6903	0.6309	0.7567	4.0358	5.7693	3.3499	0.9129	-0.6548	-0.6433	((GGGCGTATCTTTCTTTT:0.0000000100,GGGCGTATCTTTCTTTT_1:0.0000004311):0.2387963683,59171_GERM:0.0000100000);
140875	2	109	0.2556	-108.4355	2.3530	0.4923	0.6903	0.6309	0.7567	4.0358	5.7693	3.3499	0.9129	-0.6548	-0.6433	((GAGACTGGTTATCATTA_1:0.0000000100,GAGACTGGTTATCATTA:0.0000004340):0.2556307093,140875_GERM:0.0000100000);
64509	2	108	0.5695	-183.2417	2.3530	0.4923	0.6903	0.6309	0.7567	4.0358	5.7693	3.3499	0.9129	-0.6548	-0.6433	((GAGCCATATAGTTCGGT:0.0000006652,GAGCCATATAGTTCGGT_1:0.0000000100):0.5694872946,64509_GERM:0.0000100000);
131242	2	107	0.3218	-119.0975	2.3530	0.4923	0.6903	0.6309	0.7567	4.0358	5.7693	3.3499	0.9129	-0.6548	-0.6433	((AGGGTTCGGGCAGCCGA_1:0.0000005597,AGGGTTCGGGCAGCCGA:0.0000005597):0.3218131974,131242_GERM:0.0000100000);
33184	2	107	0.2413	-95.1516	2.3530	0.4923	0.6903	0.6309	0.7567	4.0358	5.7693	3.3499	0.9129	-0.6548	-0.6433	((TTTTTACGCTCATCACT_1:0.0000003181,TTTTTACGCTCATCACT:0.0000004358):0.2412967209,33184_GERM:0.0000100000);
38446	2	107	0.1414	-72.6754	2.3530	0.4923	0.6903	0.6309	0.7567	4.0358	5.7693	3.3499	0.9129	-0.6548	-0.6433	((GAGAAATGTAAACCTTA:0.0000006816,GAGAAATGTAAACCTTA_1:0.0000000100):0.1414123680,38446_GERM:0.0000100000);
60156	2	110	0.3082	-122.4245	2.3530	0.4923	0.6903	0.6309	0.7567	4.0358	5.7693	3.3499	0.9129	-0.6548	-0.6433	((TGCGTTACAAGTACAGG_1:0.0000004126,TGCGTTACAAGTACAGG:0.0000000100):0.3082386013,60156_GERM:0.0000100000);
56299	2	108	0.5818	-182.4469	2.3530	0.4923	0.6903	0.6309	0.7567	4.0358	5.7693	3.3499	0.9129	-0.6548	-0.6433	((GGAACTAATGGAAAGCG:0.0000008449,GGAACTAATGGAAAGCG_1:0.0000000100):0.5818138141,56299_GERM:0.0000100000);
140546	2	107	0.2257	-99.0784	2.3530	0.4923	0.6903	0.6309	0.7567	4.0358	5.7693	3.3499	0.9129	-0.6548	-0.6433	((GCAGAAGATTTAGAGAG:0.0000007086,GCAGAAGATTTAGAGAG_1:0.0000007086):0.2257222063,140546_GERM:0.0000100000);
16567	2	107	0.3287	-129.0152	2.3530	0.4923	0.6903	0.6309	0.7567	4.0358	5.7693	3.3499	0.9129	-0.6548	-0.6433	((TGATGTATTACTTTACA:0.0000007942,TGATGTATTACTTTACA_1:0.0000000100):0.3287103400,16567_GERM:0.0000100000);
64698	2	108	0.2917	-119.5330	2.3530	0.4923	0.6903	0.6309	0.7567	4.0358	5.7693	3.3499	0.9129	-0.6548	-0.6433	((GATAGACATTCTCACTA:0.0000006421,GATAGACATTCTCACTA_1:0.0000000100):0.2916864345,64698_GERM:0.0000100000);
138336	2	107	0.1498	-76.3075	2.3530	0.4923	0.6903	0.6309	0.7567	4.0358	5.7693	3.3499	0.9129	-0.6548	-0.6433	((CGCCGTCAATCTTACAT_1:0.0000006836,CGCCGTCAATCTTACAT:0.0000000100):0.1498441013,138336_GERM:0.0000100000);
65662	2	108	0.2399	-100.9203	2.3530	0.4923	0.6903	0.6309	0.7567	4.0358	5.7693	3.3499	0.9129	-0.6548	-0.6433	((GAGCAAAGGCTATTTTC_1:0.0000007086,GAGCAAAGGCTATTTTC:0.0000007086):0.2398532076,65662_GERM:0.0000100000);
128759	2	108	0.2532	-102.2660	2.3530	0.4923	0.6903	0.6309	0.7567	4.0358	5.7693	3.3499	0.9129	-0.6548	-0.6433	((GAGGCTCGTTGTCTAGT_1:0.0000000100,GAGGCTCGTTGTCTAGT:0.0000007766):0.2532093091,128759_GERM:0.0000100000);
128715	2	106	0.5312	-173.3970	2.3530	0.4923	0.6903	0.6309	0.7567	4.0358	5.7693	3.3499	0.9129	-0.6548	-0.6433	((TGGAGAGCGGGATGGGA:0.0000005816,TGGAGAGCGGGATGGGA_1:0.0000005816):0.5312337015,128715_GERM:0.0000100000);
60777	2	106	0.2554	-106.0054	2.3530	0.4923	0.6903	0.6309	0.7567	4.0358	5.7693	3.3499	0.9129	-0.6548	-0.6433	((ACAAATGGTCTATAATA:0.0000004364,ACAAATGGTCTATAATA_1:0.0000000100):0.2554107754,60777_GERM:0.0000100000);
99908	2	108	0.2107	-97.2537	2.3530	0.4923	0.6903	0.6309	0.7567	4.0358	5.7693	3.3499	0.9129	-0.6548	-0.6433	((CACCGATTAATATTACA:0.0000005723,CACCGATTAATATTACA_1:0.0000005723):0.2106679577,99908_GERM:0.0000100000);
114424	2	108	0.1901	-89.7258	2.3530	0.4923	0.6903	0.6309	0.7567	4.0358	5.7693	3.3499	0.9129	-0.6548	-0.6433	((GTTGCTATGGCTGTAGT_1:0.0000007650,GTTGCTATGGCTGTAGT:0.0000000100):0.1901348406,114424_GERM:0.0000100000);
34902	2	108	0.0963	-51.1717	2.3530	0.4923	0.6903	0.6309	0.7567	4.0358	5.7693	3.3499	0.9129	-0.6548	-0.6433	((GAAGGTCTCACATAACT_1:0.0000009841,GAAGGTCTCACATAACT:0.0000000100):0.0963449171,34902_GERM:0.0000100000);
29656	2	108	0.3010	-120.0312	2.3530	0.4923	0.6903	0.6309	0.7567	4.0358	5.7693	3.3499	0.9129	-0.6548	-0.6433	((TCAAATACATTTATACA_1:0.0000007258,TCAAATACATTTATACA:0.0000000100):0.3009863663,29656_GERM:0.0000100000);
59084	2	108	0.3631	-140.3185	2.3530	0.4923	0.6903	0.6309	0.7567	4.0358	5.7693	3.3499	0.9129	-0.6548	-0.6433	((ATACCAACGGCTCACGA_1:0.0000000100,ATACCAACGGCTCACGA:0.0000008141):0.3630889627,59084_GERM:0.0000100000);
130872	2	107	0.3287	-122.3628	2.3530	0.4923	0.6903	0.6309	0.7567	4.0358	5.7693	3.3499	0.9129	-0.6548	-0.6433	((TAATCACATATTATTCT_1:0.0000000100,TAATCACATATTATTCT:0.0000007013):0.3287179928,130872_GERM:0.0000100000);
110154	2	110	0.1165	-60.0796	2.3530	0.4923	0.6903	0.6309	0.7567	4.0358	5.7693	3.3499	0.9129	-0.6548	-0.6433	((GCTGATGGACTTTTACA:0.0000000100,GCTGATGGACTTTTACA_1:0.0000004370):0.1165258102,110154_GERM:0.0000100000);
134329	2	108	0.3256	-131.1190	2.3530	0.4923	0.6903	0.6309	0.7567	4.0358	5.7693	3.3499	0.9129	-0.6548	-0.6433	((GTTCTAGACAAACCAAT_1:0.0000005788,GTTCTAGACAAACCAAT:0.0000005788):0.3256031205,134329_GERM:0.0000100000);
116322	2	107	0.2329	-94.6746	2.3530	0.4923	0.6903	0.6309	0.7567	4.0358	5.7693	3.3499	0.9129	-0.6548	-0.6433	((CAGCGTACACATCGAAA_1:0.0000010341,CAGCGTACACATCGAAA:0.0000000100):0.2329005996,116322_GERM:0.0000100000);
24344	2	106	0.2288	-94.8397	2.3530	0.4923	0.6903	0.6309	0.7567	4.0358	5.7693	3.3499	0.9129	-0.6548	-0.6433	((CTTTAAACATCTCTATA_1:0.0000000100,CTTTAAACATCTCTATA:0.0000006913):0.2288265931,24344_GERM:0.0000100000);
112874	2	73	0.1022	-33.9384	2.3530	0.4923	0.6903	0.6309	0.7567	4.0358	5.7693	3.3499	0.9129	-0.6548	-0.6433	((CACATATCATAATTTTA_1:0.0000005831,CACATATCATAATTTTA:0.0000000100):0.1022209706,112874_GERM:0.0000100000);
27499	2	108	0.2953	-118.5151	2.3530	0.4923	0.6903	0.6309	0.7567	4.0358	5.7693	3.3499	0.9129	-0.6548	-0.6433	((GCTAGTCCAACTCCAAA_1:0.0000000100,GCTAGTCCAACTCCAAA:0.0000006385):0.2952542899,27499_GERM:0.0000100000);
73995	2	108	0.2246	-96.1200	2.3530	0.4923	0.6903	0.6309	0.7567	4.0358	5.7693	3.3499	0.9129	-0.6548	-0.6433	((AACCGACATAATCGCAA:0.0000007186,AACCGACATAATCGCAA_1:0.0000000100):0.2245673320,73995_GERM:0.0000100000);
74096	2	108	0.1155	-64.4430	2.3530	0.4923	0.6903	0.6309	0.7567	4.0358	5.7693	3.3499	0.9129	-0.6548	-0.6433	((ATTAAACGCTAATTTCT:0.0000004026,ATTAAACGCTAATTTCT_1:0.0000000100):0.1155048467,74096_GERM:0.0000100000);
140576	2	107	0.2556	-102.7390	2.3530	0.4923	0.6903	0.6309	0.7567	4.0358	5.7693	3.3499	0.9129	-0.6548	-0.6433	((AAGCAACACACTACATA_1:0.0000000100,AAGCAACACACTACATA:0.0000004068):0.2555861893,140576_GERM:0.0000100000);
11081	2	108	0.1728	-82.3503	2.3530	0.4923	0.6903	0.6309	0.7567	4.0358	5.7693	3.3499	0.9129	-0.6548	-0.6433	((GGGAAAGGAAAAAATGT:0.0000000100,GGGAAAGGAAAAAATGT_1:0.0000004360):0.1728130828,11081_GERM:0.0000100000);
135505	2	108	0.2318	-90.8319	2.3530	0.4923	0.6903	0.6309	0.7567	4.0358	5.7693	3.3499	0.9129	-0.6548	-0.6433	((GAGCAATGCGCATTAAG_1:0.0000010034,GAGCAATGCGCATTAAG:0.0000000100):0.2317529707,135505_GERM:0.0000100000);
66175	2	108	0.2595	-115.5428	2.3530	0.4923	0.6903	0.6309	0.7567	4.0358	5.7693	3.3499	0.9129	-0.6548	-0.6433	((CGATAATTTAAAAATAA_1:0.0000007086,CGATAATTTAAAAATAA:0.0000007086):0.2595485678,66175_GERM:0.0000100000);
28615	2	108	0.3310	-129.4405	2.3530	0.4923	0.6903	0.6309	0.7567	4.0358	5.7693	3.3499	0.9129	-0.6548	-0.6433	((GACTTTTTATAAATTTA:0.0000000100,GACTTTTTATAAATTTA_1:0.0000006513):0.3309792176,28615_GERM:0.0000100000);
99919	2	108	0.3825	-150.7539	2.3530	0.4923	0.6903	0.6309	0.7567	4.0358	5.7693	3.3499	0.9129	-0.6548	-0.6433	((GGGACAACGGGTAATGT_1:0.0000006198,GGGACAACGGGTAATGT:0.0000006198):0.3824664230,99919_GERM:0.0000100000);
130603	2	109	0.1456	-71.3844	2.3530	0.4923	0.6903	0.6309	0.7567	4.0358	5.7693	3.3499	0.9129	-0.6548	-0.6433	((TCCTTAAGTTTTGGGCG_1:0.0000007484,TCCTTAAGTTTTGGGCG:0.0000000100):0.1455957927,130603_GERM:0.0000100000);
25063	2	108	0.2760	-110.6909	2.3530	0.4923	0.6903	0.6309	0.7567	4.0358	5.7693	3.3499	0.9129	-0.6548	-0.6433	((CGGGAAGTTAAATATTA_1:0.0000009854,CGGGAAGTTAAATATTA:0.0000000100):0.2760065580,25063_GERM:0.0000100000);
57168	2	106	0.3528	-133.4339	2.3530	0.4923	0.6903	0.6309	0.7567	4.0358	5.7693	3.3499	0.9129	-0.6548	-0.6433	((TGTCCTTCATATATTTC_1:0.0000000100,TGTCCTTCATATATTTC:0.0000007514):0.3528115712,57168_GERM:0.0000100000);
81275	2	79	0.0259	-14.8852	2.3530	0.4923	0.6903	0.6309	0.7567	4.0358	5.7693	3.3499	0.9129	-0.6548	-0.6433	((TAGAAAGAATCTTTCAA:0.0000000100,TAGAAAGAATCTTTCAA_1:0.0000004396):0.0258642468,81275_GERM:0.0000100000);
119928	2	108	0.2838	-111.8854	2.3530	0.4923	0.6903	0.6309	0.7567	4.0358	5.7693	3.3499	0.9129	-0.6548	-0.6433	((TCATGTCATTTTTCATT:0.0000007126,TCATGTCATTTTTCATT_1:0.0000007126):0.2837720204,119928_GERM:0.0000100000);
81104	2	109	0.2262	-104.0990	2.3530	0.4923	0.6903	0.6309	0.7567	4.0358	5.7693	3.3499	0.9129	-0.6548	-0.6433	((GATGTAATCTGTAATCT_1:0.0000009528,GATGTAATCTGTAATCT:0.0000000100):0.2262119477,81104_GERM:0.0000100000);
58391	2	108	0.2824	-112.2859	2.3530	0.4923	0.6903	0.6309	0.7567	4.0358	5.7693	3.3499	0.9129	-0.6548	-0.6433	((ATAAAACAATCACCTAA:0.0000007536,ATAAAACAATCACCTAA_1:0.0000000100):0.2823933043,58391_GERM:0.0000100000);
24131	2	108	0.3600	-137.1698	2.3530	0.4923	0.6903	0.6309	0.7567	4.0358	5.7693	3.3499	0.9129	-0.6548	-0.6433	((GATTGTTAGCAATTCAC:0.0000009703,GATTGTTAGCAATTCAC_1:0.0000000100):0.3600050863,24131_GERM:0.0000100000);
145278	2	108	0.1797	-81.4942	2.3530	0.4923	0.6903	0.6309	0.7567	4.0358	5.7693	3.3499	0.9129	-0.6548	-0.6433	((ATGACAGAGTATGCGAT:0.0000000100,ATGACAGAGTATGCGAT_1:0.0000009780):0.1797255215,145278_GERM:0.0000100000);
48580	2	108	0.2319	-96.7827	2.3530	0.4923	0.6903	0.6309	0.7567	4.0358	5.7693	3.3499	0.9129	-0.6548	-0.6433	((ACACAATCAATTTTTTC:0.0000004441,ACACAATCAATTTTTTC_1:0.0000000100):0.2319495352,48580_GERM:0.0000100000);
31272	2	110	0.3034	-119.3823	2.3530	0.4923	0.6903	0.6309	0.7567	4.0358	5.7693	3.3499	0.9129	-0.6548	-0.6433	((GTTTAAAACTCTACAGA:0.0000007930,GTTTAAAACTCTACAGA_1:0.0000000100):0.3033771282,31272_GERM:0.0000100000);
144363	2	108	0.4097	-134.8167	2.3530	0.4923	0.6903	0.6309	0.7567	4.0358	5.7693	3.3499	0.9129	-0.6548	-0.6433	((ACGTAACAATAAACTAT_1:0.0000000100,ACGTAACAATAAACTAT:0.0000007941):0.4096980615,144363_GERM:0.0000100000);
23466	2	108	0.2005	-96.2897	2.3530	0.4923	0.6903	0.6309	0.7567	4.0358	5.7693	3.3499	0.9129	-0.6548	-0.6433	((TGTAAATGTACACTTGA:0.0000005844,TGTAAATGTACACTTGA_1:0.0000005844):0.2005064383,23466_GERM:0.0000100000);
65449	2	106	0.2955	-121.8064	2.3530	0.4923	0.6903	0.6309	0.7567	4.0358	5.7693	3.3499	0.9129	-0.6548	-0.6433	((GAAGAAATCAAATAATA:0.0000007362,GAAGAAATCAAATAATA_1:0.0000000100):0.2955018627,65449_GERM:0.0000100000);
30898	2	107	0.1075	-57.5938	2.3530	0.4923	0.6903	0.6309	0.7567	4.0358	5.7693	3.3499	0.9129	-0.6548	-0.6433	((CTATCAAAATAAACTAA_1:0.0000009974,CTATCAAAATAAACTAA:0.0000000100):0.1075198970,30898_GERM:0.0000100000);
140771	2	108	0.2396	-105.1365	2.3530	0.4923	0.6903	0.6309	0.7567	4.0358	5.7693	3.3499	0.9129	-0.6548	-0.6433	((CAGAATTCGTCTACTCA_1:0.0000004439,CAGAATTCGTCTACTCA:0.0000000100):0.2396459273,140771_GERM:0.0000100000);
96363	2	66	0.3962	-79.8849	2.3530	0.4923	0.6903	0.6309	0.7567	4.0358	5.7693	3.3499	0.9129	-0.6548	-0.6433	((GAAATTCTCACTTACAC:0.0000000100,GAAATTCTCACTTACAC_1:0.0000008304):0.3962091774,96363_GERM:0.0000100000);
44280	2	110	0.0867	-47.0923	2.3530	0.4923	0.6903	0.6309	0.7567	4.0358	5.7693	3.3499	0.9129	-0.6548	-0.6433	((TGTTTATCTTAACAAAA:0.0000000100,TGTTTATCTTAACAAAA_1:0.0000008172):0.0866804954,44280_GERM:0.0000100000);
69735	2	108	0.4664	-156.6152	2.3530	0.4923	0.6903	0.6309	0.7567	4.0358	5.7693	3.3499	0.9129	-0.6548	-0.6433	((AGGTCAAACAGTCATTG_1:0.0000007162,AGGTCAAACAGTCATTG:0.0000000100):0.4664323682,69735_GERM:0.0000100000);
76223	2	109	0.4375	-162.7592	2.3530	0.4923	0.6903	0.6309	0.7567	4.0358	5.7693	3.3499	0.9129	-0.6548	-0.6433	((GACCTAAAGTATTACGC_1:0.0000007153,GACCTAAAGTATTACGC:0.0000007153):0.4375311361,76223_GERM:0.0000100000);
117024	2	107	0.2007	-90.8532	2.3530	0.4923	0.6903	0.6309	0.7567	4.0358	5.7693	3.3499	0.9129	-0.6548	-0.6433	((TAAATTAAATTTCTCAA_1:0.0000000100,TAAATTAAATTTCTCAA:0.0000007082):0.2006908866,117024_GERM:0.0000100000);
32826	2	62	0.1369	-39.1975	2.3530	0.4923	0.6903	0.6309	0.7567	4.0358	5.7693	3.3499	0.9129	-0.6548	-0.6433	((CAAGCAGCATCAACCTA_1:0.0000000100,CAAGCAGCATCAACCTA:0.0000007940):0.1369383786,32826_GERM:0.0000100000);
13874	2	75	0.0545	-27.4201	2.3530	0.4923	0.6903	0.6309	0.7567	4.0358	5.7693	3.3499	0.9129	-0.6548	-0.6433	((CATACAACCACTAATAA:0.0000007086,CATACAACCACTAATAA_1:0.0000007086):0.0545299563,13874_GERM:0.0000100000);
56312	2	108	0.2102	-94.5594	2.3530	0.4923	0.6903	0.6309	0.7567	4.0358	5.7693	3.3499	0.9129	-0.6548	-0.6433	((GTAGAAATAAATATACT_1:0.0000004270,GTAGAAATAAATATACT:0.0000000100):0.2101742863,56312_GERM:0.0000100000);
19700	2	109	0.2359	-96.9976	2.3530	0.4923	0.6903	0.6309	0.7567	4.0358	5.7693	3.3499	0.9129	-0.6548	-0.6433	((AGAAATACTTCAAATAT_1:0.0000006157,AGAAATACTTCAAATAT:0.0000006157):0.2358613712,19700_GERM:0.0000100000);
32899	2	108	0.4584	-156.1884	2.3530	0.4923	0.6903	0.6309	0.7567	4.0358	5.7693	3.3499	0.9129	-0.6548	-0.6433	((AGAAGATTTATAAAACA_1:0.0000006531,AGAAGATTTATAAAACA:0.0000000100):0.4583505351,32899_GERM:0.0000100000);
116567	2	107	0.3506	-137.5738	2.3530	0.4923	0.6903	0.6309	0.7567	4.0358	5.7693	3.3499	0.9129	-0.6548	-0.6433	((AATAATGAGCATGGATT:0.0000000100,AATAATGAGCATGGATT_1:0.0000004114):0.3506073807,116567_GERM:0.0000100000);
134089	2	108	0.3381	-132.9372	2.3530	0.4923	0.6903	0.6309	0.7567	4.0358	5.7693	3.3499	0.9129	-0.6548	-0.6433	((AGGATTGGACCACGCTC_1:0.0000006882,AGGATTGGACCACGCTC:0.0000000100):0.3381415612,134089_GERM:0.0000100000);
76427	2	109	0.3842	-140.3164	2.3530	0.4923	0.6903	0.6309	0.7567	4.0358	5.7693	3.3499	0.9129	-0.6548	-0.6433	((GGGCGTCACATACTCAA_1:0.0000010105,GGGCGTCACATACTCAA:0.0000000100):0.3841607769,76427_GERM:0.0000100000);
107702	2	108	0.3523	-128.4106	2.3530	0.4923	0.6903	0.6309	0.7567	4.0358	5.7693	3.3499	0.9129	-0.6548	-0.6433	((ATCCTTAAAACTATAAA_1:0.0000007659,ATCCTTAAAACTATAAA:0.0000000100):0.3523313205,107702_GERM:0.0000100000);
89875	2	108	0.2341	-102.1811	2.3530	0.4923	0.6903	0.6309	0.7567	4.0358	5.7693	3.3499	0.9129	-0.6548	-0.6433	((CATGGTAAAACACAGCT_1:0.0000000100,CATGGTAAAACACAGCT:0.0000004397):0.2341483121,89875_GERM:0.0000100000);
13634	2	109	0.2711	-113.5198	2.3530	0.4923	0.6903	0.6309	0.7567	4.0358	5.7693	3.3499	0.9129	-0.6548	-0.6433	((GAAGTACGCGCAAATTT:0.0000000100,GAAGTACGCGCAAATTT_1:0.0000009731):0.2710919961,13634_GERM:0.0000100000);
3046	2	107	0.0999	-52.1932	2.3530	0.4923	0.6903	0.6309	0.7567	4.0358	5.7693	3.3499	0.9129	-0.6548	-0.6433	((TGCACAAAGAGAGGAGG:0.0000000100,TGCACAAAGAGAGGAGG_1:0.0000010239):0.0998526548,3046_GERM:0.0000100000);
44057	2	108	0.4718	-179.0910	2.3530	0.4923	0.6903	0.6309	0.7567	4.0358	5.7693	3.3499	0.9129	-0.6548	-0.6433	((TCACTTTAATCTTATAT:0.0000009804,TCACTTTAATCTTATAT_1:0.0000000100):0.4718419240,44057_GERM:0.0000100000);
101557	2	108	0.4428	-152.9904	2.3530	0.4923	0.6903	0.6309	0.7567	4.0358	5.7693	3.3499	0.9129	-0.6548	-0.6433	((AACATAACAAAAAAAGG_1:0.0000007044,AACATAACAAAAAAAGG:0.0000000100):0.4428070345,101557_GERM:0.0000100000);
89913	2	108	0.3554	-134.2230	2.3530	0.4923	0.6903	0.6309	0.7567	4.0358	5.7693	3.3499	0.9129	-0.6548	-0.6433	((AAGTATACACTACATCC:0.0000007349,AAGTATACACTACATCC_1:0.0000000100):0.3553577576,89913_GERM:0.0000100000);
26886	2	108	0.4553	-153.4284	2.3530	0.4923	0.6903	0.6309	0.7567	4.0358	5.7693	3.3499	0.9129	-0.6548	-0.6433	((TGTCTAAATTTATTCAT_1:0.0000004368,TGTCTAAATTTATTCAT:0.0000000100):0.4553114036,26886_GERM:0.0000100000);
85798	2	107	0.1967	-90.6381	2.3530	0.4923	0.6903	0.6309	0.7567	4.0358	5.7693	3.3499	0.9129	-0.6548	-0.6433	((ACAGTTAAATTTATATA:0.0000005445,ACAGTTAAATTTATATA_1:0.0000005445):0.1967223482,85798_GERM:0.0000100000);
41825	2	110	0.2318	-101.1154	2.3530	0.4923	0.6903	0.6309	0.7567	4.0358	5.7693	3.3499	0.9129	-0.6548	-0.6433	((CTATGAAAAATTCCTCA:0.0000000100,CTATGAAAAATTCCTCA_1:0.0000009536):0.2317812052,41825_GERM:0.0000100000);
17688	2	108	0.2657	-104.8037	2.3530	0.4923	0.6903	0.6309	0.7567	4.0358	5.7693	3.3499	0.9129	-0.6548	-0.6433	((GCAACTGCATAAGCTTT_1:0.0000010304,GCAACTGCATAAGCTTT:0.0000000100):0.2657298965,17688_GERM:0.0000100000);
51917	2	108	0.1571	-76.9450	2.3530	0.4923	0.6903	0.6309	0.7567	4.0358	5.7693	3.3499	0.9129	-0.6548	-0.6433	((AATAAAGAGTCATTAAC_1:0.0000007472,AATAAAGAGTCATTAAC:0.0000007472):0.1571292030,51917_GERM:0.0000100000);
116822	2	109	0.2750	-108.2899	2.3530	0.4923	0.6903	0.6309	0.7567	4.0358	5.7693	3.3499	0.9129	-0.6548	-0.6433	((TTCTTTTTATCTTTACT:0.0000000100,TTCTTTTTATCTTTACT_1:0.0000007826):0.2750139232,116822_GERM:0.0000100000);
133955	2	108	0.3615	-128.8086	2.3530	0.4923	0.6903	0.6309	0.7567	4.0358	5.7693	3.3499	0.9129	-0.6548	-0.6433	((CACAGATCTGAAGTCGT_1:0.0000005621,CACAGATCTGAAGTCGT:0.0000005621):0.3615019809,133955_GERM:0.0000100000);
49503	2	108	0.2671	-112.3254	2.3530	0.4923	0.6903	0.6309	0.7567	4.0358	5.7693	3.3499	0.9129	-0.6548	-0.6433	((GCGAAATTTTTACATCA:0.0000007041,GCGAAATTTTTACATCA_1:0.0000007041):0.2671387654,49503_GERM:0.0000100000);
99850	2	108	0.1770	-90.2294	2.3530	0.4923	0.6903	0.6309	0.7567	4.0358	5.7693	3.3499	0.9129	-0.6548	-0.6433	((GGAAAAAGGCAACGACG_1:0.0000004055,GGAAAAAGGCAACGACG:0.0000000100):0.1770294888,99850_GERM:0.0000100000);
145725	2	107	0.0989	-52.3855	2.3530	0.4923	0.6903	0.6309	0.7567	4.0358	5.7693	3.3499	0.9129	-0.6548	-0.6433	((CCATTTAAATATCTTTA:0.0000000100,CCATTTAAATATCTTTA_1:0.0000007103):0.0989174086,145725_GERM:0.0000100000);
100005	2	108	0.1617	-73.7871	2.3530	0.4923	0.6903	0.6309	0.7567	4.0358	5.7693	3.3499	0.9129	-0.6548	-0.6433	((CGGGTATGTTGAGTCAC_1:0.0000006059,CGGGTATGTTGAGTCAC:0.0000005410):0.1616779079,100005_GERM:0.0000100000);
125184	2	108	0.2439	-101.2120	2.3530	0.4923	0.6903	0.6309	0.7567	4.0358	5.7693	3.3499	0.9129	-0.6548	-0.6433	((TATATAAAGATTAACAA:0.0000010231,TATATAAAGATTAACAA_1:0.0000000100):0.2439265609,125184_GERM:0.0000100000);
65737	2	70	0.3048	-82.7064	2.3530	0.4923	0.6903	0.6309	0.7567	4.0358	5.7693	3.3499	0.9129	-0.6548	-0.6433	((AAGCCATAAATAACTTC_1:0.0000009975,AAGCCATAAATAACTTC:0.0000000100):0.3047847382,65737_GERM:0.0000100000);
131466	2	109	0.1933	-86.8669	2.3530	0.4923	0.6903	0.6309	0.7567	4.0358	5.7693	3.3499	0.9129	-0.6548	-0.6433	((AGAGGTTATCTTTTATA:0.0000009905,AGAGGTTATCTTTTATA_1:0.0000000100):0.1932830330,131466_GERM:0.0000100000);
7016	2	108	0.3806	-134.3800	2.3530	0.4923	0.6903	0.6309	0.7567	4.0358	5.7693	3.3499	0.9129	-0.6548	-0.6433	((AAGTATGGCTCATTTCC:0.0000007501,AAGTATGGCTCATTTCC_1:0.0000000100):0.3805837718,7016_GERM:0.0000100000);
35578	2	108	0.4253	-145.4509	2.3530	0.4923	0.6903	0.6309	0.7567	4.0358	5.7693	3.3499	0.9129	-0.6548	-0.6433	((TGACGAAGAATTTAACG:0.0000007086,TGACGAAGAATTTAACG_1:0.0000007086):0.4252686298,35578_GERM:0.0000100000);
145425	2	63	0.1917	-52.2213	2.3530	0.4923	0.6903	0.6309	0.7567	4.0358	5.7693	3.3499	0.9129	-0.6548	-0.6433	((ATTACAAGTGATCTGGC_1:0.0000000100,ATTACAAGTGATCTGGC:0.0000012985):0.1917206128,145425_GERM:0.0000100000);
86841	2	107	0.2487	-95.3749	2.3530	0.4923	0.6903	0.6309	0.7567	4.0358	5.7693	3.3499	0.9129	-0.6548	-0.6433	((TTAACACTAATTCTCAC_1:0.0000000100,TTAACACTAATTCTCAC:0.0000004626):0.2486788868,86841_GERM:0.0000100000);
2548	2	108	0.4444	-145.2472	2.3530	0.4923	0.6903	0.6309	0.7567	4.0358	5.7693	3.3499	0.9129	-0.6548	-0.6433	((AATGTCACGTTACTAGG:0.0000000100,AATGTCACGTTACTAGG_1:0.0000004142):0.4444388970,2548_GERM:0.0000100000);
47669	2	107	0.2079	-93.5613	2.3530	0.4923	0.6903	0.6309	0.7567	4.0358	5.7693	3.3499	0.9129	-0.6548	-0.6433	((AAGCCTGTAAATCGACT:0.0000000100,AAGCCTGTAAATCGACT_1:0.0000010000):0.2078978509,47669_GERM:0.0000100000);
14334	2	108	0.4147	-147.4224	2.3530	0.4923	0.6903	0.6309	0.7567	4.0358	5.7693	3.3499	0.9129	-0.6548	-0.6433	((AACGTCAAGGATGATCT:0.0000007086,AACGTCAAGGATGATCT_1:0.0000007086):0.4147333789,14334_GERM:0.0000100000);
18226	2	108	0.4607	-161.0125	2.3530	0.4923	0.6903	0.6309	0.7567	4.0358	5.7693	3.3499	0.9129	-0.6548	-0.6433	((ACTTATTCGTTAATTTA_1:0.0000007331,ACTTATTCGTTAATTTA:0.0000000100):0.4607127981,18226_GERM:0.0000100000);
99878	2	108	0.2672	-109.8198	2.3530	0.4923	0.6903	0.6309	0.7567	4.0358	5.7693	3.3499	0.9129	-0.6548	-0.6433	((AATAAATAAACTTATCA:0.0000000100,AATAAATAAACTTATCA_1:0.0000007103):0.2671546838,99878_GERM:0.0000100000);
99901	2	108	0.2443	-106.9834	2.3530	0.4923	0.6903	0.6309	0.7567	4.0358	5.7693	3.3499	0.9129	-0.6548	-0.6433	((TCGAAAACTAAATTCCA_1:0.0000000100,TCGAAAACTAAATTCCA:0.0000004338):0.2443300149,99901_GERM:0.0000100000);
59273	2	108	0.0379	-24.0423	2.3530	0.4923	0.6903	0.6309	0.7567	4.0358	5.7693	3.3499	0.9129	-0.6548	-0.6433	((TGACATAAGGATAGAGG:0.0000007086,TGACATAAGGATAGAGG_1:0.0000007086):0.0378961786,59273_GERM:0.0000100000);
96303	2	108	0.3423	-135.1120	2.3530	0.4923	0.6903	0.6309	0.7567	4.0358	5.7693	3.3499	0.9129	-0.6548	-0.6433	((TCGGCTACGAGAACATA_1:0.0000005737,TCGGCTACGAGAACATA:0.0000005737):0.3422947667,96303_GERM:0.0000100000);
101306	2	108	0.2680	-116.8104	2.3530	0.4923	0.6903	0.6309	0.7567	4.0358	5.7693	3.3499	0.9129	-0.6548	-0.6433	((AACTTATATTTTATCAA_1:0.0000000100,AACTTATATTTTATCAA:0.0000004302):0.2680246273,101306_GERM:0.0000100000);
25362	2	107	0.3147	-113.9561	2.3530	0.4923	0.6903	0.6309	0.7567	4.0358	5.7693	3.3499	0.9129	-0.6548	-0.6433	((AAGCCAAGCCAACAAGA_1:0.0000004278,AAGCCAAGCCAACAAGA:0.0000000100):0.3147283145,25362_GERM:0.0000100000);
18182	2	100	0.5909	-181.5373	2.3530	0.4923	0.6903	0.6309	0.7567	4.0358	5.7693	3.3499	0.9129	-0.6548	-0.6433	((CAATTTGTCCTTTTTTA:0.0000006121,CAATTTGTCCTTTTTTA_1:0.0000006121):0.5908522162,18182_GERM:0.0000100000);
125340	2	108	0.1921	-84.6641	2.3530	0.4923	0.6903	0.6309	0.7567	4.0358	5.7693	3.3499	0.9129	-0.6548	-0.6433	((TGGCAATTTTCACTATT_1:0.0000000100,TGGCAATTTTCACTATT:0.0000007956):0.1920694646,125340_GERM:0.0000100000);
138841	2	79	0.3329	-88.6696	2.3530	0.4923	0.6903	0.6309	0.7567	4.0358	5.7693	3.3499	0.9129	-0.6548	-0.6433	((ACGTTTGCGTGTGGCTT:0.0000009504,ACGTTTGCGTGTGGCTT_1:0.0000009504):0.3328940749,138841_GERM:0.0000100000);
54750	2	107	0.2564	-104.6132	2.3530	0.4923	0.6903	0.6309	0.7567	4.0358	5.7693	3.3499	0.9129	-0.6548	-0.6433	((ATGGCATTTACTCGCAT_1:0.0000004523,ATGGCATTTACTCGCAT:0.0000000100):0.2564202808,54750_GERM:0.0000100000);
5927	2	108	0.1566	-71.3258	2.3530	0.4923	0.6903	0.6309	0.7567	4.0358	5.7693	3.3499	0.9129	-0.6548	-0.6433	((AGAGCTACAAGATCACA:0.0000009883,AGAGCTACAAGATCACA_1:0.0000000100):0.1566144031,5927_GERM:0.0000100000);
18471	2	108	0.2926	-118.7437	2.3530	0.4923	0.6903	0.6309	0.7567	4.0358	5.7693	3.3499	0.9129	-0.6548	-0.6433	((GCGTCACAACCATCTTA:0.0000008059,GCGTCACAACCATCTTA_1:0.0000000100):0.2926440436,18471_GERM:0.0000100000);
61754	2	108	0.1292	-64.5063	2.3530	0.4923	0.6903	0.6309	0.7567	4.0358	5.7693	3.3499	0.9129	-0.6548	-0.6433	((GACCATGCATTATATAT_1:0.0000007086,GACCATGCATTATATAT:0.0000007086):0.1292214890,61754_GERM:0.0000100000);
107542	2	108	0.0876	-49.7244	2.3530	0.4923	0.6903	0.6309	0.7567	4.0358	5.7693	3.3499	0.9129	-0.6548	-0.6433	((TTCGGTCGAGATTTATC:0.0000000100,TTCGGTCGAGATTTATC_1:0.0000007798):0.0875735171,107542_GERM:0.0000100000);
105986	2	108	0.1994	-91.0932	2.3530	0.4923	0.6903	0.6309	0.7567	4.0358	5.7693	3.3499	0.9129	-0.6548	-0.6433	((TTTATTCACTCATCAAA:0.0000010126,TTTATTCACTCATCAAA_1:0.0000000100):0.1994172507,105986_GERM:0.0000100000);
13307	2	108	0.4750	-158.2775	2.3530	0.4923	0.6903	0.6309	0.7567	4.0358	5.7693	3.3499	0.9129	-0.6548	-0.6433	((TATCATGACATTATCAC_1:0.0000000100,TATCATGACATTATCAC:0.0000006327):0.4750019376,13307_GERM:0.0000100000);
97011	2	107	0.1646	-75.3150	2.3530	0.4923	0.6903	0.6309	0.7567	4.0358	5.7693	3.3499	0.9129	-0.6548	-0.6433	((CATAAACCAAATCTTAT_1:0.0000000100,CATAAACCAAATCTTAT:0.0000006839):0.1646340640,97011_GERM:0.0000100000);
116793	2	106	0.2526	-102.8709	2.3530	0.4923	0.6903	0.6309	0.7567	4.0358	5.7693	3.3499	0.9129	-0.6548	-0.6433	((TCATAAAAATATTTTTT:0.0000000100,TCATAAAAATATTTTTT_1:0.0000008639):0.2526037004,116793_GERM:0.0000100000);
146194	2	107	0.2299	-98.4044	2.3530	0.4923	0.6903	0.6309	0.7567	4.0358	5.7693	3.3499	0.9129	-0.6548	-0.6433	((TTGTCACAATCTTCATA:0.0000006112,TTGTCACAATCTTCATA_1:0.0000006112):0.2298767066,146194_GERM:0.0000100000);
140555	2	107	0.2135	-87.5226	2.3530	0.4923	0.6903	0.6309	0.7567	4.0358	5.7693	3.3499	0.9129	-0.6548	-0.6433	((AAACTTGCATCAACTAA_1:0.0000000100,AAACTTGCATCAACTAA:0.0000007391):0.2135026579,140555_GERM:0.0000100000);
128193	2	60	0.3118	-67.3096	2.3530	0.4923	0.6903	0.6309	0.7567	4.0358	5.7693	3.3499	0.9129	-0.6548	-0.6433	((AGTCATAAAAAAATAAC:0.0000018574,AGTCATAAAAAAATAAC_1:0.0000000100):0.3118021935,128193_GERM:0.0000100000);
17812	2	108	0.2848	-118.1838	2.3530	0.4923	0.6903	0.6309	0.7567	4.0358	5.7693	3.3499	0.9129	-0.6548	-0.6433	((GCCATACGTATTCCAAA:0.0000007086,GCCATACGTATTCCAAA_1:0.0000007086):0.2847616967,17812_GERM:0.0000100000);
47014	2	108	0.3006	-120.0315	2.3530	0.4923	0.6903	0.6309	0.7567	4.0358	5.7693	3.3499	0.9129	-0.6548	-0.6433	((AATGATTGATTAAATGG_1:0.0000004093,AATGATTGATTAAATGG:0.0000000100):0.3005689971,47014_GERM:0.0000100000);
17390	2	108	0.2068	-83.6438	2.3530	0.4923	0.6903	0.6309	0.7567	4.0358	5.7693	3.3499	0.9129	-0.6548	-0.6433	((GGCATTTTATTATACAC_1:0.0000000100,GGCATTTTATTATACAC:0.0000008131):0.2067801156,17390_GERM:0.0000100000);
90130	2	44	0.3212	-57.2358	2.3530	0.4923	0.6903	0.6309	0.7567	4.0358	5.7693	3.3499	0.9129	-0.6548	-0.6433	((CGTTTAGGGCTATCTTA_1:0.0000014535,CGTTTAGGGCTATCTTA:0.0000014535):0.3212240096,90130_GERM:0.0000100000);
114806	2	108	0.3498	-135.8542	2.3530	0.4923	0.6903	0.6309	0.7567	4.0358	5.7693	3.3499	0.9129	-0.6548	-0.6433	((GTGCTTTCTTTTCAAAA:0.0000000100,GTGCTTTCTTTTCAAAA_1:0.0000006801):0.3498409763,114806_GERM:0.0000100000);
85461	2	110	0.1352	-68.7344	2.3530	0.4923	0.6903	0.6309	0.7567	4.0358	5.7693	3.3499	0.9129	-0.6548	-0.6433	((ATGTTAAGAATATATCC:0.0000007086,ATGTTAAGAATATATCC_1:0.0000007086):0.1352303506,85461_GERM:0.0000100000);
99064	2	107	0.2215	-90.5633	2.3530	0.4923	0.6903	0.6309	0.7567	4.0358	5.7693	3.3499	0.9129	-0.6548	-0.6433	((AACAAAGTTCTTTTACA_1:0.0000000100,AACAAAGTTCTTTTACA:0.0000004500):0.2214707163,99064_GERM:0.0000100000);
100113	2	110	0.2153	-97.5532	2.3530	0.4923	0.6903	0.6309	0.7567	4.0358	5.7693	3.3499	0.9129	-0.6548	-0.6433	((GATTCATTGACACAGGC_1:0.0000006771,GATTCATTGACACAGGC:0.0000000100):0.2152687527,100113_GERM:0.0000100000);
29653	2	108	0.3435	-134.4138	2.3530	0.4923	0.6903	0.6309	0.7567	4.0358	5.7693	3.3499	0.9129	-0.6548	-0.6433	((AAATATCTCAATCTTCA:0.0000000100,AAATATCTCAATCTTCA_1:0.0000006991):0.3434797347,29653_GERM:0.0000100000);
119933	2	108	0.4150	-142.1756	2.3530	0.4923	0.6903	0.6309	0.7567	4.0358	5.7693	3.3499	0.9129	-0.6548	-0.6433	((ACCTGAATTCAAATCAT_1:0.0000004028,ACCTGAATTCAAATCAT:0.0000000100):0.4150372045,119933_GERM:0.0000100000);
18358	2	107	0.2574	-108.2132	2.3530	0.4923	0.6903	0.6309	0.7567	4.0358	5.7693	3.3499	0.9129	-0.6548	-0.6433	((AACGCAAGGGGAAAGCT_1:0.0000008269,AACGCAAGGGGAAAGCT:0.0000000100):0.2573980795,18358_GERM:0.0000100000);
12954	2	110	0.2572	-114.0107	2.3530	0.4923	0.6903	0.6309	0.7567	4.0358	5.7693	3.3499	0.9129	-0.6548	-0.6433	((TATAATCTCATAAACAA_1:0.0000004074,TATAATCTCATAAACAA:0.0000000100):0.2572445859,12954_GERM:0.0000100000);
121984	2	107	0.2738	-115.0459	2.3530	0.4923	0.6903	0.6309	0.7567	4.0358	5.7693	3.3499	0.9129	-0.6548	-0.6433	((TTGTCTGTCACTATTAA_1:0.0000004317,TTGTCTGTCACTATTAA:0.0000000100):0.2738110891,121984_GERM:0.0000100000);
75656	2	107	0.4905	-152.5509	2.3530	0.4923	0.6903	0.6309	0.7567	4.0358	5.7693	3.3499	0.9129	-0.6548	-0.6433	((GATAATAGGCGAATGGC_1:0.0000010256,GATAATAGGCGAATGGC:0.0000000100):0.4905021663,75656_GERM:0.0000100000);
130793	2	107	0.2284	-100.3284	2.3530	0.4923	0.6903	0.6309	0.7567	4.0358	5.7693	3.3499	0.9129	-0.6548	-0.6433	((TACCTAGATCTAAACAC_1:0.0000004093,TACCTAGATCTAAACAC:0.0000000100):0.2284207723,130793_GERM:0.0000100000);
99925	2	108	0.1475	-73.0035	2.3530	0.4923	0.6903	0.6309	0.7567	4.0358	5.7693	3.3499	0.9129	-0.6548	-0.6433	((CACACAGGTAGTATTGG_1:0.0000004318,CACACAGGTAGTATTGG:0.0000000100):0.1475001645,99925_GERM:0.0000100000);
36148	2	61	0.2963	-68.7466	2.3530	0.4923	0.6903	0.6309	0.7567	4.0358	5.7693	3.3499	0.9129	-0.6548	-0.6433	((TTCGCTCAGCAATCTAA:0.0000014236,TTCGCTCAGCAATCTAA_1:0.0000000100):0.2962620139,36148_GERM:0.0000100000);
89911	2	107	0.4475	-159.1972	2.3530	0.4923	0.6903	0.6309	0.7567	4.0358	5.7693	3.3499	0.9129	-0.6548	-0.6433	((CGAAGAGTTTCTTACCA:0.0000007086,CGAAGAGTTTCTTACCA_1:0.0000007086):0.4475147302,89911_GERM:0.0000100000);
116704	2	107	0.2921	-107.3212	2.3530	0.4923	0.6903	0.6309	0.7567	4.0358	5.7693	3.3499	0.9129	-0.6548	-0.6433	((TAGGGTAATCCAACTTA_1:0.0000004477,TAGGGTAATCCAACTTA:0.0000000100):0.2920674396,116704_GERM:0.0000100000);
25069	2	106	0.3507	-127.9351	2.3530	0.4923	0.6903	0.6309	0.7567	4.0358	5.7693	3.3499	0.9129	-0.6548	-0.6433	((TTAAATCTCCTTCTAAA_1:0.0000007537,TTAAATCTCCTTCTAAA:0.0000000100):0.3507155365,25069_GERM:0.0000100000);
84976	2	108	0.4091	-144.4949	2.3530	0.4923	0.6903	0.6309	0.7567	4.0358	5.7693	3.3499	0.9129	-0.6548	-0.6433	((GGAAAACCATCATCATA_1:0.0000000100,GGAAAACCATCATCATA:0.0000007134):0.4091442664,84976_GERM:0.0000100000);
883	2	108	0.4141	-141.1141	2.3530	0.4923	0.6903	0.6309	0.7567	4.0358	5.7693	3.3499	0.9129	-0.6548	-0.6433	((AACCATGGAAGAGGGGG_1:0.0000007060,AACCATGGAAGAGGGGG:0.0000007060):0.4141309136,883_GERM:0.0000100000);
61689	2	108	0.2809	-111.0105	2.3530	0.4923	0.6903	0.6309	0.7567	4.0358	5.7693	3.3499	0.9129	-0.6548	-0.6433	((AACAAAAAAAAAAATAT_1:0.0000008372,AACAAAAAAAAAAATAT:0.0000000100):0.2808593941,61689_GERM:0.0000100000);
117065	2	109	0.6263	-193.6868	2.3530	0.4923	0.6903	0.6309	0.7567	4.0358	5.7693	3.3499	0.9129	-0.6548	-0.6433	((ACTATTTGCCTTTCTAA:0.0000006293,ACTATTTGCCTTTCTAA_1:0.0000006293):0.6262587995,117065_GERM:0.0000100000);
3066	2	108	0.2982	-115.5060	2.3530	0.4923	0.6903	0.6309	0.7567	4.0358	5.7693	3.3499	0.9129	-0.6548	-0.6433	((ACCAGACGGATAGTTTC:0.0000000100,ACCAGACGGATAGTTTC_1:0.0000004519):0.2982447582,3066_GERM:0.0000100000);
103779	2	108	0.2778	-112.4397	2.3530	0.4923	0.6903	0.6309	0.7567	4.0358	5.7693	3.3499	0.9129	-0.6548	-0.6433	((ATCGTACCAACTATATT_1:0.0000007219,ATCGTACCAACTATATT:0.0000007219):0.2777734758,103779_GERM:0.0000100000);
68269	2	108	0.6531	-186.8970	2.3530	0.4923	0.6903	0.6309	0.7567	4.0358	5.7693	3.3499	0.9129	-0.6548	-0.6433	((ATAATATTCTCTACAAC_1:0.0000007100,ATAATATTCTCTACAAC:0.0000000100):0.6530964253,68269_GERM:0.0000100000);
21353	2	108	0.2098	-94.6468	2.3530	0.4923	0.6903	0.6309	0.7567	4.0358	5.7693	3.3499	0.9129	-0.6548	-0.6433	((AACAGTGTCTGAAAGAG_1:0.0000006397,AACAGTGTCTGAAAGAG:0.0000000100):0.2097726265,21353_GERM:0.0000100000);
47676	2	108	0.1252	-67.7291	2.3530	0.4923	0.6903	0.6309	0.7567	4.0358	5.7693	3.3499	0.9129	-0.6548	-0.6433	((TCTACTCCTACATCCAT:0.0000006007,TCTACTCCTACATCCAT_1:0.0000006007):0.1252306457,47676_GERM:0.0000100000);
86095	2	107	0.0095	-7.9337	2.3530	0.4923	0.6903	0.6309	0.7567	4.0358	5.7693	3.3499	0.9129	-0.6548	-0.6433	((ACTAGTAGGTCTACTTA_1:0.0000006755,ACTAGTAGGTCTACTTA:0.0000000100):0.0094998704,86095_GERM:0.0000100000);
137623	2	108	0.5934	-176.5477	2.3530	0.4923	0.6903	0.6309	0.7567	4.0358	5.7693	3.3499	0.9129	-0.6548	-0.6433	((AATGGTCAATTTTTTTA:0.0000000100,AATGGTCAATTTTTTTA_1:0.0000004409):0.5934068403,137623_GERM:0.0000100000);
81312	2	108	0.3072	-122.2972	2.3530	0.4923	0.6903	0.6309	0.7567	4.0358	5.7693	3.3499	0.9129	-0.6548	-0.6433	((CGGAAATTATATATTTA:0.0000000100,CGGAAATTATATATTTA_1:0.0000007218):0.3072362744,81312_GERM:0.0000100000);
29641	2	108	0.3110	-125.6655	2.3530	0.4923	0.6903	0.6309	0.7567	4.0358	5.7693	3.3499	0.9129	-0.6548	-0.6433	((CTGTCACTATTTAATTA_1:0.0000007395,CTGTCACTATTTAATTA:0.0000000100):0.3109743085,29641_GERM:0.0000100000);
140870	2	109	0.1757	-84.7156	2.3530	0.4923	0.6903	0.6309	0.7567	4.0358	5.7693	3.3499	0.9129	-0.6548	-0.6433	((AGAACAGGAAATACTGA_1:0.0000007086,AGAACAGGAAATACTGA:0.0000007086):0.1756813635,140870_GERM:0.0000100000);
119680	2	108	0.2478	-110.3406	2.3530	0.4923	0.6903	0.6309	0.7567	4.0358	5.7693	3.3499	0.9129	-0.6548	-0.6433	((GACCATTATCTTTTCTA_1:0.0000000100,GACCATTATCTTTTCTA:0.0000009860):0.2478319648,119680_GERM:0.0000100000);
87257	2	86	0.2688	-78.4207	2.3530	0.4923	0.6903	0.6309	0.7567	4.0358	5.7693	3.3499	0.9129	-0.6548	-0.6433	((CTATCATCCCAATCCCA_1:0.0000007086,CTATCATCCCAATCCCA:0.0000007086):0.2688456928,87257_GERM:0.0000100000);
61101	2	108	0.4029	-141.3582	2.3530	0.4923	0.6903	0.6309	0.7567	4.0358	5.7693	3.3499	0.9129	-0.6548	-0.6433	((GGCGAAGAGCTGCATGG_1:0.0000006489,GGCGAAGAGCTGCATGG:0.0000006489):0.4029093034,61101_GERM:0.0000100000);
128714	2	108	0.2085	-92.7765	2.3530	0.4923	0.6903	0.6309	0.7567	4.0358	5.7693	3.3499	0.9129	-0.6548	-0.6433	((ATCGATATGGTTTACAT_1:0.0000000100,ATCGATATGGTTTACAT:0.0000010296):0.2084568136,128714_GERM:0.0000100000);
121668	2	108	0.1510	-67.9962	2.3530	0.4923	0.6903	0.6309	0.7567	4.0358	5.7693	3.3499	0.9129	-0.6548	-0.6433	((GAGCAAATTTATTACAT:0.0000006878,GAGCAAATTTATTACAT_1:0.0000004305):0.1510354234,121668_GERM:0.0000100000);
83544	2	59	0.2913	-63.9053	2.3530	0.4923	0.6903	0.6309	0.7567	4.0358	5.7693	3.3499	0.9129	-0.6548	-0.6433	((AGTGATATCAATCATCA_1:0.0000017453,AGTGATATCAATCATCA:0.0000000100):0.2913449309,83544_GERM:0.0000100000);
25030	2	100	0.3686	-118.7650	2.3530	0.4923	0.6903	0.6309	0.7567	4.0358	5.7693	3.3499	0.9129	-0.6548	-0.6433	((CCCTTAAAAGAAATAAA_1:0.0000000100,CCCTTAAAAGAAATAAA:0.0000004141):0.3686265721,25030_GERM:0.0000100000);
135504	2	108	0.1477	-74.3910	2.3530	0.4923	0.6903	0.6309	0.7567	4.0358	5.7693	3.3499	0.9129	-0.6548	-0.6433	((ATACTTCCTACCTTTTT_1:0.0000008094,ATACTTCCTACCTTTTT:0.0000000100):0.1476743779,135504_GERM:0.0000100000);
122698	2	108	0.3993	-142.8617	2.3530	0.4923	0.6903	0.6309	0.7567	4.0358	5.7693	3.3499	0.9129	-0.6548	-0.6433	((GGACCAACGATTGTGCA_1:0.0000005940,GGACCAACGATTGTGCA:0.0000005940):0.3992968005,122698_GERM:0.0000100000);
80704	2	109	0.2821	-114.5227	2.3530	0.4923	0.6903	0.6309	0.7567	4.0358	5.7693	3.3499	0.9129	-0.6548	-0.6433	((TTCAAAATGCAAACACA_1:0.0000007775,TTCAAAATGCAAACACA:0.0000000100):0.2820845215,80704_GERM:0.0000100000);
