Patient ID,Diagnosis,MYG code,AIRR-Seq,Published AIRR-Seq,Time Point (months),Origin of mAb yes/no and name,"NEB; Pacbio (IgGsub, IgG original, IgA), 10x"
MuSK-1,MuSK,MYG037,1,1,0,,NEB
MuSK-1,MuSK,MYG069,0,NA,18,,NEB
MuSK-1,MuSK,MYG079,0,NA,19,,NEB
MuSK-1,MuSK,MYG108,0,NA,27,,NEB
MuSK-1,MuSK,MYG122,1,0,32,,NEB
MuSK-1,MuSK,MYG135,1,1,37,Ken found CV of 2E6,NEB
MuSK-1,MuSK,MYG139,1,1,39,,NEB
MuSK-1,MuSK,MYG166,0,NA,45,,NEB
MuSK-1,MuSK,MYG190,0,NA,51,,NEB
MuSK-1,MuSK,MYG245,1,0,61,,"Pacbio (IgGsub, IgA)"
MuSK-1,MuSK,MYG265,1,0,68,,"Pacbio (IgGsub, IgGoriginal, IgA)"
MuSK-1,MuSK,MYG274,1,0,70,2E6 origin,"NEB; Pacbio (IgGsub, IgGoriginal, IgA); 10x"
MuSK-2,MuSK,MYG001,1,1,0,,NEB
MuSK-2,MuSK,MYG012,1,1,6,,NEB
MuSK-2,MuSK,MYG119,1,1,57,,NEB
MuSK-2,MuSK,MYG127,0,NA,62,,NEB
MuSK-2,MuSK,MYG189,1,1,77,189-1 and 189-28 origin,NEB
MuSK-2,MuSK,MYG300,1,0,105,,NEB
MuSK-3,MuSK,MYG098,1,1,4,,NEB
MuSK-3,MuSK,MYG107,1,1,5,,NEB
MuSK-3,MuSK,MYG128,1,0,14,,NEB
MuSK-3,MuSK,MYG192,1,1,29,3-28 origin,NEB
MuSK-4,MuSK,MYG256,1,0,0,,"Pacbio (IgGsub, IgGoriginal, IgA)"
MuSK-4,MuSK,MYG320,1,0,25,6C6 origin,"NEB; Pacbio (IgGsub, IgGoriginal, IgA); 10x"
MuSK-5,MuSK,MYG250,1,0,0,,"Pacbio (IgGsub, IgA)"
MuSK-5,MuSK,MYG335,1,0,48,,"Pacbio (IgGsub, IgA)"