CLONE	NSEQ	NSITE	TREE_LENGTH	LHOOD	KAPPA_MLE	OMEGA_FWR_MLE	OMEGA_CDR_MLE	OMEGA_CDR_LCI	OMEGA_CDR_UCI	WRC_2_MLE	GYW_0_MLE	WA_1_MLE	TW_0_MLE	SYC_2_MLE	GRS_0_MLE	TREE
REPERTOIRE	162	105.4691	0.2760	-8707.9703	2.3654	0.4790	0.7045	0.5764	0.8646	3.4011	5.2131	2.8249	0.4604	-0.6146	-0.6679	`igphyml --repfile IB7_2_collapsed_ncdr_lineages_gy.tsv -m HLP -o lr --omega e,ce --run_id hlp --oformat tab --threads 18 `
99930	2	108	0.3061	-119.8920	2.3654	0.4790	0.7045	0.5764	0.8646	3.4011	5.2131	2.8249	0.4604	-0.6146	-0.6679	((GATACTCTTCAAATATC:0.0000007710,GATACTCTTCAAATATC_1:0.0000000100):0.3061369111,99930_GERM:0.0000100000);
138841	2	79	0.3320	-89.2238	2.3654	0.4790	0.7045	0.5764	0.8646	3.4011	5.2131	2.8249	0.4604	-0.6146	-0.6679	((ACGTTTGCGTGTGGCTT:0.0000009504,ACGTTTGCGTGTGGCTT_1:0.0000009504):0.3319824310,138841_GERM:0.0000100000);
140917	2	108	0.1177	-60.0362	2.3654	0.4790	0.7045	0.5764	0.8646	3.4011	5.2131	2.8249	0.4604	-0.6146	-0.6679	((CACCTAAGCCTTTCAAA_1:0.0000004257,CACCTAAGCCTTTCAAA:0.0000000100):0.1176900123,140917_GERM:0.0000100000);
9929	2	108	0.3795	-146.2409	2.3654	0.4790	0.7045	0.5764	0.8646	3.4011	5.2131	2.8249	0.4604	-0.6146	-0.6679	((TGGCGTCCGCTTGCTTT_1:0.0000006946,TGGCGTCCGCTTGCTTT:0.0000006946):0.3795327098,9929_GERM:0.0000100000);
128714	2	108	0.2089	-92.8450	2.3654	0.4790	0.7045	0.5764	0.8646	3.4011	5.2131	2.8249	0.4604	-0.6146	-0.6679	((ATCGATATGGTTTACAT_1:0.0000000100,ATCGATATGGTTTACAT:0.0000010296):0.2089346916,128714_GERM:0.0000100000);
47669	2	107	0.2081	-93.2373	2.3654	0.4790	0.7045	0.5764	0.8646	3.4011	5.2131	2.8249	0.4604	-0.6146	-0.6679	((AAGCCTGTAAATCGACT:0.0000000100,AAGCCTGTAAATCGACT_1:0.0000010000):0.2081224426,47669_GERM:0.0000100000);
133790	2	108	0.2581	-98.0521	2.3654	0.4790	0.7045	0.5764	0.8646	3.4011	5.2131	2.8249	0.4604	-0.6146	-0.6679	((ACATATTTACCTATATA_1:0.0000010128,ACATATTTACCTATATA:0.0000000100):0.2580657329,133790_GERM:0.0000100000);
119933	2	108	0.4145	-142.6702	2.3654	0.4790	0.7045	0.5764	0.8646	3.4011	5.2131	2.8249	0.4604	-0.6146	-0.6679	((ACCTGAATTCAAATCAT_1:0.0000004028,ACCTGAATTCAAATCAT:0.0000000100):0.4144723615,119933_GERM:0.0000100000);
87174	2	107	0.2599	-116.6082	2.3654	0.4790	0.7045	0.5764	0.8646	3.4011	5.2131	2.8249	0.4604	-0.6146	-0.6679	((AACATATTTTATTAATT_1:0.0000004265,AACATATTTTATTAATT:0.0000010164):0.2598813943,87174_GERM:0.0000100000);
140875	2	109	0.2552	-108.6116	2.3654	0.4790	0.7045	0.5764	0.8646	3.4011	5.2131	2.8249	0.4604	-0.6146	-0.6679	((GAGACTGGTTATCATTA_1:0.0000000100,GAGACTGGTTATCATTA:0.0000004340):0.2552146701,140875_GERM:0.0000100000);
117200	2	108	0.2558	-99.6250	2.3654	0.4790	0.7045	0.5764	0.8646	3.4011	5.2131	2.8249	0.4604	-0.6146	-0.6679	((CATGGTATACATACTCA:0.0000000100,CATGGTATACATACTCA_1:0.0000004083):0.2557796161,117200_GERM:0.0000100000);
96303	2	108	0.3423	-134.8322	2.3654	0.4790	0.7045	0.5764	0.8646	3.4011	5.2131	2.8249	0.4604	-0.6146	-0.6679	((TCGGCTACGAGAACATA_1:0.0000005737,TCGGCTACGAGAACATA:0.0000005737):0.3423480397,96303_GERM:0.0000100000);
25242	2	107	0.2744	-108.8235	2.3654	0.4790	0.7045	0.5764	0.8646	3.4011	5.2131	2.8249	0.4604	-0.6146	-0.6679	((TGATTTCGAACAGATAC:0.0000006684,TGATTTCGAACAGATAC_1:0.0000000100):0.2744194037,25242_GERM:0.0000100000);
140771	2	108	0.2399	-104.8948	2.3654	0.4790	0.7045	0.5764	0.8646	3.4011	5.2131	2.8249	0.4604	-0.6146	-0.6679	((CAGAATTCGTCTACTCA_1:0.0000004439,CAGAATTCGTCTACTCA:0.0000000100):0.2399398893,140771_GERM:0.0000100000);
134089	2	108	0.3378	-133.2355	2.3654	0.4790	0.7045	0.5764	0.8646	3.4011	5.2131	2.8249	0.4604	-0.6146	-0.6679	((AGGATTGGACCACGCTC_1:0.0000006882,AGGATTGGACCACGCTC:0.0000000100):0.3377945435,134089_GERM:0.0000100000);
18226	2	108	0.4600	-160.0265	2.3654	0.4790	0.7045	0.5764	0.8646	3.4011	5.2131	2.8249	0.4604	-0.6146	-0.6679	((ACTTATTCGTTAATTTA_1:0.0000007331,ACTTATTCGTTAATTTA:0.0000000100):0.4600468150,18226_GERM:0.0000100000);
74063	2	108	0.2927	-116.6832	2.3654	0.4790	0.7045	0.5764	0.8646	3.4011	5.2131	2.8249	0.4604	-0.6146	-0.6679	((TATGGACATGCTAATAA_1:0.0000007086,TATGGACATGCTAATAA:0.0000007086):0.2927376093,74063_GERM:0.0000100000);
114806	2	108	0.3498	-135.3732	2.3654	0.4790	0.7045	0.5764	0.8646	3.4011	5.2131	2.8249	0.4604	-0.6146	-0.6679	((GTGCTTTCTTTTCAAAA:0.0000000100,GTGCTTTCTTTTCAAAA_1:0.0000006801):0.3498368084,114806_GERM:0.0000100000);
104056	2	108	0.2238	-95.3115	2.3654	0.4790	0.7045	0.5764	0.8646	3.4011	5.2131	2.8249	0.4604	-0.6146	-0.6679	((ACAGCACTCACTTACCT_1:0.0000005647,ACAGCACTCACTTACCT:0.0000005647):0.2237672819,104056_GERM:0.0000100000);
140974	2	108	0.3119	-123.7355	2.3654	0.4790	0.7045	0.5764	0.8646	3.4011	5.2131	2.8249	0.4604	-0.6146	-0.6679	((AAAAGATGCACACGCGG_1:0.0000005865,AAAAGATGCACACGCGG:0.0000005865):0.3119123311,140974_GERM:0.0000100000);
131242	2	107	0.3212	-119.1577	2.3654	0.4790	0.7045	0.5764	0.8646	3.4011	5.2131	2.8249	0.4604	-0.6146	-0.6679	((AGGGTTCGGGCAGCCGA_1:0.0000005597,AGGGTTCGGGCAGCCGA:0.0000005597):0.3211560439,131242_GERM:0.0000100000);
75656	2	107	0.4901	-152.1377	2.3654	0.4790	0.7045	0.5764	0.8646	3.4011	5.2131	2.8249	0.4604	-0.6146	-0.6679	((GATAATAGGCGAATGGC_1:0.0000010256,GATAATAGGCGAATGGC:0.0000000100):0.4900607604,75656_GERM:0.0000100000);
140576	2	107	0.2545	-103.0427	2.3654	0.4790	0.7045	0.5764	0.8646	3.4011	5.2131	2.8249	0.4604	-0.6146	-0.6679	((AAGCAACACACTACATA_1:0.0000000100,AAGCAACACACTACATA:0.0000004068):0.2544545841,140576_GERM:0.0000100000);
8451	2	108	0.2605	-106.5809	2.3654	0.4790	0.7045	0.5764	0.8646	3.4011	5.2131	2.8249	0.4604	-0.6146	-0.6679	((GAGAGTCCTTTACAAAT:0.0000000100,GAGAGTCCTTTACAAAT_1:0.0000006699):0.2605026778,8451_GERM:0.0000100000);
120087	2	108	0.1822	-85.0959	2.3654	0.4790	0.7045	0.5764	0.8646	3.4011	5.2131	2.8249	0.4604	-0.6146	-0.6679	((TATAGAACGAATTTTAA:0.0000010178,TATAGAACGAATTTTAA_1:0.0000000100):0.1821587145,120087_GERM:0.0000100000);
100644	2	107	0.2498	-99.9305	2.3654	0.4790	0.7045	0.5764	0.8646	3.4011	5.2131	2.8249	0.4604	-0.6146	-0.6679	((CGGGATTTCCATGTAAC_1:0.0000006545,CGGGATTTCCATGTAAC:0.0000000100):0.2498220086,100644_GERM:0.0000100000);
38707	2	108	0.4588	-154.3280	2.3654	0.4790	0.7045	0.5764	0.8646	3.4011	5.2131	2.8249	0.4604	-0.6146	-0.6679	((ATCTTTAACTTATACTA:0.0000009906,ATCTTTAACTTATACTA_1:0.0000000100):0.4588024106,38707_GERM:0.0000100000);
3067	2	108	0.1557	-71.6392	2.3654	0.4790	0.7045	0.5764	0.8646	3.4011	5.2131	2.8249	0.4604	-0.6146	-0.6679	((AAATTATAACATTACAA_1:0.0000007086,AAATTATAACATTACAA:0.0000007086):0.1556591398,3067_GERM:0.0000100000);
120450	2	108	0.2099	-91.6712	2.3654	0.4790	0.7045	0.5764	0.8646	3.4011	5.2131	2.8249	0.4604	-0.6146	-0.6679	((GGCATACTAAAACATAA_1:0.0000007800,GGCATACTAAAACATAA:0.0000000100):0.2098951182,120450_GERM:0.0000100000);
21353	2	108	0.2101	-94.1317	2.3654	0.4790	0.7045	0.5764	0.8646	3.4011	5.2131	2.8249	0.4604	-0.6146	-0.6679	((AACAGTGTCTGAAAGAG_1:0.0000006397,AACAGTGTCTGAAAGAG:0.0000000100):0.2100811688,21353_GERM:0.0000100000);
56299	2	108	0.5821	-182.2747	2.3654	0.4790	0.7045	0.5764	0.8646	3.4011	5.2131	2.8249	0.4604	-0.6146	-0.6679	((GGAACTAATGGAAAGCG:0.0000008449,GGAACTAATGGAAAGCG_1:0.0000000100):0.5820547431,56299_GERM:0.0000100000);
87257	2	86	0.2691	-78.4947	2.3654	0.4790	0.7045	0.5764	0.8646	3.4011	5.2131	2.8249	0.4604	-0.6146	-0.6679	((CTATCATCCCAATCCCA_1:0.0000007086,CTATCATCCCAATCCCA:0.0000007086):0.2690718304,87257_GERM:0.0000100000);
51037	2	85	0.2833	-88.6216	2.3654	0.4790	0.7045	0.5764	0.8646	3.4011	5.2131	2.8249	0.4604	-0.6146	-0.6679	((GGTCATGCAGATATGCT_1:0.0000004805,GGTCATGCAGATATGCT:0.0000000100):0.2833450458,51037_GERM:0.0000100000);
99064	2	107	0.2213	-90.7657	2.3654	0.4790	0.7045	0.5764	0.8646	3.4011	5.2131	2.8249	0.4604	-0.6146	-0.6679	((AACAAAGTTCTTTTACA_1:0.0000000100,AACAAAGTTCTTTTACA:0.0000004500):0.2212697852,99064_GERM:0.0000100000);
26887	2	108	0.2837	-105.9167	2.3654	0.4790	0.7045	0.5764	0.8646	3.4011	5.2131	2.8249	0.4604	-0.6146	-0.6679	((AGAACTCATTTAAATTA:0.0000007834,AGAACTCATTTAAATTA_1:0.0000000100):0.2836673392,26887_GERM:0.0000100000);
59171	2	108	0.2390	-104.6596	2.3654	0.4790	0.7045	0.5764	0.8646	3.4011	5.2131	2.8249	0.4604	-0.6146	-0.6679	((GGGCGTATCTTTCTTTT:0.0000000100,GGGCGTATCTTTCTTTT_1:0.0000004311):0.2390155597,59171_GERM:0.0000100000);
132523	2	108	0.2458	-104.9451	2.3654	0.4790	0.7045	0.5764	0.8646	3.4011	5.2131	2.8249	0.4604	-0.6146	-0.6679	((TAATGTACTTATAAATA_1:0.0000000100,TAATGTACTTATAAATA:0.0000006999):0.2457650036,132523_GERM:0.0000100000);
23466	2	108	0.2005	-96.3009	2.3654	0.4790	0.7045	0.5764	0.8646	3.4011	5.2131	2.8249	0.4604	-0.6146	-0.6679	((TGTAAATGTACACTTGA:0.0000005844,TGTAAATGTACACTTGA_1:0.0000005844):0.2005444152,23466_GERM:0.0000100000);
104262	2	108	0.2698	-113.5582	2.3654	0.4790	0.7045	0.5764	0.8646	3.4011	5.2131	2.8249	0.4604	-0.6146	-0.6679	((GTTCATAACATTTCAAT:0.0000007086,GTTCATAACATTTCAAT_1:0.0000007086):0.2697656111,104262_GERM:0.0000100000);
21512	2	108	0.3602	-135.5596	2.3654	0.4790	0.7045	0.5764	0.8646	3.4011	5.2131	2.8249	0.4604	-0.6146	-0.6679	((CACATTCAATATTTAAA_1:0.0000005612,CACATTCAATATTTAAA:0.0000005612):0.3602335377,21512_GERM:0.0000100000);
29653	2	108	0.3435	-134.4596	2.3654	0.4790	0.7045	0.5764	0.8646	3.4011	5.2131	2.8249	0.4604	-0.6146	-0.6679	((AAATATCTCAATCTTCA:0.0000000100,AAATATCTCAATCTTCA_1:0.0000006991):0.3434916500,29653_GERM:0.0000100000);
99850	2	108	0.1770	-90.0881	2.3654	0.4790	0.7045	0.5764	0.8646	3.4011	5.2131	2.8249	0.4604	-0.6146	-0.6679	((GGAAAAAGGCAACGACG_1:0.0000004055,GGAAAAAGGCAACGACG:0.0000000100):0.1769885063,99850_GERM:0.0000100000);
18712	2	108	0.2453	-99.2672	2.3654	0.4790	0.7045	0.5764	0.8646	3.4011	5.2131	2.8249	0.4604	-0.6146	-0.6679	((TTAGCAAGAAATCCAAC_1:0.0000000100,TTAGCAAGAAATCCAAC:0.0000007132):0.2453123089,18712_GERM:0.0000100000);
64509	2	108	0.5694	-182.8150	2.3654	0.4790	0.7045	0.5764	0.8646	3.4011	5.2131	2.8249	0.4604	-0.6146	-0.6679	((GAGCCATATAGTTCGGT:0.0000006652,GAGCCATATAGTTCGGT_1:0.0000000100):0.5694364082,64509_GERM:0.0000100000);
59087	2	108	0.3164	-125.8539	2.3654	0.4790	0.7045	0.5764	0.8646	3.4011	5.2131	2.8249	0.4604	-0.6146	-0.6679	((GAAGGAAAAATTTCGAC_1:0.0000004534,GAAGGAAAAATTTCGAC:0.0000000100):0.3163620014,59087_GERM:0.0000100000);
99925	2	108	0.1476	-72.6416	2.3654	0.4790	0.7045	0.5764	0.8646	3.4011	5.2131	2.8249	0.4604	-0.6146	-0.6679	((CACACAGGTAGTATTGG_1:0.0000004318,CACACAGGTAGTATTGG:0.0000000100):0.1476136098,99925_GERM:0.0000100000);
59084	2	108	0.3616	-140.4998	2.3654	0.4790	0.7045	0.5764	0.8646	3.4011	5.2131	2.8249	0.4604	-0.6146	-0.6679	((ATACCAACGGCTCACGA_1:0.0000000100,ATACCAACGGCTCACGA:0.0000008141):0.3616274507,59084_GERM:0.0000100000);
34313	2	107	0.4150	-148.5368	2.3654	0.4790	0.7045	0.5764	0.8646	3.4011	5.2131	2.8249	0.4604	-0.6146	-0.6679	((ATCGGTGAAAATGCTAA_1:0.0000007086,ATCGGTGAAAATGCTAA:0.0000007086):0.4150317846,34313_GERM:0.0000100000);
137936	2	107	0.0780	-47.3107	2.3654	0.4790	0.7045	0.5764	0.8646	3.4011	5.2131	2.8249	0.4604	-0.6146	-0.6679	((CAGCATAATCTAATACA_1:0.0000010117,CAGCATAATCTAATACA:0.0000000100):0.0780151324,137936_GERM:0.0000100000);
61754	2	108	0.1289	-64.7763	2.3654	0.4790	0.7045	0.5764	0.8646	3.4011	5.2131	2.8249	0.4604	-0.6146	-0.6679	((GACCATGCATTATATAT_1:0.0000007086,GACCATGCATTATATAT:0.0000007086):0.1289395228,61754_GERM:0.0000100000);
45745	2	108	0.1172	-59.6462	2.3654	0.4790	0.7045	0.5764	0.8646	3.4011	5.2131	2.8249	0.4604	-0.6146	-0.6679	((TAGCTAAAAACAAAAAT:0.0000007086,TAGCTAAAAACAAAAAT_1:0.0000007086):0.1171549133,45745_GERM:0.0000100000);
70493	2	108	0.2313	-99.0156	2.3654	0.4790	0.7045	0.5764	0.8646	3.4011	5.2131	2.8249	0.4604	-0.6146	-0.6679	((TGCACACACAAACTATA_1:0.0000000100,TGCACACACAAACTATA:0.0000004084):0.2313193210,70493_GERM:0.0000100000);
65257	2	107	0.1269	-71.4958	2.3654	0.4790	0.7045	0.5764	0.8646	3.4011	5.2131	2.8249	0.4604	-0.6146	-0.6679	((CCCACAGTATCAGTTAC_1:0.0000006394,CCCACAGTATCAGTTAC:0.0000000100):0.1269473035,65257_GERM:0.0000100000);
138839	2	107	0.2977	-121.8320	2.3654	0.4790	0.7045	0.5764	0.8646	3.4011	5.2131	2.8249	0.4604	-0.6146	-0.6679	((GGCGTTGTGGGTTTTGA:0.0000006518,GGCGTTGTGGGTTTTGA_1:0.0000000100):0.2976563783,138839_GERM:0.0000100000);
68269	2	108	0.6530	-186.8718	2.3654	0.4790	0.7045	0.5764	0.8646	3.4011	5.2131	2.8249	0.4604	-0.6146	-0.6679	((ATAATATTCTCTACAAC_1:0.0000007100,ATAATATTCTCTACAAC:0.0000000100):0.6529752100,68269_GERM:0.0000100000);
99877	2	108	0.0953	-54.7443	2.3654	0.4790	0.7045	0.5764	0.8646	3.4011	5.2131	2.8249	0.4604	-0.6146	-0.6679	((GCAGCATGTAAATACAT:0.0000007376,GCAGCATGTAAATACAT_1:0.0000000100):0.0953246133,99877_GERM:0.0000100000);
15959	2	109	0.1478	-75.4333	2.3654	0.4790	0.7045	0.5764	0.8646	3.4011	5.2131	2.8249	0.4604	-0.6146	-0.6679	((AAGTCAGATAATAAATA_1:0.0000007086,AAGTCAGATAATAAATA:0.0000007086):0.1477552956,15959_GERM:0.0000100000);
74493	2	111	0.1718	-84.6701	2.3654	0.4790	0.7045	0.5764	0.8646	3.4011	5.2131	2.8249	0.4604	-0.6146	-0.6679	((CTTCAAGGAGAATCGGA_1:0.0000009931,CTTCAAGGAGAATCGGA:0.0000000100):0.1718458045,74493_GERM:0.0000100000);
101306	2	108	0.2681	-116.8406	2.3654	0.4790	0.7045	0.5764	0.8646	3.4011	5.2131	2.8249	0.4604	-0.6146	-0.6679	((AACTTATATTTTATCAA_1:0.0000000100,AACTTATATTTTATCAA:0.0000004302):0.2680752378,101306_GERM:0.0000100000);
49503	2	108	0.2672	-112.1154	2.3654	0.4790	0.7045	0.5764	0.8646	3.4011	5.2131	2.8249	0.4604	-0.6146	-0.6679	((GCGAAATTTTTACATCA:0.0000007041,GCGAAATTTTTACATCA_1:0.0000007041):0.2671500534,49503_GERM:0.0000100000);
103779	2	108	0.2776	-113.0608	2.3654	0.4790	0.7045	0.5764	0.8646	3.4011	5.2131	2.8249	0.4604	-0.6146	-0.6679	((ATCGTACCAACTATATT_1:0.0000007219,ATCGTACCAACTATATT:0.0000007219):0.2776083701,103779_GERM:0.0000100000);
12954	2	110	0.2576	-114.0751	2.3654	0.4790	0.7045	0.5764	0.8646	3.4011	5.2131	2.8249	0.4604	-0.6146	-0.6679	((TATAATCTCATAAACAA_1:0.0000004074,TATAATCTCATAAACAA:0.0000000100):0.2576400421,12954_GERM:0.0000100000);
140992	2	64	0.3936	-81.3057	2.3654	0.4790	0.7045	0.5764	0.8646	3.4011	5.2131	2.8249	0.4604	-0.6146	-0.6679	((ATGAGACTCGCAACCTG:0.0000007105,ATGAGACTCGCAACCTG_1:0.0000007105):0.3935510705,140992_GERM:0.0000100000);
72994	2	108	0.3555	-130.8704	2.3654	0.4790	0.7045	0.5764	0.8646	3.4011	5.2131	2.8249	0.4604	-0.6146	-0.6679	((TTTGATCTCAAAATTAC_1:0.0000005611,TTTGATCTCAAAATTAC:0.0000005611):0.3555048751,72994_GERM:0.0000100000);
18711	2	108	0.4103	-142.4424	2.3654	0.4790	0.7045	0.5764	0.8646	3.4011	5.2131	2.8249	0.4604	-0.6146	-0.6679	((AAAATTGTTCAATATAA:0.0000000100,AAAATTGTTCAATATAA_1:0.0000007238):0.4102879592,18711_GERM:0.0000100000);
99901	2	108	0.2439	-106.5159	2.3654	0.4790	0.7045	0.5764	0.8646	3.4011	5.2131	2.8249	0.4604	-0.6146	-0.6679	((TCGAAAACTAAATTCCA_1:0.0000000100,TCGAAAACTAAATTCCA:0.0000004338):0.2438525044,99901_GERM:0.0000100000);
36264	2	108	0.2953	-114.1861	2.3654	0.4790	0.7045	0.5764	0.8646	3.4011	5.2131	2.8249	0.4604	-0.6146	-0.6679	((GGTATAACCCAAATTTT:0.0000004122,GGTATAACCCAAATTTT_1:0.0000000100):0.2953119681,36264_GERM:0.0000100000);
75769	2	109	0.1992	-86.5265	2.3654	0.4790	0.7045	0.5764	0.8646	3.4011	5.2131	2.8249	0.4604	-0.6146	-0.6679	((CGTCTACGAAGAGGGCA_1:0.0000000100,CGTCTACGAAGAGGGCA:0.0000007752):0.1991496040,75769_GERM:0.0000100000);
99903	2	66	0.2716	-71.5690	2.3654	0.4790	0.7045	0.5764	0.8646	3.4011	5.2131	2.8249	0.4604	-0.6146	-0.6679	((TACAGAGCAAGATACGG_1:0.0000007889,TACAGAGCAAGATACGG:0.0000000100):0.2716468568,99903_GERM:0.0000100000);
90082	2	108	0.2017	-93.1533	2.3654	0.4790	0.7045	0.5764	0.8646	3.4011	5.2131	2.8249	0.4604	-0.6146	-0.6679	((GCACATTCCACAATTAT:0.0000000100,GCACATTCCACAATTAT_1:0.0000007274):0.2016854650,90082_GERM:0.0000100000);
145569	2	108	0.2985	-123.8624	2.3654	0.4790	0.7045	0.5764	0.8646	3.4011	5.2131	2.8249	0.4604	-0.6146	-0.6679	((CAGAATGTGATATTAGA:0.0000006376,CAGAATGTGATATTAGA_1:0.0000000100):0.2984608014,145569_GERM:0.0000100000);
28615	2	108	0.3318	-128.9965	2.3654	0.4790	0.7045	0.5764	0.8646	3.4011	5.2131	2.8249	0.4604	-0.6146	-0.6679	((GACTTTTTATAAATTTA:0.0000000100,GACTTTTTATAAATTTA_1:0.0000006513):0.3317984439,28615_GERM:0.0000100000);
100005	2	108	0.1616	-73.8781	2.3654	0.4790	0.7045	0.5764	0.8646	3.4011	5.2131	2.8249	0.4604	-0.6146	-0.6679	((CGGGTATGTTGAGTCAC_1:0.0000006059,CGGGTATGTTGAGTCAC:0.0000005410):0.1615568860,100005_GERM:0.0000100000);
132524	2	109	0.2387	-114.9815	2.3654	0.4790	0.7045	0.5764	0.8646	3.4011	5.2131	2.8249	0.4604	-0.6146	-0.6679	((TATCAATTATTACCTAT_1:0.0000007086,TATCAATTATTACCTAT:0.0000007086):0.2387079825,132524_GERM:0.0000100000);
56362	2	65	0.2563	-65.9511	2.3654	0.4790	0.7045	0.5764	0.8646	3.4011	5.2131	2.8249	0.4604	-0.6146	-0.6679	((GATAAATTATTATTTAT_1:0.0000007105,GATAAATTATTATTTAT:0.0000007105):0.2562859289,56362_GERM:0.0000100000);
48402	2	108	0.1692	-83.3528	2.3654	0.4790	0.7045	0.5764	0.8646	3.4011	5.2131	2.8249	0.4604	-0.6146	-0.6679	((AGGGTATCATTTTCTAC:0.0000007145,AGGGTATCATTTTCTAC_1:0.0000007145):0.1691685851,48402_GERM:0.0000100000);
8210	2	108	0.4189	-154.7753	2.3654	0.4790	0.7045	0.5764	0.8646	3.4011	5.2131	2.8249	0.4604	-0.6146	-0.6679	((GTTAAATACATTATTAA_1:0.0000010135,GTTAAATACATTATTAA:0.0000004269):0.4188492095,8210_GERM:0.0000100000);
44331	2	110	0.3477	-136.2559	2.3654	0.4790	0.7045	0.5764	0.8646	3.4011	5.2131	2.8249	0.4604	-0.6146	-0.6679	((TACTTTGTACATCCATA:0.0000000100,TACTTTGTACATCCATA_1:0.0000006963):0.3476977716,44331_GERM:0.0000100000);
50319	2	109	0.0761	-43.0490	2.3654	0.4790	0.7045	0.5764	0.8646	3.4011	5.2131	2.8249	0.4604	-0.6146	-0.6679	((TGCAGTACTTTTAATTT_1:0.0000000100,TGCAGTACTTTTAATTT:0.0000004185):0.0761302085,50319_GERM:0.0000100000);
3573	2	106	0.1708	-75.4311	2.3654	0.4790	0.7045	0.5764	0.8646	3.4011	5.2131	2.8249	0.4604	-0.6146	-0.6679	((GTCACAATCTTAATATA_1:0.0000008143,GTCACAATCTTAATATA:0.0000000100):0.1708222512,3573_GERM:0.0000100000);
89622	2	108	0.2453	-106.0467	2.3654	0.4790	0.7045	0.5764	0.8646	3.4011	5.2131	2.8249	0.4604	-0.6146	-0.6679	((CGAAATGCCAGTCTTAG_1:0.0000007286,CGAAATGCCAGTCTTAG:0.0000007286):0.2453066986,89622_GERM:0.0000100000);
