CLONE	NSEQ	NSITE	TREE_LENGTH	LHOOD	KAPPA_MLE	OMEGA_FWR_MLE	OMEGA_CDR_MLE	OMEGA_CDR_LCI	OMEGA_CDR_UCI	WRC_2_MLE	GYW_0_MLE	WA_1_MLE	TW_0_MLE	SYC_2_MLE	GRS_0_MLE	TREE
REPERTOIRE	576	105.3681	0.2671	-29936.4263	2.3242	0.4902	0.6997	0.6278	0.7817	4.2640	6.0771	3.6181	1.1029	-0.6405	-0.6403	`igphyml --repfile IB7_1_collapsed_ncdr_lineages_gy.tsv -m HLP -o lr --omega e,ce --run_id hlp --oformat tab --threads 18 `
36081	2	110	0.2885	-111.8089	2.3242	0.4902	0.6997	0.6278	0.7817	4.2640	6.0771	3.6181	1.1029	-0.6405	-0.6403	((TGTCAAACATATCTCAA_1:0.0000007219,TGTCAAACATATCTCAA:0.0000000100):0.2885078788,36081_GERM:0.0000100000);
44280	2	110	0.0867	-46.9917	2.3242	0.4902	0.6997	0.6278	0.7817	4.2640	6.0771	3.6181	1.1029	-0.6405	-0.6403	((TGTTTATCTTAACAAAA:0.0000000100,TGTTTATCTTAACAAAA_1:0.0000008172):0.0866722741,44280_GERM:0.0000100000);
47013	2	107	0.2182	-87.9558	2.3242	0.4902	0.6997	0.6278	0.7817	4.2640	6.0771	3.6181	1.1029	-0.6405	-0.6403	((CGGTCAAGCACTAATAA_1:0.0000006434,CGGTCAAGCACTAATAA:0.0000000100):0.2182335280,47013_GERM:0.0000100000);
29283	2	109	0.3353	-129.6684	2.3242	0.4902	0.6997	0.6278	0.7817	4.2640	6.0771	3.6181	1.1029	-0.6405	-0.6403	((TAGGTAATGTGACACGT_1:0.0000008251,TAGGTAATGTGACACGT:0.0000000100):0.3352755178,29283_GERM:0.0000100000);
31069	2	106	0.0976	-51.4493	2.3242	0.4902	0.6997	0.6278	0.7817	4.2640	6.0771	3.6181	1.1029	-0.6405	-0.6403	((GATCCAGGGAGAGCAAC:0.0000007919,GATCCAGGGAGAGCAAC_1:0.0000000100):0.0976384585,31069_GERM:0.0000100000);
38446	2	107	0.1415	-72.5551	2.3242	0.4902	0.6997	0.6278	0.7817	4.2640	6.0771	3.6181	1.1029	-0.6405	-0.6403	((GAGAAATGTAAACCTTA:0.0000006816,GAGAAATGTAAACCTTA_1:0.0000000100):0.1414591817,38446_GERM:0.0000100000);
134800	2	107	0.1083	-56.3862	2.3242	0.4902	0.6997	0.6278	0.7817	4.2640	6.0771	3.6181	1.1029	-0.6405	-0.6403	((CACAGAGGGGAACCGCT:0.0000000100,CACAGAGGGGAACCGCT_1:0.0000007394):0.1083488042,134800_GERM:0.0000100000);
40067	2	107	0.2711	-108.6865	2.3242	0.4902	0.6997	0.6278	0.7817	4.2640	6.0771	3.6181	1.1029	-0.6405	-0.6403	((CAGCCATTCAATAATAA_1:0.0000004333,CAGCCATTCAATAATAA:0.0000000100):0.2710680645,40067_GERM:0.0000100000);
90153	2	108	0.3099	-128.8077	2.3242	0.4902	0.6997	0.6278	0.7817	4.2640	6.0771	3.6181	1.1029	-0.6405	-0.6403	((AAGAAAGGGTATTCGAC:0.0000005488,AAGAAAGGGTATTCGAC_1:0.0000005488):0.3099326820,90153_GERM:0.0000100000);
96363	2	66	0.3961	-79.9023	2.3242	0.4902	0.6997	0.6278	0.7817	4.2640	6.0771	3.6181	1.1029	-0.6405	-0.6403	((GAAATTCTCACTTACAC:0.0000000100,GAAATTCTCACTTACAC_1:0.0000008304):0.3960675060,96363_GERM:0.0000100000);
7016	2	108	0.3803	-134.3575	2.3242	0.4902	0.6997	0.6278	0.7817	4.2640	6.0771	3.6181	1.1029	-0.6405	-0.6403	((AAGTATGGCTCATTTCC:0.0000007501,AAGTATGGCTCATTTCC_1:0.0000000100):0.3803427375,7016_GERM:0.0000100000);
116793	2	106	0.2527	-102.7896	2.3242	0.4902	0.6997	0.6278	0.7817	4.2640	6.0771	3.6181	1.1029	-0.6405	-0.6403	((TCATAAAAATATTTTTT:0.0000000100,TCATAAAAATATTTTTT_1:0.0000008639):0.2526493597,116793_GERM:0.0000100000);
50311	2	109	0.0777	-42.8263	2.3242	0.4902	0.6997	0.6278	0.7817	4.2640	6.0771	3.6181	1.1029	-0.6405	-0.6403	((TACAAAACAAGTTCTTA_1:0.0000006913,TACAAAACAAGTTCTTA:0.0000000100):0.0777329170,50311_GERM:0.0000100000);
60113	2	108	0.4546	-152.9157	2.3242	0.4902	0.6997	0.6278	0.7817	4.2640	6.0771	3.6181	1.1029	-0.6405	-0.6403	((GAACCTAAGACTTATAA:0.0000004457,GAACCTAAGACTTATAA_1:0.0000000100):0.4545932440,60113_GERM:0.0000100000);
133955	2	108	0.3616	-128.7456	2.3242	0.4902	0.6997	0.6278	0.7817	4.2640	6.0771	3.6181	1.1029	-0.6405	-0.6403	((CACAGATCTGAAGTCGT_1:0.0000005621,CACAGATCTGAAGTCGT:0.0000005621):0.3616214660,133955_GERM:0.0000100000);
99904	2	108	0.2844	-126.3315	2.3242	0.4902	0.6997	0.6278	0.7817	4.2640	6.0771	3.6181	1.1029	-0.6405	-0.6403	((TAGTCACTAATTTTTTA:0.0000007373,TAGTCACTAATTTTTTA_1:0.0000000100):0.2843801469,99904_GERM:0.0000100000);
100242	2	107	0.0475	-27.7272	2.3242	0.4902	0.6997	0.6278	0.7817	4.2640	6.0771	3.6181	1.1029	-0.6405	-0.6403	((ATATCTTCAGCTACCTA:0.0000006719,ATATCTTCAGCTACCTA_1:0.0000000100):0.0475079971,100242_GERM:0.0000100000);
28435	2	107	0.2618	-105.4696	2.3242	0.4902	0.6997	0.6278	0.7817	4.2640	6.0771	3.6181	1.1029	-0.6405	-0.6403	((GAAATATAAATACATCA_1:0.0000007086,GAAATATAAATACATCA:0.0000007086):0.2617635923,28435_GERM:0.0000100000);
127647	2	108	0.1501	-72.1663	2.3242	0.4902	0.6997	0.6278	0.7817	4.2640	6.0771	3.6181	1.1029	-0.6405	-0.6403	((GCTACAACCACATTTTA:0.0000007086,GCTACAACCACATTTTA_1:0.0000007086):0.1500894838,127647_GERM:0.0000100000);
94483	2	107	0.2833	-114.5425	2.3242	0.4902	0.6997	0.6278	0.7817	4.2640	6.0771	3.6181	1.1029	-0.6405	-0.6403	((TCTCAATATATTTTCTA_1:0.0000004088,TCTCAATATATTTTCTA:0.0000000100):0.2832531789,94483_GERM:0.0000100000);
87250	2	109	0.2882	-110.8437	2.3242	0.4902	0.6997	0.6278	0.7817	4.2640	6.0771	3.6181	1.1029	-0.6405	-0.6403	((ATACCATACTATTAATA_1:0.0000006856,ATACCATACTATTAATA:0.0000000100):0.2881975655,87250_GERM:0.0000100000);
16567	2	107	0.3290	-128.9722	2.3242	0.4902	0.6997	0.6278	0.7817	4.2640	6.0771	3.6181	1.1029	-0.6405	-0.6403	((TGATGTATTACTTTACA:0.0000007942,TGATGTATTACTTTACA_1:0.0000000100):0.3290418532,16567_GERM:0.0000100000);
116704	2	107	0.2921	-107.2359	2.3242	0.4902	0.6997	0.6278	0.7817	4.2640	6.0771	3.6181	1.1029	-0.6405	-0.6403	((TAGGGTAATCCAACTTA_1:0.0000004477,TAGGGTAATCCAACTTA:0.0000000100):0.2921263863,116704_GERM:0.0000100000);
62526	2	71	0.2776	-70.6413	2.3242	0.4902	0.6997	0.6278	0.7817	4.2640	6.0771	3.6181	1.1029	-0.6405	-0.6403	((GGATCCGCCAACACCCA_1:0.0000006283,GGATCCGCCAACACCCA:0.0000000100):0.2775536004,62526_GERM:0.0000100000);
47014	2	108	0.3007	-120.0209	2.3242	0.4902	0.6997	0.6278	0.7817	4.2640	6.0771	3.6181	1.1029	-0.6405	-0.6403	((AATGATTGATTAAATGG_1:0.0000004093,AATGATTGATTAAATGG:0.0000000100):0.3007002532,47014_GERM:0.0000100000);
130603	2	109	0.1456	-71.4473	2.3242	0.4902	0.6997	0.6278	0.7817	4.2640	6.0771	3.6181	1.1029	-0.6405	-0.6403	((TCCTTAAGTTTTGGGCG_1:0.0000007484,TCCTTAAGTTTTGGGCG:0.0000000100):0.1455517920,130603_GERM:0.0000100000);
137580	2	107	0.1640	-77.1323	2.3242	0.4902	0.6997	0.6278	0.7817	4.2640	6.0771	3.6181	1.1029	-0.6405	-0.6403	((TGGGTATTATTATAACT_1:0.0000000100,TGGGTATTATTATAACT:0.0000004072):0.1640056390,137580_GERM:0.0000100000);
37331	2	107	0.2656	-103.0042	2.3242	0.4902	0.6997	0.6278	0.7817	4.2640	6.0771	3.6181	1.1029	-0.6405	-0.6403	((AATGCACTGAAAACCAA_1:0.0000007086,AATGCACTGAAAACCAA:0.0000007086):0.2655871804,37331_GERM:0.0000100000);
65662	2	108	0.2397	-100.9842	2.3242	0.4902	0.6997	0.6278	0.7817	4.2640	6.0771	3.6181	1.1029	-0.6405	-0.6403	((GAGCAAAGGCTATTTTC_1:0.0000007086,GAGCAAAGGCTATTTTC:0.0000007086):0.2397267285,65662_GERM:0.0000100000);
133889	2	108	0.3437	-129.4552	2.3242	0.4902	0.6997	0.6278	0.7817	4.2640	6.0771	3.6181	1.1029	-0.6405	-0.6403	((CGGATACAACGAGAAGC:0.0000006612,CGGATACAACGAGAAGC_1:0.0000000100):0.3437047631,133889_GERM:0.0000100000);
59183	2	75	0.1602	-53.1206	2.3242	0.4902	0.6997	0.6278	0.7817	4.2640	6.0771	3.6181	1.1029	-0.6405	-0.6403	((AATGAAGGGTCCACAGT:0.0000005640,AATGAAGGGTCCACAGT_1:0.0000000100):0.1602169866,59183_GERM:0.0000100000);
3046	2	107	0.0999	-52.1572	2.3242	0.4902	0.6997	0.6278	0.7817	4.2640	6.0771	3.6181	1.1029	-0.6405	-0.6403	((TGCACAAAGAGAGGAGG:0.0000000100,TGCACAAAGAGAGGAGG_1:0.0000010239):0.0999246775,3046_GERM:0.0000100000);
22544	2	108	0.3030	-122.1554	2.3242	0.4902	0.6997	0.6278	0.7817	4.2640	6.0771	3.6181	1.1029	-0.6405	-0.6403	((AAACGATGATATGGGAC_1:0.0000007086,AAACGATGATATGGGAC:0.0000007086):0.3029995750,22544_GERM:0.0000100000);
30898	2	107	0.1076	-57.4671	2.3242	0.4902	0.6997	0.6278	0.7817	4.2640	6.0771	3.6181	1.1029	-0.6405	-0.6403	((CTATCAAAATAAACTAA_1:0.0000009974,CTATCAAAATAAACTAA:0.0000000100):0.1075720623,30898_GERM:0.0000100000);
128645	2	108	0.1054	-51.8696	2.3242	0.4902	0.6997	0.6278	0.7817	4.2640	6.0771	3.6181	1.1029	-0.6405	-0.6403	((GGTTATTTAATACGAAG:0.0000010253,GGTTATTTAATACGAAG_1:0.0000000100):0.1054399608,128645_GERM:0.0000100000);
104383	2	108	0.4556	-155.4976	2.3242	0.4902	0.6997	0.6278	0.7817	4.2640	6.0771	3.6181	1.1029	-0.6405	-0.6403	((CTCGCATCTTATAGTTA_1:0.0000006350,CTCGCATCTTATAGTTA:0.0000006350):0.4556201360,104383_GERM:0.0000100000);
133809	2	108	0.1775	-79.2495	2.3242	0.4902	0.6997	0.6278	0.7817	4.2640	6.0771	3.6181	1.1029	-0.6405	-0.6403	((GGCAAACACCCAACAAA_1:0.0000006905,GGCAAACACCCAACAAA:0.0000000100):0.1775179828,133809_GERM:0.0000100000);
107805	2	108	0.2749	-104.5962	2.3242	0.4902	0.6997	0.6278	0.7817	4.2640	6.0771	3.6181	1.1029	-0.6405	-0.6403	((AAGAGAGGAATATACAT_1:0.0000006973,AAGAGAGGAATATACAT:0.0000000100):0.2749278883,107805_GERM:0.0000100000);
121668	2	108	0.1512	-67.9827	2.3242	0.4902	0.6997	0.6278	0.7817	4.2640	6.0771	3.6181	1.1029	-0.6405	-0.6403	((GAGCAAATTTATTACAT:0.0000006878,GAGCAAATTTATTACAT_1:0.0000004305):0.1511593987,121668_GERM:0.0000100000);
114787	2	108	0.2243	-90.1150	2.3242	0.4902	0.6997	0.6278	0.7817	4.2640	6.0771	3.6181	1.1029	-0.6405	-0.6403	((GAAAAAGCGCTAACGAC:0.0000006777,GAAAAAGCGCTAACGAC_1:0.0000000100):0.2243486900,114787_GERM:0.0000100000);
116478	2	109	0.3114	-121.9081	2.3242	0.4902	0.6997	0.6278	0.7817	4.2640	6.0771	3.6181	1.1029	-0.6405	-0.6403	((CAAAGTTATCTACCTTA:0.0000005499,CAAAGTTATCTACCTTA_1:0.0000005499):0.3113831219,116478_GERM:0.0000100000);
101191	2	108	0.4223	-155.6346	2.3242	0.4902	0.6997	0.6278	0.7817	4.2640	6.0771	3.6181	1.1029	-0.6405	-0.6403	((AGGACTTTCCAAAACAT_1:0.0000000100,AGGACTTTCCAAAACAT:0.0000006672):0.4223300354,101191_GERM:0.0000100000);
107702	2	108	0.3525	-128.4022	2.3242	0.4902	0.6997	0.6278	0.7817	4.2640	6.0771	3.6181	1.1029	-0.6405	-0.6403	((ATCCTTAAAACTATAAA_1:0.0000007659,ATCCTTAAAACTATAAA:0.0000000100):0.3525378556,107702_GERM:0.0000100000);
18827	2	106	0.5715	-188.1646	2.3242	0.4902	0.6997	0.6278	0.7817	4.2640	6.0771	3.6181	1.1029	-0.6405	-0.6403	((CCACTTGCATAACATTA_1:0.0000007123,CCACTTGCATAACATTA:0.0000000100):0.5714644274,18827_GERM:0.0000100000);
25069	2	106	0.3506	-127.8074	2.3242	0.4902	0.6997	0.6278	0.7817	4.2640	6.0771	3.6181	1.1029	-0.6405	-0.6403	((TTAAATCTCCTTCTAAA_1:0.0000007537,TTAAATCTCCTTCTAAA:0.0000000100):0.3505828089,25069_GERM:0.0000100000);
123203	2	107	0.3155	-124.0522	2.3242	0.4902	0.6997	0.6278	0.7817	4.2640	6.0771	3.6181	1.1029	-0.6405	-0.6403	((TAGTATTTTGATAAATG:0.0000007309,TAGTATTTTGATAAATG_1:0.0000000100):0.3155040595,123203_GERM:0.0000100000);
128742	2	44	0.1526	-32.0758	2.3242	0.4902	0.6997	0.6278	0.7817	4.2640	6.0771	3.6181	1.1029	-0.6405	-0.6403	((CGAGGAATATCAGGTTG_1:0.0000024925,CGAGGAATATCAGGTTG:0.0000000100):0.1526174456,128742_GERM:0.0000100000);
64712	2	107	0.4023	-141.5046	2.3242	0.4902	0.6997	0.6278	0.7817	4.2640	6.0771	3.6181	1.1029	-0.6405	-0.6403	((TAGAAACACACTATGCG_1:0.0000006319,TAGAAACACACTATGCG:0.0000006319):0.4022981046,64712_GERM:0.0000100000);
121984	2	107	0.2738	-115.1972	2.3242	0.4902	0.6997	0.6278	0.7817	4.2640	6.0771	3.6181	1.1029	-0.6405	-0.6403	((TTGTCTGTCACTATTAA_1:0.0000004317,TTGTCTGTCACTATTAA:0.0000000100):0.2738023419,121984_GERM:0.0000100000);
18751	2	107	0.2606	-107.9703	2.3242	0.4902	0.6997	0.6278	0.7817	4.2640	6.0771	3.6181	1.1029	-0.6405	-0.6403	((GTATGAATAATTTCTTA_1:0.0000007086,GTATGAATAATTTCTTA:0.0000007086):0.2606385430,18751_GERM:0.0000100000);
76427	2	109	0.3848	-140.2281	2.3242	0.4902	0.6997	0.6278	0.7817	4.2640	6.0771	3.6181	1.1029	-0.6405	-0.6403	((GGGCGTCACATACTCAA_1:0.0000010105,GGGCGTCACATACTCAA:0.0000000100):0.3847700469,76427_GERM:0.0000100000);
13189	2	108	0.2485	-99.9962	2.3242	0.4902	0.6997	0.6278	0.7817	4.2640	6.0771	3.6181	1.1029	-0.6405	-0.6403	((TGCGCAGCGACTGAGGT_1:0.0000006362,TGCGCAGCGACTGAGGT:0.0000000100):0.2484907907,13189_GERM:0.0000100000);
72595	2	107	0.2514	-115.1202	2.3242	0.4902	0.6997	0.6278	0.7817	4.2640	6.0771	3.6181	1.1029	-0.6405	-0.6403	((GGACATACAGTTTATTT_1:0.0000007086,GGACATACAGTTTATTT:0.0000007086):0.2513869785,72595_GERM:0.0000100000);
145278	2	108	0.1798	-81.5528	2.3242	0.4902	0.6997	0.6278	0.7817	4.2640	6.0771	3.6181	1.1029	-0.6405	-0.6403	((ATGACAGAGTATGCGAT:0.0000000100,ATGACAGAGTATGCGAT_1:0.0000009780):0.1797786221,145278_GERM:0.0000100000);
109151	2	107	0.2608	-109.7787	2.3242	0.4902	0.6997	0.6278	0.7817	4.2640	6.0771	3.6181	1.1029	-0.6405	-0.6403	((GCAACATGTGCTCTTTT_1:0.0000000100,GCAACATGTGCTCTTTT:0.0000007057):0.2608040924,109151_GERM:0.0000100000);
51874	2	108	0.1791	-79.0176	2.3242	0.4902	0.6997	0.6278	0.7817	4.2640	6.0771	3.6181	1.1029	-0.6405	-0.6403	((TAGCGATTACAAAAACA:0.0000000100,TAGCGATTACAAAAACA_1:0.0000007760):0.1791373031,51874_GERM:0.0000100000);
116306	2	107	0.3584	-137.7939	2.3242	0.4902	0.6997	0.6278	0.7817	4.2640	6.0771	3.6181	1.1029	-0.6405	-0.6403	((AAAGTTCTTCATCAATA:0.0000005957,AAAGTTCTTCATCAATA_1:0.0000005957):0.3584209654,116306_GERM:0.0000100000);
130503	2	107	0.3503	-132.0605	2.3242	0.4902	0.6997	0.6278	0.7817	4.2640	6.0771	3.6181	1.1029	-0.6405	-0.6403	((GCCAAACTCAAATTTAA:0.0000000100,GCCAAACTCAAATTTAA_1:0.0000010322):0.3503406401,130503_GERM:0.0000100000);
17298	2	107	0.1091	-54.6458	2.3242	0.4902	0.6997	0.6278	0.7817	4.2640	6.0771	3.6181	1.1029	-0.6405	-0.6403	((AGTTATAAATTATCTCA_1:0.0000007078,AGTTATAAATTATCTCA:0.0000007078):0.1091184345,17298_GERM:0.0000100000);
116394	2	109	0.2354	-99.0133	2.3242	0.4902	0.6997	0.6278	0.7817	4.2640	6.0771	3.6181	1.1029	-0.6405	-0.6403	((ACGTCAAACAGAACCCG_1:0.0000000100,ACGTCAAACAGAACCCG:0.0000004057):0.2354128390,116394_GERM:0.0000100000);
89875	2	108	0.2344	-102.1676	2.3242	0.4902	0.6997	0.6278	0.7817	4.2640	6.0771	3.6181	1.1029	-0.6405	-0.6403	((CATGGTAAAACACAGCT_1:0.0000000100,CATGGTAAAACACAGCT:0.0000004397):0.2343585098,89875_GERM:0.0000100000);
57556	2	107	0.3062	-121.6857	2.3242	0.4902	0.6997	0.6278	0.7817	4.2640	6.0771	3.6181	1.1029	-0.6405	-0.6403	((TCCGCTGGATGACAATG_1:0.0000009619,TCCGCTGGATGACAATG:0.0000000100):0.3062032158,57556_GERM:0.0000100000);
83544	2	59	0.2918	-63.8322	2.3242	0.4902	0.6997	0.6278	0.7817	4.2640	6.0771	3.6181	1.1029	-0.6405	-0.6403	((AGTGATATCAATCATCA_1:0.0000017453,AGTGATATCAATCATCA:0.0000000100):0.2917773790,83544_GERM:0.0000100000);
95373	2	108	0.1177	-65.2822	2.3242	0.4902	0.6997	0.6278	0.7817	4.2640	6.0771	3.6181	1.1029	-0.6405	-0.6403	((AAGCGTAAATCAATGAT:0.0000007114,AAGCGTAAATCAATGAT_1:0.0000000100):0.1177251415,95373_GERM:0.0000100000);
116567	2	107	0.3506	-137.8108	2.3242	0.4902	0.6997	0.6278	0.7817	4.2640	6.0771	3.6181	1.1029	-0.6405	-0.6403	((AATAATGAGCATGGATT:0.0000000100,AATAATGAGCATGGATT_1:0.0000004114):0.3505917013,116567_GERM:0.0000100000);
44057	2	108	0.4722	-179.1510	2.3242	0.4902	0.6997	0.6278	0.7817	4.2640	6.0771	3.6181	1.1029	-0.6405	-0.6403	((TCACTTTAATCTTATAT:0.0000009804,TCACTTTAATCTTATAT_1:0.0000000100):0.4722182221,44057_GERM:0.0000100000);
11081	2	108	0.1728	-82.4693	2.3242	0.4902	0.6997	0.6278	0.7817	4.2640	6.0771	3.6181	1.1029	-0.6405	-0.6403	((GGGAAAGGAAAAAATGT:0.0000000100,GGGAAAGGAAAAAATGT_1:0.0000004360):0.1728311758,11081_GERM:0.0000100000);
117024	2	107	0.2006	-90.8880	2.3242	0.4902	0.6997	0.6278	0.7817	4.2640	6.0771	3.6181	1.1029	-0.6405	-0.6403	((TAAATTAAATTTCTCAA_1:0.0000000100,TAAATTAAATTTCTCAA:0.0000007082):0.2006143311,117024_GERM:0.0000100000);
135224	2	106	0.2749	-114.5503	2.3242	0.4902	0.6997	0.6278	0.7817	4.2640	6.0771	3.6181	1.1029	-0.6405	-0.6403	((GTGCATTATCCTATATA:0.0000004683,GTGCATTATCCTATATA_1:0.0000000100):0.2748942078,135224_GERM:0.0000100000);
52016	2	108	0.3555	-135.7575	2.3242	0.4902	0.6997	0.6278	0.7817	4.2640	6.0771	3.6181	1.1029	-0.6405	-0.6403	((ACAAATTACACAACGGG_1:0.0000005719,ACAAATTACACAACGGG:0.0000005719):0.3555174579,52016_GERM:0.0000100000);
24344	2	106	0.2289	-94.8824	2.3242	0.4902	0.6997	0.6278	0.7817	4.2640	6.0771	3.6181	1.1029	-0.6405	-0.6403	((CTTTAAACATCTCTATA_1:0.0000000100,CTTTAAACATCTCTATA:0.0000006913):0.2289158341,24344_GERM:0.0000100000);
13307	2	108	0.4752	-158.3145	2.3242	0.4902	0.6997	0.6278	0.7817	4.2640	6.0771	3.6181	1.1029	-0.6405	-0.6403	((TATCATGACATTATCAC_1:0.0000000100,TATCATGACATTATCAC:0.0000006327):0.4752269575,13307_GERM:0.0000100000);
56313	2	108	0.1685	-77.6054	2.3242	0.4902	0.6997	0.6278	0.7817	4.2640	6.0771	3.6181	1.1029	-0.6405	-0.6403	((AGTGCTCACGGACTATG_1:0.0000008171,AGTGCTCACGGACTATG:0.0000000100):0.1685156612,56313_GERM:0.0000100000);
17688	2	108	0.2657	-104.8887	2.3242	0.4902	0.6997	0.6278	0.7817	4.2640	6.0771	3.6181	1.1029	-0.6405	-0.6403	((GCAACTGCATAAGCTTT_1:0.0000010304,GCAACTGCATAAGCTTT:0.0000000100):0.2657164990,17688_GERM:0.0000100000);
3771	2	109	0.1577	-78.7696	2.3242	0.4902	0.6997	0.6278	0.7817	4.2640	6.0771	3.6181	1.1029	-0.6405	-0.6403	((TCTAGTTAATTACTTCT_1:0.0000008328,TCTAGTTAATTACTTCT:0.0000000100):0.1576589052,3771_GERM:0.0000100000);
76223	2	109	0.4374	-162.7515	2.3242	0.4902	0.6997	0.6278	0.7817	4.2640	6.0771	3.6181	1.1029	-0.6405	-0.6403	((GACCTAAAGTATTACGC_1:0.0000007153,GACCTAAAGTATTACGC:0.0000007153):0.4374323866,76223_GERM:0.0000100000);
31272	2	110	0.3036	-119.3921	2.3242	0.4902	0.6997	0.6278	0.7817	4.2640	6.0771	3.6181	1.1029	-0.6405	-0.6403	((GTTTAAAACTCTACAGA:0.0000007930,GTTTAAAACTCTACAGA_1:0.0000000100):0.3035635311,31272_GERM:0.0000100000);
18182	2	100	0.5913	-181.7954	2.3242	0.4902	0.6997	0.6278	0.7817	4.2640	6.0771	3.6181	1.1029	-0.6405	-0.6403	((CAATTTGTCCTTTTTTA:0.0000006121,CAATTTGTCCTTTTTTA_1:0.0000006121):0.5912947607,18182_GERM:0.0000100000);
128715	2	106	0.5318	-173.3440	2.3242	0.4902	0.6997	0.6278	0.7817	4.2640	6.0771	3.6181	1.1029	-0.6405	-0.6403	((TGGAGAGCGGGATGGGA:0.0000005816,TGGAGAGCGGGATGGGA_1:0.0000005816):0.5318170075,128715_GERM:0.0000100000);
10963	2	107	0.3857	-137.4105	2.3242	0.4902	0.6997	0.6278	0.7817	4.2640	6.0771	3.6181	1.1029	-0.6405	-0.6403	((AATGATAGTGCAGACGT_1:0.0000006259,AATGATAGTGCAGACGT:0.0000006259):0.3856758735,10963_GERM:0.0000100000);
97011	2	107	0.1648	-75.2658	2.3242	0.4902	0.6997	0.6278	0.7817	4.2640	6.0771	3.6181	1.1029	-0.6405	-0.6403	((CATAAACCAAATCTTAT_1:0.0000000100,CATAAACCAAATCTTAT:0.0000006839):0.1647654667,97011_GERM:0.0000100000);
81363	2	108	0.1607	-73.5273	2.3242	0.4902	0.6997	0.6278	0.7817	4.2640	6.0771	3.6181	1.1029	-0.6405	-0.6403	((CACGATGACGCTCTATA_1:0.0000007086,CACGATGACGCTCTATA:0.0000007086):0.1607106801,81363_GERM:0.0000100000);
144363	2	108	0.4098	-134.9248	2.3242	0.4902	0.6997	0.6278	0.7817	4.2640	6.0771	3.6181	1.1029	-0.6405	-0.6403	((ACGTAACAATAAACTAT_1:0.0000000100,ACGTAACAATAAACTAT:0.0000007941):0.4097770508,144363_GERM:0.0000100000);
61101	2	108	0.4029	-141.2819	2.3242	0.4902	0.6997	0.6278	0.7817	4.2640	6.0771	3.6181	1.1029	-0.6405	-0.6403	((GGCGAAGAGCTGCATGG_1:0.0000006489,GGCGAAGAGCTGCATGG:0.0000006489):0.4029116438,61101_GERM:0.0000100000);
140546	2	107	0.2259	-99.0036	2.3242	0.4902	0.6997	0.6278	0.7817	4.2640	6.0771	3.6181	1.1029	-0.6405	-0.6403	((GCAGAAGATTTAGAGAG:0.0000007086,GCAGAAGATTTAGAGAG_1:0.0000007086):0.2258941564,140546_GERM:0.0000100000);
65276	2	108	0.1170	-62.2427	2.3242	0.4902	0.6997	0.6278	0.7817	4.2640	6.0771	3.6181	1.1029	-0.6405	-0.6403	((ATTTGTTAATCTATTAT_1:0.0000007086,ATTTGTTAATCTATTAT:0.0000007086):0.1169977539,65276_GERM:0.0000100000);
140705	2	109	0.1176	-61.1223	2.3242	0.4902	0.6997	0.6278	0.7817	4.2640	6.0771	3.6181	1.1029	-0.6405	-0.6403	((GCAGCTTATTTAAATCA:0.0000010336,GCAGCTTATTTAAATCA_1:0.0000000100):0.1175843745,140705_GERM:0.0000100000);
17238	2	110	0.2308	-99.2651	2.3242	0.4902	0.6997	0.6278	0.7817	4.2640	6.0771	3.6181	1.1029	-0.6405	-0.6403	((TCTAGTAATAATATACA_1:0.0000006094,TCTAGTAATAATATACA:0.0000006094):0.2308020265,17238_GERM:0.0000100000);
131352	2	107	0.5148	-173.1591	2.3242	0.4902	0.6997	0.6278	0.7817	4.2640	6.0771	3.6181	1.1029	-0.6405	-0.6403	((ATTAAAGAAGAAGTTAA_1:0.0000004440,ATTAAAGAAGAAGTTAA:0.0000000100):0.5147678928,131352_GERM:0.0000100000);
11462	2	107	0.2759	-114.7108	2.3242	0.4902	0.6997	0.6278	0.7817	4.2640	6.0771	3.6181	1.1029	-0.6405	-0.6403	((AGTCGAGTCCTTCTACA:0.0000004349,AGTCGAGTCCTTCTACA_1:0.0000000100):0.2759259973,11462_GERM:0.0000100000);
3069	2	108	0.4525	-160.3743	2.3242	0.4902	0.6997	0.6278	0.7817	4.2640	6.0771	3.6181	1.1029	-0.6405	-0.6403	((TTTGATTGAGGTAAGTT:0.0000006890,TTTGATTGAGGTAAGTT_1:0.0000000100):0.4525375336,3069_GERM:0.0000100000);
100341	2	107	0.3950	-137.1208	2.3242	0.4902	0.6997	0.6278	0.7817	4.2640	6.0771	3.6181	1.1029	-0.6405	-0.6403	((ACCAGTCTATTAATTAA:0.0000005809,ACCAGTCTATTAATTAA_1:0.0000005809):0.3950173293,100341_GERM:0.0000100000);
134098	2	108	0.2833	-118.5345	2.3242	0.4902	0.6997	0.6278	0.7817	4.2640	6.0771	3.6181	1.1029	-0.6405	-0.6403	((AATGAAGACATTTTTTT:0.0000000100,AATGAAGACATTTTTTT_1:0.0000007941):0.2832510990,134098_GERM:0.0000100000);
74870	2	107	0.4724	-146.3827	2.3242	0.4902	0.6997	0.6278	0.7817	4.2640	6.0771	3.6181	1.1029	-0.6405	-0.6403	((GAACGGATTCATGAGAC:0.0000007175,GAACGGATTCATGAGAC_1:0.0000000100):0.4724089386,74870_GERM:0.0000100000);
145725	2	107	0.0990	-52.2331	2.3242	0.4902	0.6997	0.6278	0.7817	4.2640	6.0771	3.6181	1.1029	-0.6405	-0.6403	((CCATTTAAATATCTTTA:0.0000000100,CCATTTAAATATCTTTA_1:0.0000007103):0.0990121382,145725_GERM:0.0000100000);
94484	2	107	0.1794	-80.0003	2.3242	0.4902	0.6997	0.6278	0.7817	4.2640	6.0771	3.6181	1.1029	-0.6405	-0.6403	((ACGTTAAGACAAAGTAG_1:0.0000008332,ACGTTAAGACAAAGTAG:0.0000000100):0.1794015788,94484_GERM:0.0000100000);
122044	2	107	0.2232	-98.3065	2.3242	0.4902	0.6997	0.6278	0.7817	4.2640	6.0771	3.6181	1.1029	-0.6405	-0.6403	((CTGTTATAAATTTCTTA:0.0000000100,CTGTTATAAATTTCTTA_1:0.0000004255):0.2231988761,122044_GERM:0.0000100000);
18279	2	108	0.3341	-120.0592	2.3242	0.4902	0.6997	0.6278	0.7817	4.2640	6.0771	3.6181	1.1029	-0.6405	-0.6403	((CATCGTATTATAAATAA:0.0000004289,CATCGTATTATAAATAA_1:0.0000000100):0.3341479249,18279_GERM:0.0000100000);
40089	2	109	0.1900	-76.7295	2.3242	0.4902	0.6997	0.6278	0.7817	4.2640	6.0771	3.6181	1.1029	-0.6405	-0.6403	((AGAGCAGTTTTTCCTAA:0.0000000100,AGAGCAGTTTTTCCTAA_1:0.0000006346):0.1899750675,40089_GERM:0.0000100000);
2464	2	108	0.3215	-124.3414	2.3242	0.4902	0.6997	0.6278	0.7817	4.2640	6.0771	3.6181	1.1029	-0.6405	-0.6403	((ATAAGACACAATTATAA_1:0.0000005543,ATAAGACACAATTATAA:0.0000005543):0.3214741369,2464_GERM:0.0000100000);
36082	2	110	0.0762	-44.8497	2.3242	0.4902	0.6997	0.6278	0.7817	4.2640	6.0771	3.6181	1.1029	-0.6405	-0.6403	((CCTGCTACATAATCTTT_1:0.0000000100,CCTGCTACATAATCTTT:0.0000006945):0.0761649076,36082_GERM:0.0000100000);
86841	2	107	0.2485	-95.3048	2.3242	0.4902	0.6997	0.6278	0.7817	4.2640	6.0771	3.6181	1.1029	-0.6405	-0.6403	((TTAACACTAATTCTCAC_1:0.0000000100,TTAACACTAATTCTCAC:0.0000004626):0.2485063318,86841_GERM:0.0000100000);
49713	2	108	0.3044	-119.2736	2.3242	0.4902	0.6997	0.6278	0.7817	4.2640	6.0771	3.6181	1.1029	-0.6405	-0.6403	((AATCAAAAAAATAACAC_1:0.0000005340,AATCAAAAAAATAACAC:0.0000005340):0.3044255508,49713_GERM:0.0000100000);
56312	2	108	0.2102	-94.7309	2.3242	0.4902	0.6997	0.6278	0.7817	4.2640	6.0771	3.6181	1.1029	-0.6405	-0.6403	((GTAGAAATAAATATACT_1:0.0000004270,GTAGAAATAAATATACT:0.0000000100):0.2101526805,56312_GERM:0.0000100000);
10465	2	108	0.1261	-66.6201	2.3242	0.4902	0.6997	0.6278	0.7817	4.2640	6.0771	3.6181	1.1029	-0.6405	-0.6403	((GCGGAAAGGCCTGCACG:0.0000007086,GCGGAAAGGCCTGCACG_1:0.0000007086):0.1260975049,10465_GERM:0.0000100000);
7362	2	110	0.1719	-88.0520	2.3242	0.4902	0.6997	0.6278	0.7817	4.2640	6.0771	3.6181	1.1029	-0.6405	-0.6403	((AAAACACTTCTAAAATA_1:0.0000005501,AAAACACTTCTAAAATA:0.0000005501):0.1719445335,7362_GERM:0.0000100000);
106982	2	107	0.1823	-82.0165	2.3242	0.4902	0.6997	0.6278	0.7817	4.2640	6.0771	3.6181	1.1029	-0.6405	-0.6403	((AAGTGTACCGCTGAATC_1:0.0000004263,AAGTGTACCGCTGAATC:0.0000000100):0.1823389689,106982_GERM:0.0000100000);
18713	2	108	0.2024	-92.2209	2.3242	0.4902	0.6997	0.6278	0.7817	4.2640	6.0771	3.6181	1.1029	-0.6405	-0.6403	((ATCACAATATTATCTTA_1:0.0000000100,ATCACAATATTATCTTA:0.0000009878):0.2023687358,18713_GERM:0.0000100000);
120201	2	108	0.2988	-120.8263	2.3242	0.4902	0.6997	0.6278	0.7817	4.2640	6.0771	3.6181	1.1029	-0.6405	-0.6403	((CACTTAGCCTTTCACAG_1:0.0000010339,CACTTAGCCTTTCACAG:0.0000000100):0.2988399110,120201_GERM:0.0000100000);
85798	2	107	0.1966	-90.7584	2.3242	0.4902	0.6997	0.6278	0.7817	4.2640	6.0771	3.6181	1.1029	-0.6405	-0.6403	((ACAGTTAAATTTATATA:0.0000005445,ACAGTTAAATTTATATA_1:0.0000005445):0.1966121747,85798_GERM:0.0000100000);
61879	2	108	0.1934	-87.8381	2.3242	0.4902	0.6997	0.6278	0.7817	4.2640	6.0771	3.6181	1.1029	-0.6405	-0.6403	((CGACCATTCATATATTA_1:0.0000005336,CGACCATTCATATATTA:0.0000005336):0.1933972442,61879_GERM:0.0000100000);
140555	2	107	0.2136	-87.5684	2.3242	0.4902	0.6997	0.6278	0.7817	4.2640	6.0771	3.6181	1.1029	-0.6405	-0.6403	((AAACTTGCATCAACTAA_1:0.0000000100,AAACTTGCATCAACTAA:0.0000007391):0.2136086488,140555_GERM:0.0000100000);
11885	2	108	0.6935	-207.2586	2.3242	0.4902	0.6997	0.6278	0.7817	4.2640	6.0771	3.6181	1.1029	-0.6405	-0.6403	((GAAGATCCCTCTGAGAT:0.0000006404,GAAGATCCCTCTGAGAT_1:0.0000006404):0.6935324853,11885_GERM:0.0000100000);
33184	2	107	0.2412	-95.2375	2.3242	0.4902	0.6997	0.6278	0.7817	4.2640	6.0771	3.6181	1.1029	-0.6405	-0.6403	((TTTTTACGCTCATCACT_1:0.0000003181,TTTTTACGCTCATCACT:0.0000004358):0.2411553497,33184_GERM:0.0000100000);
29641	2	108	0.3108	-125.5808	2.3242	0.4902	0.6997	0.6278	0.7817	4.2640	6.0771	3.6181	1.1029	-0.6405	-0.6403	((CTGTCACTATTTAATTA_1:0.0000007395,CTGTCACTATTTAATTA:0.0000000100):0.3108487577,29641_GERM:0.0000100000);
134504	2	108	0.4532	-169.2138	2.3242	0.4902	0.6997	0.6278	0.7817	4.2640	6.0771	3.6181	1.1029	-0.6405	-0.6403	((CAGAAAAACTATTCAAT:0.0000000100,CAGAAAAACTATTCAAT_1:0.0000006599):0.4532247847,134504_GERM:0.0000100000);
86399	2	110	0.0862	-54.5118	2.3242	0.4902	0.6997	0.6278	0.7817	4.2640	6.0771	3.6181	1.1029	-0.6405	-0.6403	((CACATTTGCCAATGAAG:0.0000004226,CACATTTGCCAATGAAG_1:0.0000000100):0.0862339109,86399_GERM:0.0000100000);
66563	2	108	0.2783	-116.3329	2.3242	0.4902	0.6997	0.6278	0.7817	4.2640	6.0771	3.6181	1.1029	-0.6405	-0.6403	((AAATTTTCCAAACAACA_1:0.0000000100,AAATTTTCCAAACAACA:0.0000007004):0.2782992840,66563_GERM:0.0000100000);
96433	2	107	0.2219	-93.8478	2.3242	0.4902	0.6997	0.6278	0.7817	4.2640	6.0771	3.6181	1.1029	-0.6405	-0.6403	((GCGTATTTTATTTATTA_1:0.0000007086,GCGTATTTTATTTATTA:0.0000007086):0.2219056198,96433_GERM:0.0000100000);
61689	2	108	0.2807	-111.0436	2.3242	0.4902	0.6997	0.6278	0.7817	4.2640	6.0771	3.6181	1.1029	-0.6405	-0.6403	((AACAAAAAAAAAAATAT_1:0.0000008372,AACAAAAAAAAAAATAT:0.0000000100):0.2806827788,61689_GERM:0.0000100000);
16304	2	105	0.2912	-107.1287	2.3242	0.4902	0.6997	0.6278	0.7817	4.2640	6.0771	3.6181	1.1029	-0.6405	-0.6403	((TGTTCATCTAATTTATA_1:0.0000000100,TGTTCATCTAATTTATA:0.0000008395):0.2911751448,16304_GERM:0.0000100000);
125184	2	108	0.2441	-101.1620	2.3242	0.4902	0.6997	0.6278	0.7817	4.2640	6.0771	3.6181	1.1029	-0.6405	-0.6403	((TATATAAAGATTAACAA:0.0000010231,TATATAAAGATTAACAA_1:0.0000000100):0.2440534866,125184_GERM:0.0000100000);
105986	2	108	0.1995	-91.1259	2.3242	0.4902	0.6997	0.6278	0.7817	4.2640	6.0771	3.6181	1.1029	-0.6405	-0.6403	((TTTATTCACTCATCAAA:0.0000010126,TTTATTCACTCATCAAA_1:0.0000000100):0.1995303050,105986_GERM:0.0000100000);
43077	2	108	0.3833	-136.2102	2.3242	0.4902	0.6997	0.6278	0.7817	4.2640	6.0771	3.6181	1.1029	-0.6405	-0.6403	((CTCTCTCTAAAACATTA:0.0000000100,CTCTCTCTAAAACATTA_1:0.0000004276):0.3833275317,43077_GERM:0.0000100000);
101557	2	108	0.4431	-152.7975	2.3242	0.4902	0.6997	0.6278	0.7817	4.2640	6.0771	3.6181	1.1029	-0.6405	-0.6403	((AACATAACAAAAAAAGG_1:0.0000007044,AACATAACAAAAAAAGG:0.0000000100):0.4431160926,101557_GERM:0.0000100000);
3066	2	108	0.2982	-115.6851	2.3242	0.4902	0.6997	0.6278	0.7817	4.2640	6.0771	3.6181	1.1029	-0.6405	-0.6403	((ACCAGACGGATAGTTTC:0.0000000100,ACCAGACGGATAGTTTC_1:0.0000004519):0.2982370348,3066_GERM:0.0000100000);
60156	2	110	0.3081	-122.4232	2.3242	0.4902	0.6997	0.6278	0.7817	4.2640	6.0771	3.6181	1.1029	-0.6405	-0.6403	((TGCGTTACAAGTACAGG_1:0.0000004126,TGCGTTACAAGTACAGG:0.0000000100):0.3081052473,60156_GERM:0.0000100000);
29450	2	106	0.1842	-86.0936	2.3242	0.4902	0.6997	0.6278	0.7817	4.2640	6.0771	3.6181	1.1029	-0.6405	-0.6403	((TTAACAATACATATAAC:0.0000007476,TTAACAATACATATAAC_1:0.0000000100):0.1842452049,29450_GERM:0.0000100000);
86581	2	107	0.2280	-98.6066	2.3242	0.4902	0.6997	0.6278	0.7817	4.2640	6.0771	3.6181	1.1029	-0.6405	-0.6403	((TTATGTTTCATTATCAT:0.0000004054,TTATGTTTCATTATCAT_1:0.0000000100):0.2280397813,86581_GERM:0.0000100000);
14334	2	108	0.4145	-147.5789	2.3242	0.4902	0.6997	0.6278	0.7817	4.2640	6.0771	3.6181	1.1029	-0.6405	-0.6403	((AACGTCAAGGATGATCT:0.0000007086,AACGTCAAGGATGATCT_1:0.0000007086):0.4145322367,14334_GERM:0.0000100000);
89913	2	108	0.3555	-134.2959	2.3242	0.4902	0.6997	0.6278	0.7817	4.2640	6.0771	3.6181	1.1029	-0.6405	-0.6403	((AAGTATACACTACATCC:0.0000007349,AAGTATACACTACATCC_1:0.0000000100):0.3554594061,89913_GERM:0.0000100000);
114424	2	108	0.1900	-89.7034	2.3242	0.4902	0.6997	0.6278	0.7817	4.2640	6.0771	3.6181	1.1029	-0.6405	-0.6403	((GTTGCTATGGCTGTAGT_1:0.0000007650,GTTGCTATGGCTGTAGT:0.0000000100):0.1900356718,114424_GERM:0.0000100000);
32899	2	108	0.4590	-156.1823	2.3242	0.4902	0.6997	0.6278	0.7817	4.2640	6.0771	3.6181	1.1029	-0.6405	-0.6403	((AGAAGATTTATAAAACA_1:0.0000006531,AGAAGATTTATAAAACA:0.0000000100):0.4589789682,32899_GERM:0.0000100000);
65294	2	109	0.3272	-128.7139	2.3242	0.4902	0.6997	0.6278	0.7817	4.2640	6.0771	3.6181	1.1029	-0.6405	-0.6403	((CTGACACGGAGAACTGT:0.0000000100,CTGACACGGAGAACTGT_1:0.0000007221):0.3272479907,65294_GERM:0.0000100000);
81688	2	89	0.4942	-134.0434	2.3242	0.4902	0.6997	0.6278	0.7817	4.2640	6.0771	3.6181	1.1029	-0.6405	-0.6403	((GACAGTTTTCATTTTTT_1:0.0000005173,GACAGTTTTCATTTTTT:0.0000000100):0.4942197919,81688_GERM:0.0000100000);
18716	2	107	0.2666	-106.9622	2.3242	0.4902	0.6997	0.6278	0.7817	4.2640	6.0771	3.6181	1.1029	-0.6405	-0.6403	((GACGTTATCATTCTAAT:0.0000004297,GACGTTATCATTCTAAT_1:0.0000000100):0.2665695942,18716_GERM:0.0000100000);
70266	2	108	0.1603	-74.8927	2.3242	0.4902	0.6997	0.6278	0.7817	4.2640	6.0771	3.6181	1.1029	-0.6405	-0.6403	((TGAAAATTACCATACTA:0.0000000100,TGAAAATTACCATACTA_1:0.0000007488):0.1602772670,70266_GERM:0.0000100000);
145425	2	63	0.1920	-52.2057	2.3242	0.4902	0.6997	0.6278	0.7817	4.2640	6.0771	3.6181	1.1029	-0.6405	-0.6403	((ATTACAAGTGATCTGGC_1:0.0000000100,ATTACAAGTGATCTGGC:0.0000012985):0.1919510282,145425_GERM:0.0000100000);
883	2	108	0.4146	-141.1339	2.3242	0.4902	0.6997	0.6278	0.7817	4.2640	6.0771	3.6181	1.1029	-0.6405	-0.6403	((AACCATGGAAGAGGGGG_1:0.0000007060,AACCATGGAAGAGGGGG:0.0000007060):0.4145585329,883_GERM:0.0000100000);
32826	2	62	0.1369	-39.1595	2.3242	0.4902	0.6997	0.6278	0.7817	4.2640	6.0771	3.6181	1.1029	-0.6405	-0.6403	((CAAGCAGCATCAACCTA_1:0.0000000100,CAAGCAGCATCAACCTA:0.0000007940):0.1369104645,32826_GERM:0.0000100000);
122362	2	107	0.2317	-91.5241	2.3242	0.4902	0.6997	0.6278	0.7817	4.2640	6.0771	3.6181	1.1029	-0.6405	-0.6403	((AGAGCAGGATGTAGGCA:0.0000000100,AGAGCAGGATGTAGGCA_1:0.0000006877):0.2317176552,122362_GERM:0.0000100000);
80704	2	109	0.2825	-114.4328	2.3242	0.4902	0.6997	0.6278	0.7817	4.2640	6.0771	3.6181	1.1029	-0.6405	-0.6403	((TTCAAAATGCAAACACA_1:0.0000007775,TTCAAAATGCAAACACA:0.0000000100):0.2824897089,80704_GERM:0.0000100000);
37788	2	108	0.2864	-118.6863	2.3242	0.4902	0.6997	0.6278	0.7817	4.2640	6.0771	3.6181	1.1029	-0.6405	-0.6403	((TCTTGTGATAATTATCT:0.0000007880,TCTTGTGATAATTATCT_1:0.0000000100):0.2863606598,37788_GERM:0.0000100000);
51761	2	108	0.2551	-110.7904	2.3242	0.4902	0.6997	0.6278	0.7817	4.2640	6.0771	3.6181	1.1029	-0.6405	-0.6403	((ACAGGATCAAAAGCAGA:0.0000004409,ACAGGATCAAAAGCAGA_1:0.0000000100):0.2550986229,51761_GERM:0.0000100000);
65256	2	107	0.2376	-97.2809	2.3242	0.4902	0.6997	0.6278	0.7817	4.2640	6.0771	3.6181	1.1029	-0.6405	-0.6403	((GGTGAACCAAAACCTCG_1:0.0000000100,GGTGAACCAAAACCTCG:0.0000004355):0.2375794871,65256_GERM:0.0000100000);
24131	2	108	0.3600	-137.2256	2.3242	0.4902	0.6997	0.6278	0.7817	4.2640	6.0771	3.6181	1.1029	-0.6405	-0.6403	((GATTGTTAGCAATTCAC:0.0000009703,GATTGTTAGCAATTCAC_1:0.0000000100):0.3600216286,24131_GERM:0.0000100000);
137812	2	107	0.2371	-101.2273	2.3242	0.4902	0.6997	0.6278	0.7817	4.2640	6.0771	3.6181	1.1029	-0.6405	-0.6403	((TATGATAATATAAATTA_1:0.0000009692,TATGATAATATAAATTA:0.0000000100):0.2370825172,137812_GERM:0.0000100000);
44330	2	110	0.2634	-113.2739	2.3242	0.4902	0.6997	0.6278	0.7817	4.2640	6.0771	3.6181	1.1029	-0.6405	-0.6403	((TAAAAAGTTAAACTAAA:0.0000000100,TAAAAAGTTAAACTAAA_1:0.0000004261):0.2633540483,44330_GERM:0.0000100000);
144885	2	105	0.2401	-98.4859	2.3242	0.4902	0.6997	0.6278	0.7817	4.2640	6.0771	3.6181	1.1029	-0.6405	-0.6403	((CAAAGATTCTAAGGATT:0.0000007312,CAAAGATTCTAAGGATT_1:0.0000000100):0.2401474454,144885_GERM:0.0000100000);
51917	2	108	0.1572	-76.9941	2.3242	0.4902	0.6997	0.6278	0.7817	4.2640	6.0771	3.6181	1.1029	-0.6405	-0.6403	((AATAAAGAGTCATTAAC_1:0.0000007472,AATAAAGAGTCATTAAC:0.0000007472):0.1571918392,51917_GERM:0.0000100000);
35578	2	108	0.4258	-145.4437	2.3242	0.4902	0.6997	0.6278	0.7817	4.2640	6.0771	3.6181	1.1029	-0.6405	-0.6403	((TGACGAAGAATTTAACG:0.0000007086,TGACGAAGAATTTAACG_1:0.0000007086):0.4257877790,35578_GERM:0.0000100000);
17344	2	108	0.3643	-140.8687	2.3242	0.4902	0.6997	0.6278	0.7817	4.2640	6.0771	3.6181	1.1029	-0.6405	-0.6403	((TACACTATTTTATCTTA_1:0.0000000100,TACACTATTTTATCTTA:0.0000007339):0.3643444664,17344_GERM:0.0000100000);
128759	2	108	0.2537	-102.0974	2.3242	0.4902	0.6997	0.6278	0.7817	4.2640	6.0771	3.6181	1.1029	-0.6405	-0.6403	((GAGGCTCGTTGTCTAGT_1:0.0000000100,GAGGCTCGTTGTCTAGT:0.0000007766):0.2536851228,128759_GERM:0.0000100000);
46894	2	109	0.1485	-68.1785	2.3242	0.4902	0.6997	0.6278	0.7817	4.2640	6.0771	3.6181	1.1029	-0.6405	-0.6403	((AACGCATTGTAAATTTA:0.0000000100,AACGCATTGTAAATTTA_1:0.0000009764):0.1485047973,46894_GERM:0.0000100000);
65449	2	106	0.2951	-121.9122	2.3242	0.4902	0.6997	0.6278	0.7817	4.2640	6.0771	3.6181	1.1029	-0.6405	-0.6403	((GAAGAAATCAAATAATA:0.0000007362,GAAGAAATCAAATAATA_1:0.0000000100):0.2950533915,65449_GERM:0.0000100000);
35298	2	107	0.6018	-181.2880	2.3242	0.4902	0.6997	0.6278	0.7817	4.2640	6.0771	3.6181	1.1029	-0.6405	-0.6403	((TGTCTACTACATCTATA_1:0.0000006160,TGTCTACTACATCTATA:0.0000006160):0.6018223297,35298_GERM:0.0000100000);
84562	2	109	0.2228	-93.5295	2.3242	0.4902	0.6997	0.6278	0.7817	4.2640	6.0771	3.6181	1.1029	-0.6405	-0.6403	((AGATTTTGCAATTATGT_1:0.0000000100,AGATTTTGCAATTATGT:0.0000009905):0.2227921527,84562_GERM:0.0000100000);
77698	2	108	0.2140	-90.8416	2.3242	0.4902	0.6997	0.6278	0.7817	4.2640	6.0771	3.6181	1.1029	-0.6405	-0.6403	((AACTTATATTTACTATA_1:0.0000006242,AACTTATATTTACTATA:0.0000006242):0.2140218437,77698_GERM:0.0000100000);
131048	2	109	0.1432	-73.1236	2.3242	0.4902	0.6997	0.6278	0.7817	4.2640	6.0771	3.6181	1.1029	-0.6405	-0.6403	((AGGGTACCGAGTATAAA_1:0.0000007104,AGGGTACCGAGTATAAA:0.0000007104):0.1431757310,131048_GERM:0.0000100000);
24078	2	108	0.1270	-64.1988	2.3242	0.4902	0.6997	0.6278	0.7817	4.2640	6.0771	3.6181	1.1029	-0.6405	-0.6403	((CAGAAAAACACACTGGG_1:0.0000005477,CAGAAAAACACACTGGG:0.0000005953):0.1270054371,24078_GERM:0.0000100000);
116822	2	109	0.2750	-108.3304	2.3242	0.4902	0.6997	0.6278	0.7817	4.2640	6.0771	3.6181	1.1029	-0.6405	-0.6403	((TTCTTTTTATCTTTACT:0.0000000100,TTCTTTTTATCTTTACT_1:0.0000007826):0.2749619853,116822_GERM:0.0000100000);
7015	2	108	0.3821	-144.5977	2.3242	0.4902	0.6997	0.6278	0.7817	4.2640	6.0771	3.6181	1.1029	-0.6405	-0.6403	((AGAAATAACATTATTAA:0.0000005950,AGAAATAACATTATTAA_1:0.0000005950):0.3821455589,7015_GERM:0.0000100000);
59885	2	108	0.3360	-132.3611	2.3242	0.4902	0.6997	0.6278	0.7817	4.2640	6.0771	3.6181	1.1029	-0.6405	-0.6403	((GCAGAAGCTTTACACAC:0.0000007385,GCAGAAGCTTTACACAC_1:0.0000000100):0.3360393667,59885_GERM:0.0000100000);
110154	2	110	0.1165	-60.1668	2.3242	0.4902	0.6997	0.6278	0.7817	4.2640	6.0771	3.6181	1.1029	-0.6405	-0.6403	((GCTGATGGACTTTTACA:0.0000000100,GCTGATGGACTTTTACA_1:0.0000004370):0.1164931609,110154_GERM:0.0000100000);
141021	2	107	0.3519	-127.8868	2.3242	0.4902	0.6997	0.6278	0.7817	4.2640	6.0771	3.6181	1.1029	-0.6405	-0.6403	((GGTTTAAAATCATTATA_1:0.0000000100,GGTTTAAAATCATTATA:0.0000006535):0.3519470672,141021_GERM:0.0000100000);
75090	2	75	0.2580	-77.5308	2.3242	0.4902	0.6997	0.6278	0.7817	4.2640	6.0771	3.6181	1.1029	-0.6405	-0.6403	((ATACATCTACCATATAA:0.0000000100,ATACATCTACCATATAA_1:0.0000005870):0.2579739624,75090_GERM:0.0000100000);
13634	2	109	0.2713	-113.4774	2.3242	0.4902	0.6997	0.6278	0.7817	4.2640	6.0771	3.6181	1.1029	-0.6405	-0.6403	((GAAGTACGCGCAAATTT:0.0000000100,GAAGTACGCGCAAATTT_1:0.0000009731):0.2713386613,13634_GERM:0.0000100000);
104057	2	108	0.0885	-51.4757	2.3242	0.4902	0.6997	0.6278	0.7817	4.2640	6.0771	3.6181	1.1029	-0.6405	-0.6403	((GCCGCAGATACTATAAA:0.0000000100,GCCGCAGATACTATAAA_1:0.0000007590):0.0885443916,104057_GERM:0.0000100000);
29656	2	108	0.3011	-120.1594	2.3242	0.4902	0.6997	0.6278	0.7817	4.2640	6.0771	3.6181	1.1029	-0.6405	-0.6403	((TCAAATACATTTATACA_1:0.0000007258,TCAAATACATTTATACA:0.0000000100):0.3010854116,29656_GERM:0.0000100000);
47676	2	108	0.1252	-67.7869	2.3242	0.4902	0.6997	0.6278	0.7817	4.2640	6.0771	3.6181	1.1029	-0.6405	-0.6403	((TCTACTCCTACATCCAT:0.0000006007,TCTACTCCTACATCCAT_1:0.0000006007):0.1252178380,47676_GERM:0.0000100000);
89190	2	108	0.1824	-84.4450	2.3242	0.4902	0.6997	0.6278	0.7817	4.2640	6.0771	3.6181	1.1029	-0.6405	-0.6403	((GAGTTTTTATCTACTTA:0.0000006916,GAGTTTTTATCTACTTA_1:0.0000000100):0.1823604075,89190_GERM:0.0000100000);
72226	2	108	0.4254	-145.1295	2.3242	0.4902	0.6997	0.6278	0.7817	4.2640	6.0771	3.6181	1.1029	-0.6405	-0.6403	((GAAAAAGTCACACACTA:0.0000007086,GAAAAAGTCACACACTA_1:0.0000007086):0.4254188530,72226_GERM:0.0000100000);
138155	2	109	0.1876	-90.3193	2.3242	0.4902	0.6997	0.6278	0.7817	4.2640	6.0771	3.6181	1.1029	-0.6405	-0.6403	((TAAATATGAGTTTGGGG_1:0.0000007893,TAAATATGAGTTTGGGG:0.0000000100):0.1876397249,138155_GERM:0.0000100000);
67932	2	108	0.3619	-119.3091	2.3242	0.4902	0.6997	0.6278	0.7817	4.2640	6.0771	3.6181	1.1029	-0.6405	-0.6403	((AAAATTTATTAATTTAA_1:0.0000004803,AAAATTTATTAATTTAA:0.0000000100):0.3619111083,67932_GERM:0.0000100000);
99744	2	108	0.0889	-47.1768	2.3242	0.4902	0.6997	0.6278	0.7817	4.2640	6.0771	3.6181	1.1029	-0.6405	-0.6403	((AGACATTGCACTATCCA_1:0.0000008041,AGACATTGCACTATCCA:0.0000000100):0.0888879193,99744_GERM:0.0000100000);
36148	2	61	0.2963	-68.7073	2.3242	0.4902	0.6997	0.6278	0.7817	4.2640	6.0771	3.6181	1.1029	-0.6405	-0.6403	((TTCGCTCAGCAATCTAA:0.0000014236,TTCGCTCAGCAATCTAA_1:0.0000000100):0.2962996412,36148_GERM:0.0000100000);
58391	2	108	0.2827	-112.2884	2.3242	0.4902	0.6997	0.6278	0.7817	4.2640	6.0771	3.6181	1.1029	-0.6405	-0.6403	((ATAAAACAATCACCTAA:0.0000007536,ATAAAACAATCACCTAA_1:0.0000000100):0.2827080528,58391_GERM:0.0000100000);
27499	2	108	0.2955	-118.4718	2.3242	0.4902	0.6997	0.6278	0.7817	4.2640	6.0771	3.6181	1.1029	-0.6405	-0.6403	((GCTAGTCCAACTCCAAA_1:0.0000000100,GCTAGTCCAACTCCAAA:0.0000006385):0.2954741384,27499_GERM:0.0000100000);
57651	2	110	0.1916	-83.1181	2.3242	0.4902	0.6997	0.6278	0.7817	4.2640	6.0771	3.6181	1.1029	-0.6405	-0.6403	((GTCATTGACTAACAACA_1:0.0000006627,GTCATTGACTAACAACA:0.0000000100):0.1915569728,57651_GERM:0.0000100000);
112129	2	108	0.1987	-87.2866	2.3242	0.4902	0.6997	0.6278	0.7817	4.2640	6.0771	3.6181	1.1029	-0.6405	-0.6403	((GGCACTAATCAATTAAT_1:0.0000005428,GGCACTAATCAATTAAT:0.0000005428):0.1986907067,112129_GERM:0.0000100000);
146194	2	107	0.2301	-98.4317	2.3242	0.4902	0.6997	0.6278	0.7817	4.2640	6.0771	3.6181	1.1029	-0.6405	-0.6403	((TTGTCACAATCTTCATA:0.0000006112,TTGTCACAATCTTCATA_1:0.0000006112):0.2300824024,146194_GERM:0.0000100000);
81104	2	109	0.2262	-104.1242	2.3242	0.4902	0.6997	0.6278	0.7817	4.2640	6.0771	3.6181	1.1029	-0.6405	-0.6403	((GATGTAATCTGTAATCT_1:0.0000009528,GATGTAATCTGTAATCT:0.0000000100):0.2262420452,81104_GERM:0.0000100000);
66175	2	108	0.2596	-115.6093	2.3242	0.4902	0.6997	0.6278	0.7817	4.2640	6.0771	3.6181	1.1029	-0.6405	-0.6403	((CGATAATTTAAAAATAA_1:0.0000007086,CGATAATTTAAAAATAA:0.0000007086):0.2596263495,66175_GERM:0.0000100000);
107542	2	108	0.0876	-49.6838	2.3242	0.4902	0.6997	0.6278	0.7817	4.2640	6.0771	3.6181	1.1029	-0.6405	-0.6403	((TTCGGTCGAGATTTATC:0.0000000100,TTCGGTCGAGATTTATC_1:0.0000007798):0.0875942039,107542_GERM:0.0000100000);
99908	2	108	0.2108	-97.1780	2.3242	0.4902	0.6997	0.6278	0.7817	4.2640	6.0771	3.6181	1.1029	-0.6405	-0.6403	((CACCGATTAATATTACA:0.0000005723,CACCGATTAATATTACA_1:0.0000005723):0.2107606979,99908_GERM:0.0000100000);
90179	2	108	0.3649	-138.0401	2.3242	0.4902	0.6997	0.6278	0.7817	4.2640	6.0771	3.6181	1.1029	-0.6405	-0.6403	((AATACTACTCTATTTAT_1:0.0000006065,AATACTACTCTATTTAT:0.0000006065):0.3648717239,90179_GERM:0.0000100000);
4387	2	108	0.2466	-103.8934	2.3242	0.4902	0.6997	0.6278	0.7817	4.2640	6.0771	3.6181	1.1029	-0.6405	-0.6403	((GCAACTGATATAATTAT:0.0000009709,GCAACTGATATAATTAT_1:0.0000000100):0.2465982714,4387_GERM:0.0000100000);
21545	2	107	0.1868	-86.0461	2.3242	0.4902	0.6997	0.6278	0.7817	4.2640	6.0771	3.6181	1.1029	-0.6405	-0.6403	((AGTTCAACAGCTGATAC:0.0000000100,AGTTCAACAGCTGATAC_1:0.0000007736):0.1868014482,21545_GERM:0.0000100000);
56300	2	108	0.1368	-69.3887	2.3242	0.4902	0.6997	0.6278	0.7817	4.2640	6.0771	3.6181	1.1029	-0.6405	-0.6403	((AAGCGAAAATCATTTAC:0.0000004209,AAGCGAAAATCATTTAC_1:0.0000000100):0.1367934056,56300_GERM:0.0000100000);
889	2	108	0.1473	-74.9347	2.3242	0.4902	0.6997	0.6278	0.7817	4.2640	6.0771	3.6181	1.1029	-0.6405	-0.6403	((ATGATTATTATTGCTAT_1:0.0000007086,ATGATTATTATTGCTAT:0.0000007086):0.1473254545,889_GERM:0.0000100000);
111854	2	107	0.5054	-159.6137	2.3242	0.4902	0.6997	0.6278	0.7817	4.2640	6.0771	3.6181	1.1029	-0.6405	-0.6403	((CGAAATCACACTCCAAA_1:0.0000007086,CGAAATCACACTCCAAA:0.0000007086):0.5053879052,111854_GERM:0.0000100000);
5989	2	106	0.2810	-122.3420	2.3242	0.4902	0.6997	0.6278	0.7817	4.2640	6.0771	3.6181	1.1029	-0.6405	-0.6403	((AGGAAACCTAAAATCTA_1:0.0000008083,AGGAAACCTAAAATCTA:0.0000000100):0.2810416721,5989_GERM:0.0000100000);
20061	2	107	0.1940	-83.1613	2.3242	0.4902	0.6997	0.6278	0.7817	4.2640	6.0771	3.6181	1.1029	-0.6405	-0.6403	((CATACATTATCTTAATG_1:0.0000004580,CATACATTATCTTAATG:0.0000000100):0.1940415744,20061_GERM:0.0000100000);
90127	2	108	0.2602	-111.6618	2.3242	0.4902	0.6997	0.6278	0.7817	4.2640	6.0771	3.6181	1.1029	-0.6405	-0.6403	((GGGAAAGTATTACACAT_1:0.0000007086,GGGAAAGTATTACACAT:0.0000007086):0.2602443512,90127_GERM:0.0000100000);
105771	2	73	0.4586	-117.7215	2.3242	0.4902	0.6997	0.6278	0.7817	4.2640	6.0771	3.6181	1.1029	-0.6405	-0.6403	((CGGGAAGATCAAATTAA:0.0000000100,CGGGAAGATCAAATTAA_1:0.0000004623):0.4585837082,105771_GERM:0.0000100000);
55834	2	110	0.1030	-64.3929	2.3242	0.4902	0.6997	0.6278	0.7817	4.2640	6.0771	3.6181	1.1029	-0.6405	-0.6403	((TCTACTGGTTCTATATT_1:0.0000010288,TCTACTGGTTCTATATT:0.0000000100):0.1029767226,55834_GERM:0.0000100000);
142182	2	108	0.2543	-106.9347	2.3242	0.4902	0.6997	0.6278	0.7817	4.2640	6.0771	3.6181	1.1029	-0.6405	-0.6403	((GCACATCACTCTATAAA:0.0000000100,GCACATCACTCTATAAA_1:0.0000008403):0.2542839358,142182_GERM:0.0000100000);
100648	2	107	0.4178	-149.5092	2.3242	0.4902	0.6997	0.6278	0.7817	4.2640	6.0771	3.6181	1.1029	-0.6405	-0.6403	((ATTCAATATTAACCTCT_1:0.0000004179,ATTCAATATTAACCTCT:0.0000000100):0.4178481212,100648_GERM:0.0000100000);
137663	2	109	0.3168	-122.7227	2.3242	0.4902	0.6997	0.6278	0.7817	4.2640	6.0771	3.6181	1.1029	-0.6405	-0.6403	((ACAACTATCCAATACAA:0.0000010141,ACAACTATCCAATACAA_1:0.0000000100):0.3167986731,137663_GERM:0.0000100000);
31400	2	110	0.1974	-91.9955	2.3242	0.4902	0.6997	0.6278	0.7817	4.2640	6.0771	3.6181	1.1029	-0.6405	-0.6403	((ACATATACAATTTTAAA_1:0.0000000100,ACATATACAATTTTAAA:0.0000009764):0.1973525796,31400_GERM:0.0000100000);
138196	2	109	0.2728	-112.0885	2.3242	0.4902	0.6997	0.6278	0.7817	4.2640	6.0771	3.6181	1.1029	-0.6405	-0.6403	((ACCTATTAATCATACTC:0.0000006360,ACCTATTAATCATACTC_1:0.0000000100):0.2727731170,138196_GERM:0.0000100000);
18358	2	107	0.2576	-108.2759	2.3242	0.4902	0.6997	0.6278	0.7817	4.2640	6.0771	3.6181	1.1029	-0.6405	-0.6403	((AACGCAAGGGGAAAGCT_1:0.0000008269,AACGCAAGGGGAAAGCT:0.0000000100):0.2575601225,18358_GERM:0.0000100000);
54750	2	107	0.2568	-104.6071	2.3242	0.4902	0.6997	0.6278	0.7817	4.2640	6.0771	3.6181	1.1029	-0.6405	-0.6403	((ATGGCATTTACTCGCAT_1:0.0000004523,ATGGCATTTACTCGCAT:0.0000000100):0.2567727095,54750_GERM:0.0000100000);
51172	2	107	0.1671	-81.7333	2.3242	0.4902	0.6997	0.6278	0.7817	4.2640	6.0771	3.6181	1.1029	-0.6405	-0.6403	((AGAACATACTTTCACAA:0.0000000100,AGAACATACTTTCACAA_1:0.0000007169):0.1671104448,51172_GERM:0.0000100000);
59273	2	108	0.0379	-24.0821	2.3242	0.4902	0.6997	0.6278	0.7817	4.2640	6.0771	3.6181	1.1029	-0.6405	-0.6403	((TGACATAAGGATAGAGG:0.0000007086,TGACATAAGGATAGAGG_1:0.0000007086):0.0378988565,59273_GERM:0.0000100000);
48431	2	108	0.6446	-192.2140	2.3242	0.4902	0.6997	0.6278	0.7817	4.2640	6.0771	3.6181	1.1029	-0.6405	-0.6403	((AAAATAAAAATATATCC_1:0.0000007610,AAAATAAAAATATATCC:0.0000000100):0.6446214770,48431_GERM:0.0000100000);
75770	2	109	0.1065	-56.5971	2.3242	0.4902	0.6997	0.6278	0.7817	4.2640	6.0771	3.6181	1.1029	-0.6405	-0.6403	((AGTTTTGGACTTCATCC_1:0.0000009985,AGTTTTGGACTTCATCC:0.0000000100):0.1064959372,75770_GERM:0.0000100000);
101796	2	108	0.1967	-91.9635	2.3242	0.4902	0.6997	0.6278	0.7817	4.2640	6.0771	3.6181	1.1029	-0.6405	-0.6403	((CTACATGCTTATGGGCA_1:0.0000004261,CTACATGCTTATGGGCA:0.0000000100):0.1966693770,101796_GERM:0.0000100000);
144268	2	108	0.2264	-99.2657	2.3242	0.4902	0.6997	0.6278	0.7817	4.2640	6.0771	3.6181	1.1029	-0.6405	-0.6403	((TAGGAATATTGAAAGTT_1:0.0000000100,TAGGAATATTGAAAGTT:0.0000006843):0.2264262662,144268_GERM:0.0000100000);
85461	2	110	0.1352	-68.8110	2.3242	0.4902	0.6997	0.6278	0.7817	4.2640	6.0771	3.6181	1.1029	-0.6405	-0.6403	((ATGTTAAGAATATATCC:0.0000007086,ATGTTAAGAATATATCC_1:0.0000007086):0.1351573434,85461_GERM:0.0000100000);
130793	2	107	0.2287	-100.2366	2.3242	0.4902	0.6997	0.6278	0.7817	4.2640	6.0771	3.6181	1.1029	-0.6405	-0.6403	((TACCTAGATCTAAACAC_1:0.0000004093,TACCTAGATCTAAACAC:0.0000000100):0.2287436963,130793_GERM:0.0000100000);
73995	2	108	0.2247	-96.0641	2.3242	0.4902	0.6997	0.6278	0.7817	4.2640	6.0771	3.6181	1.1029	-0.6405	-0.6403	((AACCGACATAATCGCAA:0.0000007186,AACCGACATAATCGCAA_1:0.0000000100):0.2247408639,73995_GERM:0.0000100000);
50373	2	108	0.2528	-107.6298	2.3242	0.4902	0.6997	0.6278	0.7817	4.2640	6.0771	3.6181	1.1029	-0.6405	-0.6403	((GACCATTTCTCTAAATT_1:0.0000010209,GACCATTTCTCTAAATT:0.0000000100):0.2527576988,50373_GERM:0.0000100000);
144996	2	107	0.3327	-119.2094	2.3242	0.4902	0.6997	0.6278	0.7817	4.2640	6.0771	3.6181	1.1029	-0.6405	-0.6403	((GTACAACATTATTTCTA_1:0.0000004257,GTACAACATTATTTCTA:0.0000000100):0.3326788844,144996_GERM:0.0000100000);
89911	2	107	0.4477	-159.1007	2.3242	0.4902	0.6997	0.6278	0.7817	4.2640	6.0771	3.6181	1.1029	-0.6405	-0.6403	((CGAAGAGTTTCTTACCA:0.0000007086,CGAAGAGTTTCTTACCA_1:0.0000007086):0.4476811759,89911_GERM:0.0000100000);
81275	2	79	0.0259	-14.9179	2.3242	0.4902	0.6997	0.6278	0.7817	4.2640	6.0771	3.6181	1.1029	-0.6405	-0.6403	((TAGAAAGAATCTTTCAA:0.0000000100,TAGAAAGAATCTTTCAA_1:0.0000004396):0.0258682638,81275_GERM:0.0000100000);
140870	2	109	0.1757	-84.7232	2.3242	0.4902	0.6997	0.6278	0.7817	4.2640	6.0771	3.6181	1.1029	-0.6405	-0.6403	((AGAACAGGAAATACTGA_1:0.0000007086,AGAACAGGAAATACTGA:0.0000007086):0.1757261869,140870_GERM:0.0000100000);
19700	2	109	0.2362	-96.9808	2.3242	0.4902	0.6997	0.6278	0.7817	4.2640	6.0771	3.6181	1.1029	-0.6405	-0.6403	((AGAAATACTTCAAATAT_1:0.0000006157,AGAAATACTTCAAATAT:0.0000006157):0.2362456469,19700_GERM:0.0000100000);
119928	2	108	0.2840	-111.7808	2.3242	0.4902	0.6997	0.6278	0.7817	4.2640	6.0771	3.6181	1.1029	-0.6405	-0.6403	((TCATGTCATTTTTCATT:0.0000007126,TCATGTCATTTTTCATT_1:0.0000007126):0.2839524838,119928_GERM:0.0000100000);
94157	2	107	0.2374	-99.1817	2.3242	0.4902	0.6997	0.6278	0.7817	4.2640	6.0771	3.6181	1.1029	-0.6405	-0.6403	((AGACCTGTCTCAAAACA_1:0.0000000100,AGACCTGTCTCAAAACA:0.0000004379):0.2373981901,94157_GERM:0.0000100000);
128629	2	108	0.2337	-101.0777	2.3242	0.4902	0.6997	0.6278	0.7817	4.2640	6.0771	3.6181	1.1029	-0.6405	-0.6403	((GCTAAAGGTCAACTACT:0.0000009815,GCTAAAGGTCAACTACT_1:0.0000000100):0.2336667961,128629_GERM:0.0000100000);
25362	2	107	0.3148	-113.8537	2.3242	0.4902	0.6997	0.6278	0.7817	4.2640	6.0771	3.6181	1.1029	-0.6405	-0.6403	((AAGCCAAGCCAACAAGA_1:0.0000004278,AAGCCAAGCCAACAAGA:0.0000000100):0.3147716780,25362_GERM:0.0000100000);
128193	2	60	0.3123	-67.2565	2.3242	0.4902	0.6997	0.6278	0.7817	4.2640	6.0771	3.6181	1.1029	-0.6405	-0.6403	((AGTCATAAAAAAATAAC:0.0000018574,AGTCATAAAAAAATAAC_1:0.0000000100):0.3122764257,128193_GERM:0.0000100000);
63170	2	99	0.1395	-58.4219	2.3242	0.4902	0.6997	0.6278	0.7817	4.2640	6.0771	3.6181	1.1029	-0.6405	-0.6403	((GTATTATCATCAAAAAA_1:0.0000008750,GTATTATCATCAAAAAA:0.0000000100):0.1395082383,63170_GERM:0.0000100000);
11701	2	108	0.1952	-85.4159	2.3242	0.4902	0.6997	0.6278	0.7817	4.2640	6.0771	3.6181	1.1029	-0.6405	-0.6403	((AAACTAAAAATATTCAA:0.0000006758,AAACTAAAAATATTCAA_1:0.0000000100):0.1952028795,11701_GERM:0.0000100000);
84976	2	108	0.4094	-144.5831	2.3242	0.4902	0.6997	0.6278	0.7817	4.2640	6.0771	3.6181	1.1029	-0.6405	-0.6403	((GGAAAACCATCATCATA_1:0.0000000100,GGAAAACCATCATCATA:0.0000007134):0.4093681755,84976_GERM:0.0000100000);
34902	2	108	0.0964	-51.1567	2.3242	0.4902	0.6997	0.6278	0.7817	4.2640	6.0771	3.6181	1.1029	-0.6405	-0.6403	((GAAGGTCTCACATAACT_1:0.0000009841,GAAGGTCTCACATAACT:0.0000000100):0.0963577904,34902_GERM:0.0000100000);
25274	2	109	0.3159	-117.8246	2.3242	0.4902	0.6997	0.6278	0.7817	4.2640	6.0771	3.6181	1.1029	-0.6405	-0.6403	((AAACAAGCAATACGGTA:0.0000006862,AAACAAGCAATACGGTA_1:0.0000000100):0.3159122634,25274_GERM:0.0000100000);
65765	2	108	0.2397	-107.8506	2.3242	0.4902	0.6997	0.6278	0.7817	4.2640	6.0771	3.6181	1.1029	-0.6405	-0.6403	((AGTTAAATCGGTTCACC_1:0.0000007086,AGTTAAATCGGTTCACC:0.0000007086):0.2396800128,65765_GERM:0.0000100000);
93229	2	109	0.3312	-125.7148	2.3242	0.4902	0.6997	0.6278	0.7817	4.2640	6.0771	3.6181	1.1029	-0.6405	-0.6403	((TTAGGTTTTAATTTATA_1:0.0000007086,TTAGGTTTTAATTTATA:0.0000007086):0.3312456045,93229_GERM:0.0000100000);
69735	2	108	0.4668	-156.6514	2.3242	0.4902	0.6997	0.6278	0.7817	4.2640	6.0771	3.6181	1.1029	-0.6405	-0.6403	((AGGTCAAACAGTCATTG_1:0.0000007162,AGGTCAAACAGTCATTG:0.0000000100):0.4667534064,69735_GERM:0.0000100000);
7629	2	110	0.3261	-126.7800	2.3242	0.4902	0.6997	0.6278	0.7817	4.2640	6.0771	3.6181	1.1029	-0.6405	-0.6403	((ATGAGAATTTTATAATA:0.0000000100,ATGAGAATTTTATAATA_1:0.0000008080):0.3260952650,7629_GERM:0.0000100000);
60777	2	106	0.2554	-105.9771	2.3242	0.4902	0.6997	0.6278	0.7817	4.2640	6.0771	3.6181	1.1029	-0.6405	-0.6403	((ACAAATGGTCTATAATA:0.0000004364,ACAAATGGTCTATAATA_1:0.0000000100):0.2554124107,60777_GERM:0.0000100000);
134329	2	108	0.3256	-131.0914	2.3242	0.4902	0.6997	0.6278	0.7817	4.2640	6.0771	3.6181	1.1029	-0.6405	-0.6403	((GTTCTAGACAAACCAAT_1:0.0000005788,GTTCTAGACAAACCAAT:0.0000005788):0.3256472625,134329_GERM:0.0000100000);
1286	2	108	0.2786	-113.8227	2.3242	0.4902	0.6997	0.6278	0.7817	4.2640	6.0771	3.6181	1.1029	-0.6405	-0.6403	((CATACTAGCTCATAAAT_1:0.0000006854,CATACTAGCTCATAAAT:0.0000000100):0.2786400774,1286_GERM:0.0000100000);
141114	2	109	0.1894	-90.6844	2.3242	0.4902	0.6997	0.6278	0.7817	4.2640	6.0771	3.6181	1.1029	-0.6405	-0.6403	((CAACGATAAGATTATAT:0.0000004095,CAACGATAAGATTATAT_1:0.0000000100):0.1893657868,141114_GERM:0.0000100000);
145344	2	107	0.0997	-49.8763	2.3242	0.4902	0.6997	0.6278	0.7817	4.2640	6.0771	3.6181	1.1029	-0.6405	-0.6403	((TCAAGATTGATACATTA:0.0000007737,TCAAGATTGATACATTA_1:0.0000000100):0.0997182334,145344_GERM:0.0000100000);
101186	2	108	0.2551	-103.2430	2.3242	0.4902	0.6997	0.6278	0.7817	4.2640	6.0771	3.6181	1.1029	-0.6405	-0.6403	((GAATCAATCACTTATTA_1:0.0000007086,GAATCAATCACTTATTA:0.0000007086):0.2550663185,101186_GERM:0.0000100000);
99854	2	108	0.2828	-112.6318	2.3242	0.4902	0.6997	0.6278	0.7817	4.2640	6.0771	3.6181	1.1029	-0.6405	-0.6403	((AAATCACATCCATTATT:0.0000008049,AAATCACATCCATTATT_1:0.0000000100):0.2827572112,99854_GERM:0.0000100000);
67860	2	108	0.5261	-172.4481	2.3242	0.4902	0.6997	0.6278	0.7817	4.2640	6.0771	3.6181	1.1029	-0.6405	-0.6403	((CAGGAACGCTGATCACG:0.0000000100,CAGGAACGCTGATCACG_1:0.0000007778):0.5261429322,67860_GERM:0.0000100000);
101612	2	106	0.2180	-98.2576	2.3242	0.4902	0.6997	0.6278	0.7817	4.2640	6.0771	3.6181	1.1029	-0.6405	-0.6403	((TCAGCATGATTTTACAA_1:0.0000000100,TCAGCATGATTTTACAA:0.0000008449):0.2179642389,101612_GERM:0.0000100000);
48580	2	108	0.2320	-96.7750	2.3242	0.4902	0.6997	0.6278	0.7817	4.2640	6.0771	3.6181	1.1029	-0.6405	-0.6403	((ACACAATCAATTTTTTC:0.0000004441,ACACAATCAATTTTTTC_1:0.0000000100):0.2319525026,48580_GERM:0.0000100000);
13874	2	75	0.0545	-27.4720	2.3242	0.4902	0.6997	0.6278	0.7817	4.2640	6.0771	3.6181	1.1029	-0.6405	-0.6403	((CATACAACCACTAATAA:0.0000007086,CATACAACCACTAATAA_1:0.0000007086):0.0545338347,13874_GERM:0.0000100000);
95085	2	108	0.4527	-153.9216	2.3242	0.4902	0.6997	0.6278	0.7817	4.2640	6.0771	3.6181	1.1029	-0.6405	-0.6403	((CGTGAAAACTCTTAATA_1:0.0000007086,CGTGAAAACTCTTAATA:0.0000007086):0.4526922424,95085_GERM:0.0000100000);
86512	2	107	0.4697	-155.4816	2.3242	0.4902	0.6997	0.6278	0.7817	4.2640	6.0771	3.6181	1.1029	-0.6405	-0.6403	((TAAACAGTCTCATCTCA:0.0000004584,TAAACAGTCTCATCTCA_1:0.0000000100):0.4696619531,86512_GERM:0.0000100000);
87251	2	109	0.4046	-150.0077	2.3242	0.4902	0.6997	0.6278	0.7817	4.2640	6.0771	3.6181	1.1029	-0.6405	-0.6403	((AGAGGACTACATACGCA:0.0000007086,AGAGGACTACATACGCA_1:0.0000007086):0.4046470699,87251_GERM:0.0000100000);
25063	2	108	0.2760	-110.7363	2.3242	0.4902	0.6997	0.6278	0.7817	4.2640	6.0771	3.6181	1.1029	-0.6405	-0.6403	((CGGGAAGTTAAATATTA_1:0.0000009854,CGGGAAGTTAAATATTA:0.0000000100):0.2760300083,25063_GERM:0.0000100000);
86849	2	109	0.4601	-156.1356	2.3242	0.4902	0.6997	0.6278	0.7817	4.2640	6.0771	3.6181	1.1029	-0.6405	-0.6403	((AGTGTAGATATTTCTGG_1:0.0000007086,AGTGTAGATATTTCTGG:0.0000007086):0.4601189207,86849_GERM:0.0000100000);
26886	2	108	0.4552	-153.4240	2.3242	0.4902	0.6997	0.6278	0.7817	4.2640	6.0771	3.6181	1.1029	-0.6405	-0.6403	((TGTCTAAATTTATTCAT_1:0.0000004368,TGTCTAAATTTATTCAT:0.0000000100):0.4552431256,26886_GERM:0.0000100000);
65629	2	108	0.1577	-76.8332	2.3242	0.4902	0.6997	0.6278	0.7817	4.2640	6.0771	3.6181	1.1029	-0.6405	-0.6403	((CATTAATTAATATATTT:0.0000010317,CATTAATTAATATATTT_1:0.0000000100):0.1576772470,65629_GERM:0.0000100000);
28609	2	108	0.1514	-76.0022	2.3242	0.4902	0.6997	0.6278	0.7817	4.2640	6.0771	3.6181	1.1029	-0.6405	-0.6403	((GTAGGTATTATTTACAA_1:0.0000007086,GTAGGTATTATTTACAA:0.0000007086):0.1513562811,28609_GERM:0.0000100000);
81312	2	108	0.3075	-122.1941	2.3242	0.4902	0.6997	0.6278	0.7817	4.2640	6.0771	3.6181	1.1029	-0.6405	-0.6403	((CGGAAATTATATATTTA:0.0000000100,CGGAAATTATATATTTA_1:0.0000007218):0.3075223225,81312_GERM:0.0000100000);
6621	2	109	0.2302	-98.2056	2.3242	0.4902	0.6997	0.6278	0.7817	4.2640	6.0771	3.6181	1.1029	-0.6405	-0.6403	((CTTTGAACAAATTATCA_1:0.0000005975,CTTTGAACAAATTATCA:0.0000005975):0.2301946349,6621_GERM:0.0000100000);
6585	2	109	0.1577	-68.1197	2.3242	0.4902	0.6997	0.6278	0.7817	4.2640	6.0771	3.6181	1.1029	-0.6405	-0.6403	((AGCCAAGCTCATAGAAC_1:0.0000007098,AGCCAAGCTCATAGAAC:0.0000007098):0.1577060079,6585_GERM:0.0000100000);
99398	2	108	0.2464	-112.7157	2.3242	0.4902	0.6997	0.6278	0.7817	4.2640	6.0771	3.6181	1.1029	-0.6405	-0.6403	((CCTATTTAGGATTCACA:0.0000007086,CCTATTTAGGATTCACA_1:0.0000007086):0.2464381142,99398_GERM:0.0000100000);
43273	2	108	0.3817	-140.0461	2.3242	0.4902	0.6997	0.6278	0.7817	4.2640	6.0771	3.6181	1.1029	-0.6405	-0.6403	((TGAAAATGACGTCTTCT_1:0.0000000100,TGAAAATGACGTCTTCT:0.0000007107):0.3816683209,43273_GERM:0.0000100000);
110173	2	110	0.1220	-71.9746	2.3242	0.4902	0.6997	0.6278	0.7817	4.2640	6.0771	3.6181	1.1029	-0.6405	-0.6403	((ACCTCTATTTTATCACA_1:0.0000005868,ACCTCTATTTTATCACA:0.0000005868):0.1220038516,110173_GERM:0.0000100000);
52046	2	108	0.1984	-84.3195	2.3242	0.4902	0.6997	0.6278	0.7817	4.2640	6.0771	3.6181	1.1029	-0.6405	-0.6403	((TATACATCAAATCTAAA_1:0.0000005777,TATACATCAAATCTAAA:0.0000005777):0.1984079920,52046_GERM:0.0000100000);
17812	2	108	0.2849	-118.2706	2.3242	0.4902	0.6997	0.6278	0.7817	4.2640	6.0771	3.6181	1.1029	-0.6405	-0.6403	((GCCATACGTATTCCAAA:0.0000007086,GCCATACGTATTCCAAA_1:0.0000007086):0.2848604563,17812_GERM:0.0000100000);
86095	2	107	0.0095	-7.9388	2.3242	0.4902	0.6997	0.6278	0.7817	4.2640	6.0771	3.6181	1.1029	-0.6405	-0.6403	((ACTAGTAGGTCTACTTA_1:0.0000006755,ACTAGTAGGTCTACTTA:0.0000000100):0.0095011502,86095_GERM:0.0000100000);
112874	2	73	0.1022	-33.9448	2.3242	0.4902	0.6997	0.6278	0.7817	4.2640	6.0771	3.6181	1.1029	-0.6405	-0.6403	((CACATATCATAATTTTA_1:0.0000005831,CACATATCATAATTTTA:0.0000000100):0.1022260411,112874_GERM:0.0000100000);
134348	2	107	0.2538	-103.8006	2.3242	0.4902	0.6997	0.6278	0.7817	4.2640	6.0771	3.6181	1.1029	-0.6405	-0.6403	((GAACGATTTGCAATCTA_1:0.0000007086,GAACGATTTGCAATCTA:0.0000007086):0.2538296563,134348_GERM:0.0000100000);
71176	2	105	0.1956	-86.6212	2.3242	0.4902	0.6997	0.6278	0.7817	4.2640	6.0771	3.6181	1.1029	-0.6405	-0.6403	((ACGGTAACATCAATCAA:0.0000007284,ACGGTAACATCAATCAA_1:0.0000000100):0.1956452052,71176_GERM:0.0000100000);
5927	2	108	0.1567	-71.2463	2.3242	0.4902	0.6997	0.6278	0.7817	4.2640	6.0771	3.6181	1.1029	-0.6405	-0.6403	((AGAGCTACAAGATCACA:0.0000009883,AGAGCTACAAGATCACA_1:0.0000000100):0.1566819287,5927_GERM:0.0000100000);
65737	2	70	0.3051	-82.6148	2.3242	0.4902	0.6997	0.6278	0.7817	4.2640	6.0771	3.6181	1.1029	-0.6405	-0.6403	((AAGCCATAAATAACTTC_1:0.0000009975,AAGCCATAAATAACTTC:0.0000000100):0.3050995415,65737_GERM:0.0000100000);
69830	2	108	0.1862	-83.8302	2.3242	0.4902	0.6997	0.6278	0.7817	4.2640	6.0771	3.6181	1.1029	-0.6405	-0.6403	((TTAAAAGGAAATCCACA:0.0000000100,TTAAAAGGAAATCCACA_1:0.0000008987):0.1861985246,69830_GERM:0.0000100000);
119680	2	108	0.2478	-110.4366	2.3242	0.4902	0.6997	0.6278	0.7817	4.2640	6.0771	3.6181	1.1029	-0.6405	-0.6403	((GACCATTATCTTTTCTA_1:0.0000000100,GACCATTATCTTTTCTA:0.0000009860):0.2478396173,119680_GERM:0.0000100000);
130872	2	107	0.3292	-122.4191	2.3242	0.4902	0.6997	0.6278	0.7817	4.2640	6.0771	3.6181	1.1029	-0.6405	-0.6403	((TAATCACATATTATTCT_1:0.0000000100,TAATCACATATTATTCT:0.0000007013):0.3291958464,130872_GERM:0.0000100000);
81653	2	107	0.4698	-154.6752	2.3242	0.4902	0.6997	0.6278	0.7817	4.2640	6.0771	3.6181	1.1029	-0.6405	-0.6403	((AACGGTGCCGAATGCTT_1:0.0000007086,AACGGTGCCGAATGCTT:0.0000007086):0.4697886912,81653_GERM:0.0000100000);
137623	2	108	0.5954	-176.1351	2.3242	0.4902	0.6997	0.6278	0.7817	4.2640	6.0771	3.6181	1.1029	-0.6405	-0.6403	((AATGGTCAATTTTTTTA:0.0000000100,AATGGTCAATTTTTTTA_1:0.0000004409):0.5954069108,137623_GERM:0.0000100000);
74096	2	108	0.1155	-64.5254	2.3242	0.4902	0.6997	0.6278	0.7817	4.2640	6.0771	3.6181	1.1029	-0.6405	-0.6403	((ATTAAACGCTAATTTCT:0.0000004026,ATTAAACGCTAATTTCT_1:0.0000000100):0.1154879274,74096_GERM:0.0000100000);
18471	2	108	0.2928	-118.6803	2.3242	0.4902	0.6997	0.6278	0.7817	4.2640	6.0771	3.6181	1.1029	-0.6405	-0.6403	((GCGTCACAACCATCTTA:0.0000008059,GCGTCACAACCATCTTA_1:0.0000000100):0.2928070359,18471_GERM:0.0000100000);
46090	2	108	0.4021	-146.6066	2.3242	0.4902	0.6997	0.6278	0.7817	4.2640	6.0771	3.6181	1.1029	-0.6405	-0.6403	((ATCACTCTTTTTCTTCT_1:0.0000007107,ATCACTCTTTTTCTTCT:0.0000007107):0.4020666226,46090_GERM:0.0000100000);
85802	2	107	0.1750	-82.6084	2.3242	0.4902	0.6997	0.6278	0.7817	4.2640	6.0771	3.6181	1.1029	-0.6405	-0.6403	((TCTGATTTGGGAGGAAC_1:0.0000007356,TCTGATTTGGGAGGAAC:0.0000000100):0.1750284072,85802_GERM:0.0000100000);
135504	2	108	0.1477	-74.2246	2.3242	0.4902	0.6997	0.6278	0.7817	4.2640	6.0771	3.6181	1.1029	-0.6405	-0.6403	((ATACTTCCTACCTTTTT_1:0.0000008094,ATACTTCCTACCTTTTT:0.0000000100):0.1477489491,135504_GERM:0.0000100000);
93401	2	106	0.3452	-132.0067	2.3242	0.4902	0.6997	0.6278	0.7817	4.2640	6.0771	3.6181	1.1029	-0.6405	-0.6403	((ACGGATTGCTTTTTAAA:0.0000006901,ACGGATTGCTTTTTAAA_1:0.0000000100):0.3452282186,93401_GERM:0.0000100000);
7525	2	110	0.3159	-121.2680	2.3242	0.4902	0.6997	0.6278	0.7817	4.2640	6.0771	3.6181	1.1029	-0.6405	-0.6403	((TCCTCTTTCTTTTAAAA_1:0.0000007086,TCCTCTTTCTTTTAAAA:0.0000007086):0.3158688880,7525_GERM:0.0000100000);
110279	2	107	0.2536	-108.4248	2.3242	0.4902	0.6997	0.6278	0.7817	4.2640	6.0771	3.6181	1.1029	-0.6405	-0.6403	((GAGAATATCAATATTAA_1:0.0000008181,GAGAATATCAATATTAA:0.0000000100):0.2536347205,110279_GERM:0.0000100000);
74962	2	83	0.4281	-120.9221	2.3242	0.4902	0.6997	0.6278	0.7817	4.2640	6.0771	3.6181	1.1029	-0.6405	-0.6403	((AAACGTAAAGGTATAAG_1:0.0000007086,AAACGTAAAGGTATAAG:0.0000007086):0.4280804675,74962_GERM:0.0000100000);
116322	2	107	0.2333	-94.3675	2.3242	0.4902	0.6997	0.6278	0.7817	4.2640	6.0771	3.6181	1.1029	-0.6405	-0.6403	((CAGCGTACACATCGAAA_1:0.0000010341,CAGCGTACACATCGAAA:0.0000000100):0.2332956879,116322_GERM:0.0000100000);
92624	2	110	0.1028	-56.2760	2.3242	0.4902	0.6997	0.6278	0.7817	4.2640	6.0771	3.6181	1.1029	-0.6405	-0.6403	((AAAGTTAGTGGTGTAAC:0.0000000100,AAAGTTAGTGGTGTAAC_1:0.0000004235):0.1028343753,92624_GERM:0.0000100000);
120275	2	108	0.1976	-82.9253	2.3242	0.4902	0.6997	0.6278	0.7817	4.2640	6.0771	3.6181	1.1029	-0.6405	-0.6403	((GCAGCAGTTTATTACAT:0.0000004390,GCAGCAGTTTATTACAT_1:0.0000000100):0.1975778453,120275_GERM:0.0000100000);
25312	2	59	0.3751	-72.3403	2.3242	0.4902	0.6997	0.6278	0.7817	4.2640	6.0771	3.6181	1.1029	-0.6405	-0.6403	((AGTAAACTCATATAATA_1:0.0000019409,AGTAAACTCATATAATA:0.0000000100):0.3750939550,25312_GERM:0.0000100000);
3671	2	110	0.0857	-52.1195	2.3242	0.4902	0.6997	0.6278	0.7817	4.2640	6.0771	3.6181	1.1029	-0.6405	-0.6403	((ACGCAAATATCAATAAC_1:0.0000004299,ACGCAAATATCAATAAC:0.0000000100):0.0857196448,3671_GERM:0.0000100000);
144854	2	108	0.2148	-95.7806	2.3242	0.4902	0.6997	0.6278	0.7817	4.2640	6.0771	3.6181	1.1029	-0.6405	-0.6403	((TAACTTGGTAAATAAGG:0.0000005964,TAACTTGGTAAATAAGG_1:0.0000005964):0.2148300822,144854_GERM:0.0000100000);
99473	2	108	0.1559	-77.4072	2.3242	0.4902	0.6997	0.6278	0.7817	4.2640	6.0771	3.6181	1.1029	-0.6405	-0.6403	((CCATTTAGGGTTAAATA_1:0.0000007019,CCATTTAGGGTTAAATA:0.0000007019):0.1559090642,99473_GERM:0.0000100000);
125340	2	108	0.1920	-84.7159	2.3242	0.4902	0.6997	0.6278	0.7817	4.2640	6.0771	3.6181	1.1029	-0.6405	-0.6403	((TGGCAATTTTCACTATT_1:0.0000000100,TGGCAATTTTCACTATT:0.0000007956):0.1920249386,125340_GERM:0.0000100000);
117065	2	109	0.6266	-193.5518	2.3242	0.4902	0.6997	0.6278	0.7817	4.2640	6.0771	3.6181	1.1029	-0.6405	-0.6403	((ACTATTTGCCTTTCTAA:0.0000006293,ACTATTTGCCTTTCTAA_1:0.0000006293):0.6266411198,117065_GERM:0.0000100000);
