Type	P	RID	Time	Param	MLE	LCI	UCI
+14d	FV	HLP18ci	14	subst	36943.449683	36943.449683	36943.449683
+14d	FV	HLP18ci	14	kappa	2.26560	2.26560	2.26560
+14d	FV	HLP18ci	14	omega0	0.499591	0.499591	0.499591
+14d	FV	HLP18ci	14	omega1	0.607861	0.579736	0.635205
+14d	FV	HLP18ci	14	WRC_2	3.71985096	3.71985096	3.71985096
+14d	FV	HLP18ci	14	GYW_0	4.71462837	4.71462837	4.71462837
+14d	FV	HLP18ci	14	WA_1	3.14084276	3.14084276	3.14084276
+14d	FV	HLP18ci	14	TW_0	0.89040687	0.89040687	0.89040687
+14d	FV	HLP18ci	14	SYC_2	-0.61842597	-0.61842597	-0.61842597
+14d	FV	HLP18ci	14	GRS_0	-0.64921543	-0.64921543	-0.64921543
+14d	FV	HLP18ci	14	T1	0.00000000	0.00000000	0.00000000
+14d	FV	HLP18ci	14	C1	0.00000000	0.00000000	0.00000000
+14d	FV	HLP18ci	14	A1	0.00000000	0.00000000	0.00000000
+14d	FV	HLP18ci	14	G1	0.00000000	0.00000000	0.00000000
+14d	FV	HLP18ci	14	T2	0.00000000	0.00000000	0.00000000
+14d	FV	HLP18ci	14	C2	0.00000000	0.00000000	0.00000000
+14d	FV	HLP18ci	14	A2	0.00000000	0.00000000	0.00000000
+14d	FV	HLP18ci	14	G2	0.00000000	0.00000000	0.00000000
+14d	FV	HLP18ci	14	T3	0.00000000	0.00000000	0.00000000
+14d	FV	HLP18ci	14	C3	0.00000000	0.00000000	0.00000000
+14d	FV	HLP18ci	14	A3	0.00000000	0.00000000	0.00000000
+14d	FV	HLP18ci	14	G3	0.00000000	0.00000000	0.00000000
+14d	FV	HLP18ci	14	MaxDiv	3.56	3.56	3.56
+14d	FV	HLP18ci	14	MeanDiv	0.409330943847072	0.409330943847072	0.409330943847072
+1d	FV	HLP18ci	1	subst	29716.907593	29716.907593	29716.907593
+1d	FV	HLP18ci	1	kappa	2.17608	2.17608	2.17608
+1d	FV	HLP18ci	1	omega0	0.508096	0.508096	0.508096
+1d	FV	HLP18ci	1	omega1	0.586662	0.558537	0.621819
+1d	FV	HLP18ci	1	WRC_2	3.15051315	3.15051315	3.15051315
+1d	FV	HLP18ci	1	GYW_0	3.88813746	3.88813746	3.88813746
+1d	FV	HLP18ci	1	WA_1	2.61838403	2.61838403	2.61838403
+1d	FV	HLP18ci	1	TW_0	0.74488517	0.74488517	0.74488517
+1d	FV	HLP18ci	1	SYC_2	-0.59346261	-0.59346261	-0.59346261
+1d	FV	HLP18ci	1	GRS_0	-0.60802512	-0.60802512	-0.60802512
+1d	FV	HLP18ci	1	T1	0.00000000	0.00000000	0.00000000
+1d	FV	HLP18ci	1	C1	0.00000000	0.00000000	0.00000000
+1d	FV	HLP18ci	1	A1	0.00000000	0.00000000	0.00000000
+1d	FV	HLP18ci	1	G1	0.00000000	0.00000000	0.00000000
+1d	FV	HLP18ci	1	T2	0.00000000	0.00000000	0.00000000
+1d	FV	HLP18ci	1	C2	0.00000000	0.00000000	0.00000000
+1d	FV	HLP18ci	1	A2	0.00000000	0.00000000	0.00000000
+1d	FV	HLP18ci	1	G2	0.00000000	0.00000000	0.00000000
+1d	FV	HLP18ci	1	T3	0.00000000	0.00000000	0.00000000
+1d	FV	HLP18ci	1	C3	0.00000000	0.00000000	0.00000000
+1d	FV	HLP18ci	1	A3	0.00000000	0.00000000	0.00000000
+1d	FV	HLP18ci	1	G3	0.00000000	0.00000000	0.00000000
+1d	FV	HLP18ci	1	MaxDiv	6.02	6.02	6.02
+1d	FV	HLP18ci	1	MeanDiv	0.431392801251955	0.431392801251955	0.431392801251955
+1h	FV	HLP18ci	0.0416666666666667	subst	29951.437607	29951.437607	29951.437607
+1h	FV	HLP18ci	0.0416666666666667	kappa	2.24295	2.24295	2.24295
+1h	FV	HLP18ci	0.0416666666666667	omega0	0.491881	0.491881	0.491881
+1h	FV	HLP18ci	0.0416666666666667	omega1	0.538816	0.510691	0.566160
+1h	FV	HLP18ci	0.0416666666666667	WRC_2	3.28534967	3.28534967	3.28534967
+1h	FV	HLP18ci	0.0416666666666667	GYW_0	4.01458975	4.01458975	4.01458975
+1h	FV	HLP18ci	0.0416666666666667	WA_1	2.84480134	2.84480134	2.84480134
+1h	FV	HLP18ci	0.0416666666666667	TW_0	0.87062417	0.87062417	0.87062417
+1h	FV	HLP18ci	0.0416666666666667	SYC_2	-0.64843860	-0.64843860	-0.64843860
+1h	FV	HLP18ci	0.0416666666666667	GRS_0	-0.64329214	-0.64329214	-0.64329214
+1h	FV	HLP18ci	0.0416666666666667	T1	0.00000000	0.00000000	0.00000000
+1h	FV	HLP18ci	0.0416666666666667	C1	0.00000000	0.00000000	0.00000000
+1h	FV	HLP18ci	0.0416666666666667	A1	0.00000000	0.00000000	0.00000000
+1h	FV	HLP18ci	0.0416666666666667	G1	0.00000000	0.00000000	0.00000000
+1h	FV	HLP18ci	0.0416666666666667	T2	0.00000000	0.00000000	0.00000000
+1h	FV	HLP18ci	0.0416666666666667	C2	0.00000000	0.00000000	0.00000000
+1h	FV	HLP18ci	0.0416666666666667	A2	0.00000000	0.00000000	0.00000000
+1h	FV	HLP18ci	0.0416666666666667	G2	0.00000000	0.00000000	0.00000000
+1h	FV	HLP18ci	0.0416666666666667	T3	0.00000000	0.00000000	0.00000000
+1h	FV	HLP18ci	0.0416666666666667	C3	0.00000000	0.00000000	0.00000000
+1h	FV	HLP18ci	0.0416666666666667	A3	0.00000000	0.00000000	0.00000000
+1h	FV	HLP18ci	0.0416666666666667	G3	0.00000000	0.00000000	0.00000000
+1h	FV	HLP18ci	0.0416666666666667	MaxDiv	8.04	8.04	8.04
+1h	FV	HLP18ci	0.0416666666666667	MeanDiv	0.495910714285715	0.495910714285715	0.495910714285715
+21d	FV	HLP18ci	21	subst	36952.810460	36952.810460	36952.810460
+21d	FV	HLP18ci	21	kappa	2.28184	2.28184	2.28184
+21d	FV	HLP18ci	21	omega0	0.498452	0.498452	0.498452
+21d	FV	HLP18ci	21	omega1	0.602145	0.574020	0.629489
+21d	FV	HLP18ci	21	WRC_2	3.90267136	3.90267136	3.90267136
+21d	FV	HLP18ci	21	GYW_0	4.78414574	4.78414574	4.78414574
+21d	FV	HLP18ci	21	WA_1	3.22256125	3.22256125	3.22256125
+21d	FV	HLP18ci	21	TW_0	0.93248287	0.93248287	0.93248287
+21d	FV	HLP18ci	21	SYC_2	-0.65300189	-0.65300189	-0.65300189
+21d	FV	HLP18ci	21	GRS_0	-0.68741181	-0.68741181	-0.68741181
+21d	FV	HLP18ci	21	T1	0.00000000	0.00000000	0.00000000
+21d	FV	HLP18ci	21	C1	0.00000000	0.00000000	0.00000000
+21d	FV	HLP18ci	21	A1	0.00000000	0.00000000	0.00000000
+21d	FV	HLP18ci	21	G1	0.00000000	0.00000000	0.00000000
+21d	FV	HLP18ci	21	T2	0.00000000	0.00000000	0.00000000
+21d	FV	HLP18ci	21	C2	0.00000000	0.00000000	0.00000000
+21d	FV	HLP18ci	21	A2	0.00000000	0.00000000	0.00000000
+21d	FV	HLP18ci	21	G2	0.00000000	0.00000000	0.00000000
+21d	FV	HLP18ci	21	T3	0.00000000	0.00000000	0.00000000
+21d	FV	HLP18ci	21	C3	0.00000000	0.00000000	0.00000000
+21d	FV	HLP18ci	21	A3	0.00000000	0.00000000	0.00000000
+21d	FV	HLP18ci	21	G3	0.00000000	0.00000000	0.00000000
+21d	FV	HLP18ci	21	MaxDiv	3.14	3.14	3.14
+21d	FV	HLP18ci	21	MeanDiv	0.400151691948657	0.400151691948657	0.400151691948657
+28d	FV	HLP18ci	28	subst	31446.092796	31446.092796	31446.092796
+28d	FV	HLP18ci	28	kappa	2.29225	2.29225	2.29225
+28d	FV	HLP18ci	28	omega0	0.490892	0.490892	0.490892
+28d	FV	HLP18ci	28	omega1	0.584242	0.556117	0.611586
+28d	FV	HLP18ci	28	WRC_2	3.59405140	3.59405140	3.59405140
+28d	FV	HLP18ci	28	GYW_0	4.51101507	4.51101507	4.51101507
+28d	FV	HLP18ci	28	WA_1	3.25672879	3.25672879	3.25672879
+28d	FV	HLP18ci	28	TW_0	0.89128856	0.89128856	0.89128856
+28d	FV	HLP18ci	28	SYC_2	-0.64108137	-0.64108137	-0.64108137
+28d	FV	HLP18ci	28	GRS_0	-0.62102846	-0.62102846	-0.62102846
+28d	FV	HLP18ci	28	T1	0.00000000	0.00000000	0.00000000
+28d	FV	HLP18ci	28	C1	0.00000000	0.00000000	0.00000000
+28d	FV	HLP18ci	28	A1	0.00000000	0.00000000	0.00000000
+28d	FV	HLP18ci	28	G1	0.00000000	0.00000000	0.00000000
+28d	FV	HLP18ci	28	T2	0.00000000	0.00000000	0.00000000
+28d	FV	HLP18ci	28	C2	0.00000000	0.00000000	0.00000000
+28d	FV	HLP18ci	28	A2	0.00000000	0.00000000	0.00000000
+28d	FV	HLP18ci	28	G2	0.00000000	0.00000000	0.00000000
+28d	FV	HLP18ci	28	T3	0.00000000	0.00000000	0.00000000
+28d	FV	HLP18ci	28	C3	0.00000000	0.00000000	0.00000000
+28d	FV	HLP18ci	28	A3	0.00000000	0.00000000	0.00000000
+28d	FV	HLP18ci	28	G3	0.00000000	0.00000000	0.00000000
+28d	FV	HLP18ci	28	MaxDiv	5.87	5.87	5.87
+28d	FV	HLP18ci	28	MeanDiv	0.458461538461538	0.458461538461538	0.458461538461538
+3d	FV	HLP18ci	3	subst	35316.341994	35316.341994	35316.341994
+3d	FV	HLP18ci	3	kappa	2.26458	2.26458	2.26458
+3d	FV	HLP18ci	3	omega0	0.502878	0.502878	0.502878
+3d	FV	HLP18ci	3	omega1	0.587586	0.559461	0.614930
+3d	FV	HLP18ci	3	WRC_2	3.59254165	3.59254165	3.59254165
+3d	FV	HLP18ci	3	GYW_0	4.36824696	4.36824696	4.36824696
+3d	FV	HLP18ci	3	WA_1	2.90870465	2.90870465	2.90870465
+3d	FV	HLP18ci	3	TW_0	0.95164626	0.95164626	0.95164626
+3d	FV	HLP18ci	3	SYC_2	-0.65731596	-0.65731596	-0.65731596
+3d	FV	HLP18ci	3	GRS_0	-0.65823692	-0.65823692	-0.65823692
+3d	FV	HLP18ci	3	T1	0.00000000	0.00000000	0.00000000
+3d	FV	HLP18ci	3	C1	0.00000000	0.00000000	0.00000000
+3d	FV	HLP18ci	3	A1	0.00000000	0.00000000	0.00000000
+3d	FV	HLP18ci	3	G1	0.00000000	0.00000000	0.00000000
+3d	FV	HLP18ci	3	T2	0.00000000	0.00000000	0.00000000
+3d	FV	HLP18ci	3	C2	0.00000000	0.00000000	0.00000000
+3d	FV	HLP18ci	3	A2	0.00000000	0.00000000	0.00000000
+3d	FV	HLP18ci	3	G2	0.00000000	0.00000000	0.00000000
+3d	FV	HLP18ci	3	T3	0.00000000	0.00000000	0.00000000
+3d	FV	HLP18ci	3	C3	0.00000000	0.00000000	0.00000000
+3d	FV	HLP18ci	3	A3	0.00000000	0.00000000	0.00000000
+3d	FV	HLP18ci	3	G3	0.00000000	0.00000000	0.00000000
+3d	FV	HLP18ci	3	MaxDiv	4.78	4.78	4.78
+3d	FV	HLP18ci	3	MeanDiv	0.392583732057416	0.392583732057416	0.392583732057416
+7d	FV	HLP18ci	7	subst	30864.327247	30864.327247	30864.327247
+7d	FV	HLP18ci	7	kappa	2.18523	2.18523	2.18523
+7d	FV	HLP18ci	7	omega0	0.467416	0.467416	0.467416
+7d	FV	HLP18ci	7	omega1	0.486515	0.464640	0.513858
+7d	FV	HLP18ci	7	WRC_2	3.68442244	3.68442244	3.68442244
+7d	FV	HLP18ci	7	GYW_0	4.79653456	4.79653456	4.79653456
+7d	FV	HLP18ci	7	WA_1	3.32959190	3.32959190	3.32959190
+7d	FV	HLP18ci	7	TW_0	0.92093273	0.92093273	0.92093273
+7d	FV	HLP18ci	7	SYC_2	-0.61178283	-0.61178283	-0.61178283
+7d	FV	HLP18ci	7	GRS_0	-0.56541418	-0.56541418	-0.56541418
+7d	FV	HLP18ci	7	T1	0.00000000	0.00000000	0.00000000
+7d	FV	HLP18ci	7	C1	0.00000000	0.00000000	0.00000000
+7d	FV	HLP18ci	7	A1	0.00000000	0.00000000	0.00000000
+7d	FV	HLP18ci	7	G1	0.00000000	0.00000000	0.00000000
+7d	FV	HLP18ci	7	T2	0.00000000	0.00000000	0.00000000
+7d	FV	HLP18ci	7	C2	0.00000000	0.00000000	0.00000000
+7d	FV	HLP18ci	7	A2	0.00000000	0.00000000	0.00000000
+7d	FV	HLP18ci	7	G2	0.00000000	0.00000000	0.00000000
+7d	FV	HLP18ci	7	T3	0.00000000	0.00000000	0.00000000
+7d	FV	HLP18ci	7	C3	0.00000000	0.00000000	0.00000000
+7d	FV	HLP18ci	7	A3	0.00000000	0.00000000	0.00000000
+7d	FV	HLP18ci	7	G3	0.00000000	0.00000000	0.00000000
+7d	FV	HLP18ci	7	MaxDiv	11.90	11.90	11.90
+7d	FV	HLP18ci	7	MeanDiv	0.567559523809524	0.567559523809524	0.567559523809524
-1h	FV	HLP18ci	-0.0416666666666667	subst	29820.682324	29820.682324	29820.682324
-1h	FV	HLP18ci	-0.0416666666666667	kappa	2.23439	2.23439	2.23439
-1h	FV	HLP18ci	-0.0416666666666667	omega0	0.498059	0.498059	0.498059
-1h	FV	HLP18ci	-0.0416666666666667	omega1	0.567179	0.539054	0.594523
-1h	FV	HLP18ci	-0.0416666666666667	WRC_2	3.36914938	3.36914938	3.36914938
-1h	FV	HLP18ci	-0.0416666666666667	GYW_0	4.12776642	4.12776642	4.12776642
-1h	FV	HLP18ci	-0.0416666666666667	WA_1	2.88321505	2.88321505	2.88321505
-1h	FV	HLP18ci	-0.0416666666666667	TW_0	0.83010923	0.83010923	0.83010923
-1h	FV	HLP18ci	-0.0416666666666667	SYC_2	-0.63284051	-0.63284051	-0.63284051
-1h	FV	HLP18ci	-0.0416666666666667	GRS_0	-0.65600259	-0.65600259	-0.65600259
-1h	FV	HLP18ci	-0.0416666666666667	T1	0.00000000	0.00000000	0.00000000
-1h	FV	HLP18ci	-0.0416666666666667	C1	0.00000000	0.00000000	0.00000000
-1h	FV	HLP18ci	-0.0416666666666667	A1	0.00000000	0.00000000	0.00000000
-1h	FV	HLP18ci	-0.0416666666666667	G1	0.00000000	0.00000000	0.00000000
-1h	FV	HLP18ci	-0.0416666666666667	T2	0.00000000	0.00000000	0.00000000
-1h	FV	HLP18ci	-0.0416666666666667	C2	0.00000000	0.00000000	0.00000000
-1h	FV	HLP18ci	-0.0416666666666667	A2	0.00000000	0.00000000	0.00000000
-1h	FV	HLP18ci	-0.0416666666666667	G2	0.00000000	0.00000000	0.00000000
-1h	FV	HLP18ci	-0.0416666666666667	T3	0.00000000	0.00000000	0.00000000
-1h	FV	HLP18ci	-0.0416666666666667	C3	0.00000000	0.00000000	0.00000000
-1h	FV	HLP18ci	-0.0416666666666667	A3	0.00000000	0.00000000	0.00000000
-1h	FV	HLP18ci	-0.0416666666666667	G3	0.00000000	0.00000000	0.00000000
-1h	FV	HLP18ci	-0.0416666666666667	MaxDiv	6.44	6.44	6.44
-1h	FV	HLP18ci	-0.0416666666666667	MeanDiv	0.480486111111111	0.480486111111111	0.480486111111111
-2d	FV	HLP18ci	-2	subst	25970.218208	25970.218208	25970.218208
-2d	FV	HLP18ci	-2	kappa	2.26891	2.26891	2.26891
-2d	FV	HLP18ci	-2	omega0	0.524968	0.524968	0.524968
-2d	FV	HLP18ci	-2	omega1	0.555353	0.527228	0.590509
-2d	FV	HLP18ci	-2	WRC_2	3.18730196	3.18730196	3.18730196
-2d	FV	HLP18ci	-2	GYW_0	4.22706673	4.22706673	4.22706673
-2d	FV	HLP18ci	-2	WA_1	2.73519060	2.73519060	2.73519060
-2d	FV	HLP18ci	-2	TW_0	0.76357763	0.76357763	0.76357763
-2d	FV	HLP18ci	-2	SYC_2	-0.63273497	-0.63273497	-0.63273497
-2d	FV	HLP18ci	-2	GRS_0	-0.61238812	-0.61238812	-0.61238812
-2d	FV	HLP18ci	-2	T1	0.00000000	0.00000000	0.00000000
-2d	FV	HLP18ci	-2	C1	0.00000000	0.00000000	0.00000000
-2d	FV	HLP18ci	-2	A1	0.00000000	0.00000000	0.00000000
-2d	FV	HLP18ci	-2	G1	0.00000000	0.00000000	0.00000000
-2d	FV	HLP18ci	-2	T2	0.00000000	0.00000000	0.00000000
-2d	FV	HLP18ci	-2	C2	0.00000000	0.00000000	0.00000000
-2d	FV	HLP18ci	-2	A2	0.00000000	0.00000000	0.00000000
-2d	FV	HLP18ci	-2	G2	0.00000000	0.00000000	0.00000000
-2d	FV	HLP18ci	-2	T3	0.00000000	0.00000000	0.00000000
-2d	FV	HLP18ci	-2	C3	0.00000000	0.00000000	0.00000000
-2d	FV	HLP18ci	-2	A3	0.00000000	0.00000000	0.00000000
-2d	FV	HLP18ci	-2	G3	0.00000000	0.00000000	0.00000000
-2d	FV	HLP18ci	-2	MaxDiv	7.31	7.31	7.31
-2d	FV	HLP18ci	-2	MeanDiv	0.49797520661157	0.49797520661157	0.49797520661157
-8d	FV	HLP18ci	-8	subst	27553.196870	27553.196870	27553.196870
-8d	FV	HLP18ci	-8	kappa	2.36389	2.36389	2.36389
-8d	FV	HLP18ci	-8	omega0	0.525807	0.525807	0.525807
-8d	FV	HLP18ci	-8	omega1	0.574450	0.546325	0.609607
-8d	FV	HLP18ci	-8	WRC_2	3.16447949	3.16447949	3.16447949
-8d	FV	HLP18ci	-8	GYW_0	4.33327215	4.33327215	4.33327215
-8d	FV	HLP18ci	-8	WA_1	2.76832061	2.76832061	2.76832061
-8d	FV	HLP18ci	-8	TW_0	0.74537108	0.74537108	0.74537108
-8d	FV	HLP18ci	-8	SYC_2	-0.70340575	-0.70340575	-0.70340575
-8d	FV	HLP18ci	-8	GRS_0	-0.64737829	-0.64737829	-0.64737829
-8d	FV	HLP18ci	-8	T1	0.00000000	0.00000000	0.00000000
-8d	FV	HLP18ci	-8	C1	0.00000000	0.00000000	0.00000000
-8d	FV	HLP18ci	-8	A1	0.00000000	0.00000000	0.00000000
-8d	FV	HLP18ci	-8	G1	0.00000000	0.00000000	0.00000000
-8d	FV	HLP18ci	-8	T2	0.00000000	0.00000000	0.00000000
-8d	FV	HLP18ci	-8	C2	0.00000000	0.00000000	0.00000000
-8d	FV	HLP18ci	-8	A2	0.00000000	0.00000000	0.00000000
-8d	FV	HLP18ci	-8	G2	0.00000000	0.00000000	0.00000000
-8d	FV	HLP18ci	-8	T3	0.00000000	0.00000000	0.00000000
-8d	FV	HLP18ci	-8	C3	0.00000000	0.00000000	0.00000000
-8d	FV	HLP18ci	-8	A3	0.00000000	0.00000000	0.00000000
-8d	FV	HLP18ci	-8	G3	0.00000000	0.00000000	0.00000000
-8d	FV	HLP18ci	-8	MaxDiv	7.68	7.68	7.68
-8d	FV	HLP18ci	-8	MeanDiv	0.394668721109399	0.394668721109399	0.394668721109399
+14d	GMC	HLP18ci	14	subst	1379.597539	1379.597539	1379.597539
+14d	GMC	HLP18ci	14	kappa	2.16742	2.16742	2.16742
+14d	GMC	HLP18ci	14	omega0	0.579874	0.579874	0.579874
+14d	GMC	HLP18ci	14	omega1	0.790539	0.612414	1.036633
+14d	GMC	HLP18ci	14	WRC_2	3.64788649	3.64788649	3.64788649
+14d	GMC	HLP18ci	14	GYW_0	5.37082286	5.37082286	5.37082286
+14d	GMC	HLP18ci	14	WA_1	2.45420518	2.45420518	2.45420518
+14d	GMC	HLP18ci	14	TW_0	0.71253189	0.71253189	0.71253189
+14d	GMC	HLP18ci	14	SYC_2	-0.56543391	-0.56543391	-0.56543391
+14d	GMC	HLP18ci	14	GRS_0	-0.57192408	-0.57192408	-0.57192408
+14d	GMC	HLP18ci	14	T1	0.00000000	0.00000000	0.00000000
+14d	GMC	HLP18ci	14	C1	0.00000000	0.00000000	0.00000000
+14d	GMC	HLP18ci	14	A1	0.00000000	0.00000000	0.00000000
+14d	GMC	HLP18ci	14	G1	0.00000000	0.00000000	0.00000000
+14d	GMC	HLP18ci	14	T2	0.00000000	0.00000000	0.00000000
+14d	GMC	HLP18ci	14	C2	0.00000000	0.00000000	0.00000000
+14d	GMC	HLP18ci	14	A2	0.00000000	0.00000000	0.00000000
+14d	GMC	HLP18ci	14	G2	0.00000000	0.00000000	0.00000000
+14d	GMC	HLP18ci	14	T3	0.00000000	0.00000000	0.00000000
+14d	GMC	HLP18ci	14	C3	0.00000000	0.00000000	0.00000000
+14d	GMC	HLP18ci	14	A3	0.00000000	0.00000000	0.00000000
+14d	GMC	HLP18ci	14	G3	0.00000000	0.00000000	0.00000000
+14d	GMC	HLP18ci	14	MaxDiv	0.62	0.62	0.62
+14d	GMC	HLP18ci	14	MeanDiv	0.232758620689655	0.232758620689655	0.232758620689655
+1d	GMC	HLP18ci	1	subst	30004.389185	30004.389185	30004.389185
+1d	GMC	HLP18ci	1	kappa	2.43390	2.43390	2.43390
+1d	GMC	HLP18ci	1	omega0	0.541351	0.541351	0.541351
+1d	GMC	HLP18ci	1	omega1	0.715928	0.675303	0.758897
+1d	GMC	HLP18ci	1	WRC_2	4.32810484	4.32810484	4.32810484
+1d	GMC	HLP18ci	1	GYW_0	5.77072583	5.77072583	5.77072583
+1d	GMC	HLP18ci	1	WA_1	2.70017425	2.70017425	2.70017425
+1d	GMC	HLP18ci	1	TW_0	0.85868968	0.85868968	0.85868968
+1d	GMC	HLP18ci	1	SYC_2	-0.59658282	-0.59658282	-0.59658282
+1d	GMC	HLP18ci	1	GRS_0	-0.52834951	-0.52834951	-0.52834951
+1d	GMC	HLP18ci	1	T1	0.00000000	0.00000000	0.00000000
+1d	GMC	HLP18ci	1	C1	0.00000000	0.00000000	0.00000000
+1d	GMC	HLP18ci	1	A1	0.00000000	0.00000000	0.00000000
+1d	GMC	HLP18ci	1	G1	0.00000000	0.00000000	0.00000000
+1d	GMC	HLP18ci	1	T2	0.00000000	0.00000000	0.00000000
+1d	GMC	HLP18ci	1	C2	0.00000000	0.00000000	0.00000000
+1d	GMC	HLP18ci	1	A2	0.00000000	0.00000000	0.00000000
+1d	GMC	HLP18ci	1	G2	0.00000000	0.00000000	0.00000000
+1d	GMC	HLP18ci	1	T3	0.00000000	0.00000000	0.00000000
+1d	GMC	HLP18ci	1	C3	0.00000000	0.00000000	0.00000000
+1d	GMC	HLP18ci	1	A3	0.00000000	0.00000000	0.00000000
+1d	GMC	HLP18ci	1	G3	0.00000000	0.00000000	0.00000000
+1d	GMC	HLP18ci	1	MaxDiv	2.02	2.02	2.02
+1d	GMC	HLP18ci	1	MeanDiv	0.251205035971222	0.251205035971222	0.251205035971222
+1h	GMC	HLP18ci	0.0416666666666667	subst	15479.709902	15479.709902	15479.709902
+1h	GMC	HLP18ci	0.0416666666666667	kappa	2.35525	2.35525	2.35525
+1h	GMC	HLP18ci	0.0416666666666667	omega0	0.528290	0.528290	0.528290
+1h	GMC	HLP18ci	0.0416666666666667	omega1	0.686946	0.640071	0.737727
+1h	GMC	HLP18ci	0.0416666666666667	WRC_2	4.21488800	4.21488800	4.21488800
+1h	GMC	HLP18ci	0.0416666666666667	GYW_0	5.51619845	5.51619845	5.51619845
+1h	GMC	HLP18ci	0.0416666666666667	WA_1	2.69366006	2.69366006	2.69366006
+1h	GMC	HLP18ci	0.0416666666666667	TW_0	0.85992757	0.85992757	0.85992757
+1h	GMC	HLP18ci	0.0416666666666667	SYC_2	-0.60287457	-0.60287457	-0.60287457
+1h	GMC	HLP18ci	0.0416666666666667	GRS_0	-0.50499982	-0.50499982	-0.50499982
+1h	GMC	HLP18ci	0.0416666666666667	T1	0.00000000	0.00000000	0.00000000
+1h	GMC	HLP18ci	0.0416666666666667	C1	0.00000000	0.00000000	0.00000000
+1h	GMC	HLP18ci	0.0416666666666667	A1	0.00000000	0.00000000	0.00000000
+1h	GMC	HLP18ci	0.0416666666666667	G1	0.00000000	0.00000000	0.00000000
+1h	GMC	HLP18ci	0.0416666666666667	T2	0.00000000	0.00000000	0.00000000
+1h	GMC	HLP18ci	0.0416666666666667	C2	0.00000000	0.00000000	0.00000000
+1h	GMC	HLP18ci	0.0416666666666667	A2	0.00000000	0.00000000	0.00000000
+1h	GMC	HLP18ci	0.0416666666666667	G2	0.00000000	0.00000000	0.00000000
+1h	GMC	HLP18ci	0.0416666666666667	T3	0.00000000	0.00000000	0.00000000
+1h	GMC	HLP18ci	0.0416666666666667	C3	0.00000000	0.00000000	0.00000000
+1h	GMC	HLP18ci	0.0416666666666667	A3	0.00000000	0.00000000	0.00000000
+1h	GMC	HLP18ci	0.0416666666666667	G3	0.00000000	0.00000000	0.00000000
+1h	GMC	HLP18ci	0.0416666666666667	MaxDiv	1.80	1.80	1.80
+1h	GMC	HLP18ci	0.0416666666666667	MeanDiv	0.260071684587814	0.260071684587814	0.260071684587814
+21d	GMC	HLP18ci	21	subst	30669.230972	30669.230972	30669.230972
+21d	GMC	HLP18ci	21	kappa	2.47484	2.47484	2.47484
+21d	GMC	HLP18ci	21	omega0	0.562197	0.562197	0.562197
+21d	GMC	HLP18ci	21	omega1	0.754340	0.713715	0.797309
+21d	GMC	HLP18ci	21	WRC_2	4.06469665	4.06469665	4.06469665
+21d	GMC	HLP18ci	21	GYW_0	5.68428482	5.68428482	5.68428482
+21d	GMC	HLP18ci	21	WA_1	2.59723864	2.59723864	2.59723864
+21d	GMC	HLP18ci	21	TW_0	0.89800931	0.89800931	0.89800931
+21d	GMC	HLP18ci	21	SYC_2	-0.56908964	-0.56908964	-0.56908964
+21d	GMC	HLP18ci	21	GRS_0	-0.55709607	-0.55709607	-0.55709607
+21d	GMC	HLP18ci	21	T1	0.00000000	0.00000000	0.00000000
+21d	GMC	HLP18ci	21	C1	0.00000000	0.00000000	0.00000000
+21d	GMC	HLP18ci	21	A1	0.00000000	0.00000000	0.00000000
+21d	GMC	HLP18ci	21	G1	0.00000000	0.00000000	0.00000000
+21d	GMC	HLP18ci	21	T2	0.00000000	0.00000000	0.00000000
+21d	GMC	HLP18ci	21	C2	0.00000000	0.00000000	0.00000000
+21d	GMC	HLP18ci	21	A2	0.00000000	0.00000000	0.00000000
+21d	GMC	HLP18ci	21	G2	0.00000000	0.00000000	0.00000000
+21d	GMC	HLP18ci	21	T3	0.00000000	0.00000000	0.00000000
+21d	GMC	HLP18ci	21	C3	0.00000000	0.00000000	0.00000000
+21d	GMC	HLP18ci	21	A3	0.00000000	0.00000000	0.00000000
+21d	GMC	HLP18ci	21	G3	0.00000000	0.00000000	0.00000000
+21d	GMC	HLP18ci	21	MaxDiv	2.24	2.24	2.24
+21d	GMC	HLP18ci	21	MeanDiv	0.273886756238003	0.273886756238003	0.273886756238003
+28d	GMC	HLP18ci	28	subst	30674.754893	30674.754893	30674.754893
+28d	GMC	HLP18ci	28	kappa	2.44809	2.44809	2.44809
+28d	GMC	HLP18ci	28	omega0	0.538850	0.538850	0.538850
+28d	GMC	HLP18ci	28	omega1	0.701293	0.673168	0.736449
+28d	GMC	HLP18ci	28	WRC_2	4.04644770	4.04644770	4.04644770
+28d	GMC	HLP18ci	28	GYW_0	5.37430168	5.37430168	5.37430168
+28d	GMC	HLP18ci	28	WA_1	2.40816801	2.40816801	2.40816801
+28d	GMC	HLP18ci	28	TW_0	0.80807804	0.80807804	0.80807804
+28d	GMC	HLP18ci	28	SYC_2	-0.66304909	-0.66304909	-0.66304909
+28d	GMC	HLP18ci	28	GRS_0	-0.59015048	-0.59015048	-0.59015048
+28d	GMC	HLP18ci	28	T1	0.00000000	0.00000000	0.00000000
+28d	GMC	HLP18ci	28	C1	0.00000000	0.00000000	0.00000000
+28d	GMC	HLP18ci	28	A1	0.00000000	0.00000000	0.00000000
+28d	GMC	HLP18ci	28	G1	0.00000000	0.00000000	0.00000000
+28d	GMC	HLP18ci	28	T2	0.00000000	0.00000000	0.00000000
+28d	GMC	HLP18ci	28	C2	0.00000000	0.00000000	0.00000000
+28d	GMC	HLP18ci	28	A2	0.00000000	0.00000000	0.00000000
+28d	GMC	HLP18ci	28	G2	0.00000000	0.00000000	0.00000000
+28d	GMC	HLP18ci	28	T3	0.00000000	0.00000000	0.00000000
+28d	GMC	HLP18ci	28	C3	0.00000000	0.00000000	0.00000000
+28d	GMC	HLP18ci	28	A3	0.00000000	0.00000000	0.00000000
+28d	GMC	HLP18ci	28	G3	0.00000000	0.00000000	0.00000000
+28d	GMC	HLP18ci	28	MaxDiv	1.94	1.94	1.94
+28d	GMC	HLP18ci	28	MeanDiv	0.287933467741935	0.287933467741935	0.287933467741935
+3d	GMC	HLP18ci	3	subst	28848.214825	28848.214825	28848.214825
+3d	GMC	HLP18ci	3	kappa	2.45798	2.45798	2.45798
+3d	GMC	HLP18ci	3	omega0	0.540605	0.540605	0.540605
+3d	GMC	HLP18ci	3	omega1	0.732362	0.691737	0.775331
+3d	GMC	HLP18ci	3	WRC_2	4.11953168	4.11953168	4.11953168
+3d	GMC	HLP18ci	3	GYW_0	5.39711620	5.39711620	5.39711620
+3d	GMC	HLP18ci	3	WA_1	2.56231710	2.56231710	2.56231710
+3d	GMC	HLP18ci	3	TW_0	0.89280446	0.89280446	0.89280446
+3d	GMC	HLP18ci	3	SYC_2	-0.64426665	-0.64426665	-0.64426665
+3d	GMC	HLP18ci	3	GRS_0	-0.50881300	-0.50881300	-0.50881300
+3d	GMC	HLP18ci	3	T1	0.00000000	0.00000000	0.00000000
+3d	GMC	HLP18ci	3	C1	0.00000000	0.00000000	0.00000000
+3d	GMC	HLP18ci	3	A1	0.00000000	0.00000000	0.00000000
+3d	GMC	HLP18ci	3	G1	0.00000000	0.00000000	0.00000000
+3d	GMC	HLP18ci	3	T2	0.00000000	0.00000000	0.00000000
+3d	GMC	HLP18ci	3	C2	0.00000000	0.00000000	0.00000000
+3d	GMC	HLP18ci	3	A2	0.00000000	0.00000000	0.00000000
+3d	GMC	HLP18ci	3	G2	0.00000000	0.00000000	0.00000000
+3d	GMC	HLP18ci	3	T3	0.00000000	0.00000000	0.00000000
+3d	GMC	HLP18ci	3	C3	0.00000000	0.00000000	0.00000000
+3d	GMC	HLP18ci	3	A3	0.00000000	0.00000000	0.00000000
+3d	GMC	HLP18ci	3	G3	0.00000000	0.00000000	0.00000000
+3d	GMC	HLP18ci	3	MaxDiv	1.55	1.55	1.55
+3d	GMC	HLP18ci	3	MeanDiv	0.244512306289881	0.244512306289881	0.244512306289881
+7d	GMC	HLP18ci	7	subst	30583.321788	30583.321788	30583.321788
+7d	GMC	HLP18ci	7	kappa	2.44487	2.44487	2.44487
+7d	GMC	HLP18ci	7	omega0	0.520505	0.520505	0.520505
+7d	GMC	HLP18ci	7	omega1	0.687966	0.653591	0.723122
+7d	GMC	HLP18ci	7	WRC_2	4.24775322	4.24775322	4.24775322
+7d	GMC	HLP18ci	7	GYW_0	5.44091847	5.44091847	5.44091847
+7d	GMC	HLP18ci	7	WA_1	2.67208992	2.67208992	2.67208992
+7d	GMC	HLP18ci	7	TW_0	0.92641752	0.92641752	0.92641752
+7d	GMC	HLP18ci	7	SYC_2	-0.61566631	-0.61566631	-0.61566631
+7d	GMC	HLP18ci	7	GRS_0	-0.50902399	-0.50902399	-0.50902399
+7d	GMC	HLP18ci	7	T1	0.00000000	0.00000000	0.00000000
+7d	GMC	HLP18ci	7	C1	0.00000000	0.00000000	0.00000000
+7d	GMC	HLP18ci	7	A1	0.00000000	0.00000000	0.00000000
+7d	GMC	HLP18ci	7	G1	0.00000000	0.00000000	0.00000000
+7d	GMC	HLP18ci	7	T2	0.00000000	0.00000000	0.00000000
+7d	GMC	HLP18ci	7	C2	0.00000000	0.00000000	0.00000000
+7d	GMC	HLP18ci	7	A2	0.00000000	0.00000000	0.00000000
+7d	GMC	HLP18ci	7	G2	0.00000000	0.00000000	0.00000000
+7d	GMC	HLP18ci	7	T3	0.00000000	0.00000000	0.00000000
+7d	GMC	HLP18ci	7	C3	0.00000000	0.00000000	0.00000000
+7d	GMC	HLP18ci	7	A3	0.00000000	0.00000000	0.00000000
+7d	GMC	HLP18ci	7	G3	0.00000000	0.00000000	0.00000000
+7d	GMC	HLP18ci	7	MaxDiv	2.76	2.76	2.76
+7d	GMC	HLP18ci	7	MeanDiv	0.27673469387755	0.27673469387755	0.27673469387755
-1h	GMC	HLP18ci	-0.0416666666666667	subst	30087.364533	30087.364533	30087.364533
-1h	GMC	HLP18ci	-0.0416666666666667	kappa	2.40330	2.40330	2.40330
-1h	GMC	HLP18ci	-0.0416666666666667	omega0	0.545100	0.545100	0.545100
-1h	GMC	HLP18ci	-0.0416666666666667	omega1	0.732920	0.692295	0.768076
-1h	GMC	HLP18ci	-0.0416666666666667	WRC_2	4.36549479	4.36549479	4.36549479
-1h	GMC	HLP18ci	-0.0416666666666667	GYW_0	5.87366860	5.87366860	5.87366860
-1h	GMC	HLP18ci	-0.0416666666666667	WA_1	2.71187275	2.71187275	2.71187275
-1h	GMC	HLP18ci	-0.0416666666666667	TW_0	0.92906542	0.92906542	0.92906542
-1h	GMC	HLP18ci	-0.0416666666666667	SYC_2	-0.57097417	-0.57097417	-0.57097417
-1h	GMC	HLP18ci	-0.0416666666666667	GRS_0	-0.49393631	-0.49393631	-0.49393631
-1h	GMC	HLP18ci	-0.0416666666666667	T1	0.00000000	0.00000000	0.00000000
-1h	GMC	HLP18ci	-0.0416666666666667	C1	0.00000000	0.00000000	0.00000000
-1h	GMC	HLP18ci	-0.0416666666666667	A1	0.00000000	0.00000000	0.00000000
-1h	GMC	HLP18ci	-0.0416666666666667	G1	0.00000000	0.00000000	0.00000000
-1h	GMC	HLP18ci	-0.0416666666666667	T2	0.00000000	0.00000000	0.00000000
-1h	GMC	HLP18ci	-0.0416666666666667	C2	0.00000000	0.00000000	0.00000000
-1h	GMC	HLP18ci	-0.0416666666666667	A2	0.00000000	0.00000000	0.00000000
-1h	GMC	HLP18ci	-0.0416666666666667	G2	0.00000000	0.00000000	0.00000000
-1h	GMC	HLP18ci	-0.0416666666666667	T3	0.00000000	0.00000000	0.00000000
-1h	GMC	HLP18ci	-0.0416666666666667	C3	0.00000000	0.00000000	0.00000000
-1h	GMC	HLP18ci	-0.0416666666666667	A3	0.00000000	0.00000000	0.00000000
-1h	GMC	HLP18ci	-0.0416666666666667	G3	0.00000000	0.00000000	0.00000000
-1h	GMC	HLP18ci	-0.0416666666666667	MaxDiv	1.84	1.84	1.84
-1h	GMC	HLP18ci	-0.0416666666666667	MeanDiv	0.260586592178771	0.260586592178771	0.260586592178771
-2d	GMC	HLP18ci	-2	subst	22197.999432	22197.999432	22197.999432
-2d	GMC	HLP18ci	-2	kappa	2.35286	2.35286	2.35286
-2d	GMC	HLP18ci	-2	omega0	0.548859	0.548859	0.548859
-2d	GMC	HLP18ci	-2	omega1	0.694591	0.653966	0.737560
-2d	GMC	HLP18ci	-2	WRC_2	4.07406403	4.07406403	4.07406403
-2d	GMC	HLP18ci	-2	GYW_0	5.53143995	5.53143995	5.53143995
-2d	GMC	HLP18ci	-2	WA_1	2.67312869	2.67312869	2.67312869
-2d	GMC	HLP18ci	-2	TW_0	0.86838026	0.86838026	0.86838026
-2d	GMC	HLP18ci	-2	SYC_2	-0.60882397	-0.60882397	-0.60882397
-2d	GMC	HLP18ci	-2	GRS_0	-0.47991651	-0.47991651	-0.47991651
-2d	GMC	HLP18ci	-2	T1	0.00000000	0.00000000	0.00000000
-2d	GMC	HLP18ci	-2	C1	0.00000000	0.00000000	0.00000000
-2d	GMC	HLP18ci	-2	A1	0.00000000	0.00000000	0.00000000
-2d	GMC	HLP18ci	-2	G1	0.00000000	0.00000000	0.00000000
-2d	GMC	HLP18ci	-2	T2	0.00000000	0.00000000	0.00000000
-2d	GMC	HLP18ci	-2	C2	0.00000000	0.00000000	0.00000000
-2d	GMC	HLP18ci	-2	A2	0.00000000	0.00000000	0.00000000
-2d	GMC	HLP18ci	-2	G2	0.00000000	0.00000000	0.00000000
-2d	GMC	HLP18ci	-2	T3	0.00000000	0.00000000	0.00000000
-2d	GMC	HLP18ci	-2	C3	0.00000000	0.00000000	0.00000000
-2d	GMC	HLP18ci	-2	A3	0.00000000	0.00000000	0.00000000
-2d	GMC	HLP18ci	-2	G3	0.00000000	0.00000000	0.00000000
-2d	GMC	HLP18ci	-2	MaxDiv	1.80	1.80	1.80
-2d	GMC	HLP18ci	-2	MeanDiv	0.258352059925093	0.258352059925093	0.258352059925093
-8d	GMC	HLP18ci	-8	subst	25639.221704	25639.221704	25639.221704
-8d	GMC	HLP18ci	-8	kappa	2.41041	2.41041	2.41041
-8d	GMC	HLP18ci	-8	omega0	0.570213	0.570213	0.570213
-8d	GMC	HLP18ci	-8	omega1	0.732173	0.691548	0.775142
-8d	GMC	HLP18ci	-8	WRC_2	4.29655744	4.29655744	4.29655744
-8d	GMC	HLP18ci	-8	GYW_0	5.83794784	5.83794784	5.83794784
-8d	GMC	HLP18ci	-8	WA_1	2.49643238	2.49643238	2.49643238
-8d	GMC	HLP18ci	-8	TW_0	0.88241759	0.88241759	0.88241759
-8d	GMC	HLP18ci	-8	SYC_2	-0.60316969	-0.60316969	-0.60316969
-8d	GMC	HLP18ci	-8	GRS_0	-0.54487089	-0.54487089	-0.54487089
-8d	GMC	HLP18ci	-8	T1	0.00000000	0.00000000	0.00000000
-8d	GMC	HLP18ci	-8	C1	0.00000000	0.00000000	0.00000000
-8d	GMC	HLP18ci	-8	A1	0.00000000	0.00000000	0.00000000
-8d	GMC	HLP18ci	-8	G1	0.00000000	0.00000000	0.00000000
-8d	GMC	HLP18ci	-8	T2	0.00000000	0.00000000	0.00000000
-8d	GMC	HLP18ci	-8	C2	0.00000000	0.00000000	0.00000000
-8d	GMC	HLP18ci	-8	A2	0.00000000	0.00000000	0.00000000
-8d	GMC	HLP18ci	-8	G2	0.00000000	0.00000000	0.00000000
-8d	GMC	HLP18ci	-8	T3	0.00000000	0.00000000	0.00000000
-8d	GMC	HLP18ci	-8	C3	0.00000000	0.00000000	0.00000000
-8d	GMC	HLP18ci	-8	A3	0.00000000	0.00000000	0.00000000
-8d	GMC	HLP18ci	-8	G3	0.00000000	0.00000000	0.00000000
-8d	GMC	HLP18ci	-8	MaxDiv	1.67	1.67	1.67
-8d	GMC	HLP18ci	-8	MeanDiv	0.252931216931216	0.252931216931216	0.252931216931216
+14d	IB	H0	14	subst	35325.037427	35325.037427	35325.037427
+14d	IB	H0	14	kappa	2.60438	2.60438	2.60438
+14d	IB	H0	14	omega0	0.447210	0.447210	0.447210
+14d	IB	H0	14	omega1	0.899604	0.899604	0.899604
+14d	IB	H0	14	WRC_2	0.00000000	0.00000000	0.00000000
+14d	IB	H0	14	GYW_0	0.00000000	0.00000000	0.00000000
+14d	IB	H0	14	T1	0.25588626	0.25588626	0.25588626
+14d	IB	H0	14	C1	0.16943308	0.16943308	0.16943308
+14d	IB	H0	14	A1	0.27620303	0.27620303	0.27620303
+14d	IB	H0	14	G1	0.29847763	0.29847763	0.29847763
+14d	IB	H0	14	T2	0.22936850	0.22936850	0.22936850
+14d	IB	H0	14	C2	0.23691853	0.23691853	0.23691853
+14d	IB	H0	14	A2	0.28316013	0.28316013	0.28316013
+14d	IB	H0	14	G2	0.25055284	0.25055284	0.25055284
+14d	IB	H0	14	T3	0.18415242	0.18415242	0.18415242
+14d	IB	H0	14	C3	0.33405043	0.33405043	0.33405043
+14d	IB	H0	14	A3	0.16600725	0.16600725	0.16600725
+14d	IB	H0	14	G3	0.31578991	0.31578991	0.31578991
+14d	IB	H0	14	MaxDiv	2.79	2.79	2.79
+14d	IB	H0	14	MeanDiv	0.326202783300198	0.326202783300198	0.326202783300198
+14d	IB	HLP18ci	14	subst	36147.057545	36147.057545	36147.057545
+14d	IB	HLP18ci	14	kappa	2.41458	2.41458	2.41458
+14d	IB	HLP18ci	14	omega0	0.505942	0.505942	0.505942
+14d	IB	HLP18ci	14	omega1	0.623702	0.595577	0.643233
+14d	IB	HLP18ci	14	WRC_2	3.59017658	3.59017658	3.59017658
+14d	IB	HLP18ci	14	GYW_0	4.52974176	4.52974176	4.52974176
+14d	IB	HLP18ci	14	WA_1	2.88205217	2.88205217	2.88205217
+14d	IB	HLP18ci	14	TW_0	0.88911577	0.88911577	0.88911577
+14d	IB	HLP18ci	14	SYC_2	-0.64170604	-0.64170604	-0.64170604
+14d	IB	HLP18ci	14	GRS_0	-0.60480947	-0.60480947	-0.60480947
+14d	IB	HLP18ci	14	T1	0.00000000	0.00000000	0.00000000
+14d	IB	HLP18ci	14	C1	0.00000000	0.00000000	0.00000000
+14d	IB	HLP18ci	14	A1	0.00000000	0.00000000	0.00000000
+14d	IB	HLP18ci	14	G1	0.00000000	0.00000000	0.00000000
+14d	IB	HLP18ci	14	T2	0.00000000	0.00000000	0.00000000
+14d	IB	HLP18ci	14	C2	0.00000000	0.00000000	0.00000000
+14d	IB	HLP18ci	14	A2	0.00000000	0.00000000	0.00000000
+14d	IB	HLP18ci	14	G2	0.00000000	0.00000000	0.00000000
+14d	IB	HLP18ci	14	T3	0.00000000	0.00000000	0.00000000
+14d	IB	HLP18ci	14	C3	0.00000000	0.00000000	0.00000000
+14d	IB	HLP18ci	14	A3	0.00000000	0.00000000	0.00000000
+14d	IB	HLP18ci	14	G3	0.00000000	0.00000000	0.00000000
+14d	IB	HLP18ci	14	MaxDiv	2.85	2.85	2.85
+14d	IB	HLP18ci	14	MeanDiv	0.334155069582504	0.334155069582504	0.334155069582504
+1d	IB	H0	1	subst	35612.397985	35612.397985	35612.397985
+1d	IB	H0	1	kappa	2.69751	2.69751	2.69751
+1d	IB	H0	1	omega0	0.454953	0.454953	0.454953
+1d	IB	H0	1	omega1	0.931485	0.931485	0.931485
+1d	IB	H0	1	WRC_2	0.00000000	0.00000000	0.00000000
+1d	IB	H0	1	GYW_0	0.00000000	0.00000000	0.00000000
+1d	IB	H0	1	T1	0.25475790	0.25475790	0.25475790
+1d	IB	H0	1	C1	0.17021678	0.17021678	0.17021678
+1d	IB	H0	1	A1	0.27544079	0.27544079	0.27544079
+1d	IB	H0	1	G1	0.29958453	0.29958453	0.29958453
+1d	IB	H0	1	T2	0.22846537	0.22846537	0.22846537
+1d	IB	H0	1	C2	0.23875852	0.23875852	0.23875852
+1d	IB	H0	1	A2	0.28283996	0.28283996	0.28283996
+1d	IB	H0	1	G2	0.24993615	0.24993615	0.24993615
+1d	IB	H0	1	T3	0.18342829	0.18342829	0.18342829
+1d	IB	H0	1	C3	0.33625690	0.33625690	0.33625690
+1d	IB	H0	1	A3	0.16398635	0.16398635	0.16398635
+1d	IB	H0	1	G3	0.31632845	0.31632845	0.31632845
+1d	IB	H0	1	MaxDiv	2.02	2.02	2.02
+1d	IB	H0	1	MeanDiv	0.305493998153278	0.305493998153278	0.305493998153278
+1d	IB	HLP18ci	1	subst	36394.606663	36394.606663	36394.606663
+1d	IB	HLP18ci	1	kappa	2.50233	2.50233	2.50233
+1d	IB	HLP18ci	1	omega0	0.514507	0.514507	0.514507
+1d	IB	HLP18ci	1	omega1	0.665576	0.631201	0.700732
+1d	IB	HLP18ci	1	WRC_2	3.64570484	3.64570484	3.64570484
+1d	IB	HLP18ci	1	GYW_0	4.46930838	4.46930838	4.46930838
+1d	IB	HLP18ci	1	WA_1	2.89388303	2.89388303	2.89388303
+1d	IB	HLP18ci	1	TW_0	0.99738341	0.99738341	0.99738341
+1d	IB	HLP18ci	1	SYC_2	-0.64016590	-0.64016590	-0.64016590
+1d	IB	HLP18ci	1	GRS_0	-0.61241470	-0.61241470	-0.61241470
+1d	IB	HLP18ci	1	T1	0.00000000	0.00000000	0.00000000
+1d	IB	HLP18ci	1	C1	0.00000000	0.00000000	0.00000000
+1d	IB	HLP18ci	1	A1	0.00000000	0.00000000	0.00000000
+1d	IB	HLP18ci	1	G1	0.00000000	0.00000000	0.00000000
+1d	IB	HLP18ci	1	T2	0.00000000	0.00000000	0.00000000
+1d	IB	HLP18ci	1	C2	0.00000000	0.00000000	0.00000000
+1d	IB	HLP18ci	1	A2	0.00000000	0.00000000	0.00000000
+1d	IB	HLP18ci	1	G2	0.00000000	0.00000000	0.00000000
+1d	IB	HLP18ci	1	T3	0.00000000	0.00000000	0.00000000
+1d	IB	HLP18ci	1	C3	0.00000000	0.00000000	0.00000000
+1d	IB	HLP18ci	1	A3	0.00000000	0.00000000	0.00000000
+1d	IB	HLP18ci	1	G3	0.00000000	0.00000000	0.00000000
+1d	IB	HLP18ci	1	MaxDiv	2.08	2.08	2.08
+1d	IB	HLP18ci	1	MeanDiv	0.312594644506001	0.312594644506001	0.312594644506001
+1h	IB	H0	0.0416666666666667	subst	36154.869963	36154.869963	36154.869963
+1h	IB	H0	0.0416666666666667	kappa	2.63348	2.63348	2.63348
+1h	IB	H0	0.0416666666666667	omega0	0.449217	0.449217	0.449217
+1h	IB	H0	0.0416666666666667	omega1	0.947462	0.947462	0.947462
+1h	IB	H0	0.0416666666666667	WRC_2	0.00000000	0.00000000	0.00000000
+1h	IB	H0	0.0416666666666667	GYW_0	0.00000000	0.00000000	0.00000000
+1h	IB	H0	0.0416666666666667	T1	0.25553104	0.25553104	0.25553104
+1h	IB	H0	0.0416666666666667	C1	0.16944605	0.16944605	0.16944605
+1h	IB	H0	0.0416666666666667	A1	0.27567043	0.27567043	0.27567043
+1h	IB	H0	0.0416666666666667	G1	0.29935249	0.29935249	0.29935249
+1h	IB	H0	0.0416666666666667	T2	0.22873555	0.22873555	0.22873555
+1h	IB	H0	0.0416666666666667	C2	0.23787554	0.23787554	0.23787554
+1h	IB	H0	0.0416666666666667	A2	0.28234964	0.28234964	0.28234964
+1h	IB	H0	0.0416666666666667	G2	0.25103928	0.25103928	0.25103928
+1h	IB	H0	0.0416666666666667	T3	0.18392171	0.18392171	0.18392171
+1h	IB	H0	0.0416666666666667	C3	0.33552668	0.33552668	0.33552668
+1h	IB	H0	0.0416666666666667	A3	0.16555611	0.16555611	0.16555611
+1h	IB	H0	0.0416666666666667	G3	0.31499550	0.31499550	0.31499550
+1h	IB	H0	0.0416666666666667	MaxDiv	2.36	2.36	2.36
+1h	IB	H0	0.0416666666666667	MeanDiv	0.307099725526074	0.307099725526074	0.307099725526074
+1h	IB	HLP18ci	0.0416666666666667	subst	36964.063028	36964.063028	36964.063028
+1h	IB	HLP18ci	0.0416666666666667	kappa	2.43861	2.43861	2.43861
+1h	IB	HLP18ci	0.0416666666666667	omega0	0.505370	0.505370	0.505370
+1h	IB	HLP18ci	0.0416666666666667	omega1	0.670718	0.636343	0.705874
+1h	IB	HLP18ci	0.0416666666666667	WRC_2	3.79383024	3.79383024	3.79383024
+1h	IB	HLP18ci	0.0416666666666667	GYW_0	4.64439041	4.64439041	4.64439041
+1h	IB	HLP18ci	0.0416666666666667	WA_1	3.05458499	3.05458499	3.05458499
+1h	IB	HLP18ci	0.0416666666666667	TW_0	1.10747704	1.10747704	1.10747704
+1h	IB	HLP18ci	0.0416666666666667	SYC_2	-0.65183364	-0.65183364	-0.65183364
+1h	IB	HLP18ci	0.0416666666666667	GRS_0	-0.58545253	-0.58545253	-0.58545253
+1h	IB	HLP18ci	0.0416666666666667	T1	0.00000000	0.00000000	0.00000000
+1h	IB	HLP18ci	0.0416666666666667	C1	0.00000000	0.00000000	0.00000000
+1h	IB	HLP18ci	0.0416666666666667	A1	0.00000000	0.00000000	0.00000000
+1h	IB	HLP18ci	0.0416666666666667	G1	0.00000000	0.00000000	0.00000000
+1h	IB	HLP18ci	0.0416666666666667	T2	0.00000000	0.00000000	0.00000000
+1h	IB	HLP18ci	0.0416666666666667	C2	0.00000000	0.00000000	0.00000000
+1h	IB	HLP18ci	0.0416666666666667	A2	0.00000000	0.00000000	0.00000000
+1h	IB	HLP18ci	0.0416666666666667	G2	0.00000000	0.00000000	0.00000000
+1h	IB	HLP18ci	0.0416666666666667	T3	0.00000000	0.00000000	0.00000000
+1h	IB	HLP18ci	0.0416666666666667	C3	0.00000000	0.00000000	0.00000000
+1h	IB	HLP18ci	0.0416666666666667	A3	0.00000000	0.00000000	0.00000000
+1h	IB	HLP18ci	0.0416666666666667	G3	0.00000000	0.00000000	0.00000000
+1h	IB	HLP18ci	0.0416666666666667	MaxDiv	2.42	2.42	2.42
+1h	IB	HLP18ci	0.0416666666666667	MeanDiv	0.314053064958828	0.314053064958828	0.314053064958828
+21d	IB	H0	21	subst	38741.165342	38741.165342	38741.165342
+21d	IB	H0	21	kappa	2.59018	2.59018	2.59018
+21d	IB	H0	21	omega0	0.435574	0.435574	0.435574
+21d	IB	H0	21	omega1	0.863330	0.863330	0.863330
+21d	IB	H0	21	WRC_2	0.00000000	0.00000000	0.00000000
+21d	IB	H0	21	GYW_0	0.00000000	0.00000000	0.00000000
+21d	IB	H0	21	T1	0.25351910	0.25351910	0.25351910
+21d	IB	H0	21	C1	0.17202870	0.17202870	0.17202870
+21d	IB	H0	21	A1	0.27956304	0.27956304	0.27956304
+21d	IB	H0	21	G1	0.29488916	0.29488916	0.29488916
+21d	IB	H0	21	T2	0.22961353	0.22961353	0.22961353
+21d	IB	H0	21	C2	0.23832328	0.23832328	0.23832328
+21d	IB	H0	21	A2	0.28393679	0.28393679	0.28393679
+21d	IB	H0	21	G2	0.24812640	0.24812640	0.24812640
+21d	IB	H0	21	T3	0.18551230	0.18551230	0.18551230
+21d	IB	H0	21	C3	0.33674565	0.33674565	0.33674565
+21d	IB	H0	21	A3	0.16431038	0.16431038	0.16431038
+21d	IB	H0	21	G3	0.31343168	0.31343168	0.31343168
+21d	IB	H0	21	MaxDiv	3.78	3.78	3.78
+21d	IB	H0	21	MeanDiv	0.349359223300971	0.349359223300971	0.349359223300971
+21d	IB	HLP18ci	21	subst	39647.609454	39647.609454	39647.609454
+21d	IB	HLP18ci	21	kappa	2.39306	2.39306	2.39306
+21d	IB	HLP18ci	21	omega0	0.487655	0.487655	0.487655
+21d	IB	HLP18ci	21	omega1	0.597323	0.569198	0.632479
+21d	IB	HLP18ci	21	WRC_2	3.51374343	3.51374343	3.51374343
+21d	IB	HLP18ci	21	GYW_0	4.64774656	4.64774656	4.64774656
+21d	IB	HLP18ci	21	WA_1	3.04467900	3.04467900	3.04467900
+21d	IB	HLP18ci	21	TW_0	0.93819286	0.93819286	0.93819286
+21d	IB	HLP18ci	21	SYC_2	-0.68677630	-0.68677630	-0.68677630
+21d	IB	HLP18ci	21	GRS_0	-0.63585640	-0.63585640	-0.63585640
+21d	IB	HLP18ci	21	T1	0.00000000	0.00000000	0.00000000
+21d	IB	HLP18ci	21	C1	0.00000000	0.00000000	0.00000000
+21d	IB	HLP18ci	21	A1	0.00000000	0.00000000	0.00000000
+21d	IB	HLP18ci	21	G1	0.00000000	0.00000000	0.00000000
+21d	IB	HLP18ci	21	T2	0.00000000	0.00000000	0.00000000
+21d	IB	HLP18ci	21	C2	0.00000000	0.00000000	0.00000000
+21d	IB	HLP18ci	21	A2	0.00000000	0.00000000	0.00000000
+21d	IB	HLP18ci	21	G2	0.00000000	0.00000000	0.00000000
+21d	IB	HLP18ci	21	T3	0.00000000	0.00000000	0.00000000
+21d	IB	HLP18ci	21	C3	0.00000000	0.00000000	0.00000000
+21d	IB	HLP18ci	21	A3	0.00000000	0.00000000	0.00000000
+21d	IB	HLP18ci	21	G3	0.00000000	0.00000000	0.00000000
+21d	IB	HLP18ci	21	MaxDiv	3.92	3.92	3.92
+21d	IB	HLP18ci	21	MeanDiv	0.357611650485437	0.357611650485437	0.357611650485437
+28d	IB	H0	28	subst	36677.030563	36677.030563	36677.030563
+28d	IB	H0	28	kappa	2.63958	2.63958	2.63958
+28d	IB	H0	28	omega0	0.438619	0.438619	0.438619
+28d	IB	H0	28	omega1	0.927807	0.927807	0.927807
+28d	IB	H0	28	WRC_2	0.00000000	0.00000000	0.00000000
+28d	IB	H0	28	GYW_0	0.00000000	0.00000000	0.00000000
+28d	IB	H0	28	T1	0.25511051	0.25511051	0.25511051
+28d	IB	H0	28	C1	0.17039038	0.17039038	0.17039038
+28d	IB	H0	28	A1	0.27663887	0.27663887	0.27663887
+28d	IB	H0	28	G1	0.29786024	0.29786024	0.29786024
+28d	IB	H0	28	T2	0.22805760	0.22805760	0.22805760
+28d	IB	H0	28	C2	0.24013755	0.24013755	0.24013755
+28d	IB	H0	28	A2	0.28205465	0.28205465	0.28205465
+28d	IB	H0	28	G2	0.24975020	0.24975020	0.24975020
+28d	IB	H0	28	T3	0.18362201	0.18362201	0.18362201
+28d	IB	H0	28	C3	0.33708602	0.33708602	0.33708602
+28d	IB	H0	28	A3	0.16181564	0.16181564	0.16181564
+28d	IB	H0	28	G3	0.31747633	0.31747633	0.31747633
+28d	IB	H0	28	MaxDiv	2.09	2.09	2.09
+28d	IB	H0	28	MeanDiv	0.296989528795811	0.296989528795811	0.296989528795811
+28d	IB	HLP18ci	28	subst	37480.662394	37480.662394	37480.662394
+28d	IB	HLP18ci	28	kappa	2.44658	2.44658	2.44658
+28d	IB	HLP18ci	28	omega0	0.492155	0.492155	0.492155
+28d	IB	HLP18ci	28	omega1	0.630206	0.602081	0.665362
+28d	IB	HLP18ci	28	WRC_2	3.58376858	3.58376858	3.58376858
+28d	IB	HLP18ci	28	GYW_0	5.01708476	5.01708476	5.01708476
+28d	IB	HLP18ci	28	WA_1	3.13141498	3.13141498	3.13141498
+28d	IB	HLP18ci	28	TW_0	0.93398296	0.93398296	0.93398296
+28d	IB	HLP18ci	28	SYC_2	-0.66022050	-0.66022050	-0.66022050
+28d	IB	HLP18ci	28	GRS_0	-0.61747479	-0.61747479	-0.61747479
+28d	IB	HLP18ci	28	T1	0.00000000	0.00000000	0.00000000
+28d	IB	HLP18ci	28	C1	0.00000000	0.00000000	0.00000000
+28d	IB	HLP18ci	28	A1	0.00000000	0.00000000	0.00000000
+28d	IB	HLP18ci	28	G1	0.00000000	0.00000000	0.00000000
+28d	IB	HLP18ci	28	T2	0.00000000	0.00000000	0.00000000
+28d	IB	HLP18ci	28	C2	0.00000000	0.00000000	0.00000000
+28d	IB	HLP18ci	28	A2	0.00000000	0.00000000	0.00000000
+28d	IB	HLP18ci	28	G2	0.00000000	0.00000000	0.00000000
+28d	IB	HLP18ci	28	T3	0.00000000	0.00000000	0.00000000
+28d	IB	HLP18ci	28	C3	0.00000000	0.00000000	0.00000000
+28d	IB	HLP18ci	28	A3	0.00000000	0.00000000	0.00000000
+28d	IB	HLP18ci	28	G3	0.00000000	0.00000000	0.00000000
+28d	IB	HLP18ci	28	MaxDiv	1.92	1.92	1.92
+28d	IB	HLP18ci	28	MeanDiv	0.303516579406631	0.303516579406631	0.303516579406631
+3d	IB	H0	3	subst	37596.886669	37596.886669	37596.886669
+3d	IB	H0	3	kappa	2.62960	2.62960	2.62960
+3d	IB	H0	3	omega0	0.446410	0.446410	0.446410
+3d	IB	H0	3	omega1	0.922236	0.922236	0.922236
+3d	IB	H0	3	WRC_2	0.00000000	0.00000000	0.00000000
+3d	IB	H0	3	GYW_0	0.00000000	0.00000000	0.00000000
+3d	IB	H0	3	T1	0.25527358	0.25527358	0.25527358
+3d	IB	H0	3	C1	0.17071023	0.17071023	0.17071023
+3d	IB	H0	3	A1	0.27549139	0.27549139	0.27549139
+3d	IB	H0	3	G1	0.29852480	0.29852480	0.29852480
+3d	IB	H0	3	T2	0.22869041	0.22869041	0.22869041
+3d	IB	H0	3	C2	0.23945071	0.23945071	0.23945071
+3d	IB	H0	3	A2	0.28271314	0.28271314	0.28271314
+3d	IB	H0	3	G2	0.24914574	0.24914574	0.24914574
+3d	IB	H0	3	T3	0.18251013	0.18251013	0.18251013
+3d	IB	H0	3	C3	0.33551913	0.33551913	0.33551913
+3d	IB	H0	3	A3	0.16469639	0.16469639	0.16469639
+3d	IB	H0	3	G3	0.31727436	0.31727436	0.31727436
+3d	IB	H0	3	MaxDiv	2.31	2.31	2.31
+3d	IB	H0	3	MeanDiv	0.317896174863388	0.317896174863388	0.317896174863388
+3d	IB	HLP18ci	3	subst	38315.198168	38315.198168	38315.198168
+3d	IB	HLP18ci	3	kappa	2.44042	2.44042	2.44042
+3d	IB	HLP18ci	3	omega0	0.505313	0.505313	0.505313
+3d	IB	HLP18ci	3	omega1	0.658372	0.623997	0.685715
+3d	IB	HLP18ci	3	WRC_2	3.53638417	3.53638417	3.53638417
+3d	IB	HLP18ci	3	GYW_0	4.50505827	4.50505827	4.50505827
+3d	IB	HLP18ci	3	WA_1	2.81330845	2.81330845	2.81330845
+3d	IB	HLP18ci	3	TW_0	0.95738863	0.95738863	0.95738863
+3d	IB	HLP18ci	3	SYC_2	-0.61952940	-0.61952940	-0.61952940
+3d	IB	HLP18ci	3	GRS_0	-0.60026888	-0.60026888	-0.60026888
+3d	IB	HLP18ci	3	T1	0.00000000	0.00000000	0.00000000
+3d	IB	HLP18ci	3	C1	0.00000000	0.00000000	0.00000000
+3d	IB	HLP18ci	3	A1	0.00000000	0.00000000	0.00000000
+3d	IB	HLP18ci	3	G1	0.00000000	0.00000000	0.00000000
+3d	IB	HLP18ci	3	T2	0.00000000	0.00000000	0.00000000
+3d	IB	HLP18ci	3	C2	0.00000000	0.00000000	0.00000000
+3d	IB	HLP18ci	3	A2	0.00000000	0.00000000	0.00000000
+3d	IB	HLP18ci	3	G2	0.00000000	0.00000000	0.00000000
+3d	IB	HLP18ci	3	T3	0.00000000	0.00000000	0.00000000
+3d	IB	HLP18ci	3	C3	0.00000000	0.00000000	0.00000000
+3d	IB	HLP18ci	3	A3	0.00000000	0.00000000	0.00000000
+3d	IB	HLP18ci	3	G3	0.00000000	0.00000000	0.00000000
+3d	IB	HLP18ci	3	MaxDiv	2.32	2.32	2.32
+3d	IB	HLP18ci	3	MeanDiv	0.323943533697632	0.323943533697632	0.323943533697632
+7d	IB	H0	7	subst	33605.975483	33605.975483	33605.975483
+7d	IB	H0	7	kappa	2.55002	2.55002	2.55002
+7d	IB	H0	7	omega0	0.413107	0.413107	0.413107
+7d	IB	H0	7	omega1	0.647143	0.647143	0.647143
+7d	IB	H0	7	WRC_2	0.00000000	0.00000000	0.00000000
+7d	IB	H0	7	GYW_0	0.00000000	0.00000000	0.00000000
+7d	IB	H0	7	T1	0.24326890	0.24326890	0.24326890
+7d	IB	H0	7	C1	0.18007004	0.18007004	0.18007004
+7d	IB	H0	7	A1	0.29721068	0.29721068	0.29721068
+7d	IB	H0	7	G1	0.27945038	0.27945038	0.27945038
+7d	IB	H0	7	T2	0.23933152	0.23933152	0.23933152
+7d	IB	H0	7	C2	0.23083931	0.23083931	0.23083931
+7d	IB	H0	7	A2	0.29125974	0.29125974	0.29125974
+7d	IB	H0	7	G2	0.23856942	0.23856942	0.23856942
+7d	IB	H0	7	T3	0.19681317	0.19681317	0.19681317
+7d	IB	H0	7	C3	0.32986631	0.32986631	0.32986631
+7d	IB	H0	7	A3	0.17398241	0.17398241	0.17398241
+7d	IB	H0	7	G3	0.29933810	0.29933810	0.29933810
+7d	IB	H0	7	MaxDiv	9.17	9.17	9.17
+7d	IB	H0	7	MeanDiv	0.7478125	0.7478125	0.7478125
+7d	IB	HLP18ci	7	subst	34397.973206	34397.973206	34397.973206
+7d	IB	HLP18ci	7	kappa	2.36769	2.36769	2.36769
+7d	IB	HLP18ci	7	omega0	0.456967	0.456967	0.456967
+7d	IB	HLP18ci	7	omega1	0.467865	0.445990	0.495209
+7d	IB	HLP18ci	7	WRC_2	3.48649409	3.48649409	3.48649409
+7d	IB	HLP18ci	7	GYW_0	4.32611696	4.32611696	4.32611696
+7d	IB	HLP18ci	7	WA_1	3.07271704	3.07271704	3.07271704
+7d	IB	HLP18ci	7	TW_0	0.87741862	0.87741862	0.87741862
+7d	IB	HLP18ci	7	SYC_2	-0.66759039	-0.66759039	-0.66759039
+7d	IB	HLP18ci	7	GRS_0	-0.66391475	-0.66391475	-0.66391475
+7d	IB	HLP18ci	7	T1	0.00000000	0.00000000	0.00000000
+7d	IB	HLP18ci	7	C1	0.00000000	0.00000000	0.00000000
+7d	IB	HLP18ci	7	A1	0.00000000	0.00000000	0.00000000
+7d	IB	HLP18ci	7	G1	0.00000000	0.00000000	0.00000000
+7d	IB	HLP18ci	7	T2	0.00000000	0.00000000	0.00000000
+7d	IB	HLP18ci	7	C2	0.00000000	0.00000000	0.00000000
+7d	IB	HLP18ci	7	A2	0.00000000	0.00000000	0.00000000
+7d	IB	HLP18ci	7	G2	0.00000000	0.00000000	0.00000000
+7d	IB	HLP18ci	7	T3	0.00000000	0.00000000	0.00000000
+7d	IB	HLP18ci	7	C3	0.00000000	0.00000000	0.00000000
+7d	IB	HLP18ci	7	A3	0.00000000	0.00000000	0.00000000
+7d	IB	HLP18ci	7	G3	0.00000000	0.00000000	0.00000000
+7d	IB	HLP18ci	7	MaxDiv	9.67	9.67	9.67
+7d	IB	HLP18ci	7	MeanDiv	0.765264423076923	0.765264423076923	0.765264423076923
-1h	IB	H0	-0.0416666666666667	subst	36301.191715	36301.191715	36301.191715
-1h	IB	H0	-0.0416666666666667	kappa	2.62452	2.62452	2.62452
-1h	IB	H0	-0.0416666666666667	omega0	0.442723	0.442723	0.442723
-1h	IB	H0	-0.0416666666666667	omega1	0.888004	0.888004	0.888004
-1h	IB	H0	-0.0416666666666667	WRC_2	0.00000000	0.00000000	0.00000000
-1h	IB	H0	-0.0416666666666667	GYW_0	0.00000000	0.00000000	0.00000000
-1h	IB	H0	-0.0416666666666667	T1	0.25602007	0.25602007	0.25602007
-1h	IB	H0	-0.0416666666666667	C1	0.16999876	0.16999876	0.16999876
-1h	IB	H0	-0.0416666666666667	A1	0.27697041	0.27697041	0.27697041
-1h	IB	H0	-0.0416666666666667	G1	0.29701075	0.29701075	0.29701075
-1h	IB	H0	-0.0416666666666667	T2	0.22820362	0.22820362	0.22820362
-1h	IB	H0	-0.0416666666666667	C2	0.23791199	0.23791199	0.23791199
-1h	IB	H0	-0.0416666666666667	A2	0.28360703	0.28360703	0.28360703
-1h	IB	H0	-0.0416666666666667	G2	0.25027737	0.25027737	0.25027737
-1h	IB	H0	-0.0416666666666667	T3	0.18273240	0.18273240	0.18273240
-1h	IB	H0	-0.0416666666666667	C3	0.33752146	0.33752146	0.33752146
-1h	IB	H0	-0.0416666666666667	A3	0.16351120	0.16351120	0.16351120
-1h	IB	H0	-0.0416666666666667	G3	0.31623493	0.31623493	0.31623493
-1h	IB	H0	-0.0416666666666667	MaxDiv	2.23	2.23	2.23
-1h	IB	H0	-0.0416666666666667	MeanDiv	0.313953488372092	0.313953488372092	0.313953488372092
-1h	IB	HLP18ci	-0.0416666666666667	subst	37173.794887	37173.794887	37173.794887
-1h	IB	HLP18ci	-0.0416666666666667	kappa	2.42991	2.42991	2.42991
-1h	IB	HLP18ci	-0.0416666666666667	omega0	0.500500	0.500500	0.500500
-1h	IB	HLP18ci	-0.0416666666666667	omega1	0.636768	0.602393	0.656299
-1h	IB	HLP18ci	-0.0416666666666667	WRC_2	3.74960278	3.74960278	3.74960278
-1h	IB	HLP18ci	-0.0416666666666667	GYW_0	4.56118112	4.56118112	4.56118112
-1h	IB	HLP18ci	-0.0416666666666667	WA_1	3.02296808	3.02296808	3.02296808
-1h	IB	HLP18ci	-0.0416666666666667	TW_0	1.05733310	1.05733310	1.05733310
-1h	IB	HLP18ci	-0.0416666666666667	SYC_2	-0.64326051	-0.64326051	-0.64326051
-1h	IB	HLP18ci	-0.0416666666666667	GRS_0	-0.64061799	-0.64061799	-0.64061799
-1h	IB	HLP18ci	-0.0416666666666667	T1	0.00000000	0.00000000	0.00000000
-1h	IB	HLP18ci	-0.0416666666666667	C1	0.00000000	0.00000000	0.00000000
-1h	IB	HLP18ci	-0.0416666666666667	A1	0.00000000	0.00000000	0.00000000
-1h	IB	HLP18ci	-0.0416666666666667	G1	0.00000000	0.00000000	0.00000000
-1h	IB	HLP18ci	-0.0416666666666667	T2	0.00000000	0.00000000	0.00000000
-1h	IB	HLP18ci	-0.0416666666666667	C2	0.00000000	0.00000000	0.00000000
-1h	IB	HLP18ci	-0.0416666666666667	A2	0.00000000	0.00000000	0.00000000
-1h	IB	HLP18ci	-0.0416666666666667	G2	0.00000000	0.00000000	0.00000000
-1h	IB	HLP18ci	-0.0416666666666667	T3	0.00000000	0.00000000	0.00000000
-1h	IB	HLP18ci	-0.0416666666666667	C3	0.00000000	0.00000000	0.00000000
-1h	IB	HLP18ci	-0.0416666666666667	A3	0.00000000	0.00000000	0.00000000
-1h	IB	HLP18ci	-0.0416666666666667	G3	0.00000000	0.00000000	0.00000000
-1h	IB	HLP18ci	-0.0416666666666667	MaxDiv	2.31	2.31	2.31
-1h	IB	HLP18ci	-0.0416666666666667	MeanDiv	0.32140465116279	0.32140465116279	0.32140465116279
-2d	IB	H0	-2	subst	35811.024712	35811.024712	35811.024712
-2d	IB	H0	-2	kappa	2.62646	2.62646	2.62646
-2d	IB	H0	-2	omega0	0.440554	0.440554	0.440554
-2d	IB	H0	-2	omega1	0.917012	0.917012	0.917012
-2d	IB	H0	-2	WRC_2	0.00000000	0.00000000	0.00000000
-2d	IB	H0	-2	GYW_0	0.00000000	0.00000000	0.00000000
-2d	IB	H0	-2	T1	0.25514601	0.25514601	0.25514601
-2d	IB	H0	-2	C1	0.17165831	0.17165831	0.17165831
-2d	IB	H0	-2	A1	0.27796858	0.27796858	0.27796858
-2d	IB	H0	-2	G1	0.29522710	0.29522710	0.29522710
-2d	IB	H0	-2	T2	0.22830461	0.22830461	0.22830461
-2d	IB	H0	-2	C2	0.23924242	0.23924242	0.23924242
-2d	IB	H0	-2	A2	0.28350794	0.28350794	0.28350794
-2d	IB	H0	-2	G2	0.24894503	0.24894503	0.24894503
-2d	IB	H0	-2	T3	0.18260716	0.18260716	0.18260716
-2d	IB	H0	-2	C3	0.33769860	0.33769860	0.33769860
-2d	IB	H0	-2	A3	0.16310570	0.16310570	0.16310570
-2d	IB	H0	-2	G3	0.31658855	0.31658855	0.31658855
-2d	IB	H0	-2	MaxDiv	2.10	2.10	2.10
-2d	IB	H0	-2	MeanDiv	0.30143245693563	0.30143245693563	0.30143245693563
-2d	IB	HLP18ci	-2	subst	36542.557718	36542.557718	36542.557718
-2d	IB	HLP18ci	-2	kappa	2.42797	2.42797	2.42797
-2d	IB	HLP18ci	-2	omega0	0.499789	0.499789	0.499789
-2d	IB	HLP18ci	-2	omega1	0.650864	0.622739	0.678208
-2d	IB	HLP18ci	-2	WRC_2	3.56780167	3.56780167	3.56780167
-2d	IB	HLP18ci	-2	GYW_0	4.70283730	4.70283730	4.70283730
-2d	IB	HLP18ci	-2	WA_1	2.88955748	2.88955748	2.88955748
-2d	IB	HLP18ci	-2	TW_0	0.94121871	0.94121871	0.94121871
-2d	IB	HLP18ci	-2	SYC_2	-0.67522613	-0.67522613	-0.67522613
-2d	IB	HLP18ci	-2	GRS_0	-0.61478511	-0.61478511	-0.61478511
-2d	IB	HLP18ci	-2	T1	0.00000000	0.00000000	0.00000000
-2d	IB	HLP18ci	-2	C1	0.00000000	0.00000000	0.00000000
-2d	IB	HLP18ci	-2	A1	0.00000000	0.00000000	0.00000000
-2d	IB	HLP18ci	-2	G1	0.00000000	0.00000000	0.00000000
-2d	IB	HLP18ci	-2	T2	0.00000000	0.00000000	0.00000000
-2d	IB	HLP18ci	-2	C2	0.00000000	0.00000000	0.00000000
-2d	IB	HLP18ci	-2	A2	0.00000000	0.00000000	0.00000000
-2d	IB	HLP18ci	-2	G2	0.00000000	0.00000000	0.00000000
-2d	IB	HLP18ci	-2	T3	0.00000000	0.00000000	0.00000000
-2d	IB	HLP18ci	-2	C3	0.00000000	0.00000000	0.00000000
-2d	IB	HLP18ci	-2	A3	0.00000000	0.00000000	0.00000000
-2d	IB	HLP18ci	-2	G3	0.00000000	0.00000000	0.00000000
-2d	IB	HLP18ci	-2	MaxDiv	2.08	2.08	2.08
-2d	IB	HLP18ci	-2	MeanDiv	0.307697189483227	0.307697189483227	0.307697189483227
-8d	IB	H0	-8	subst	40269.956641	40269.956641	40269.956641
-8d	IB	H0	-8	kappa	2.59979	2.59979	2.59979
-8d	IB	H0	-8	omega0	0.450255	0.450255	0.450255
-8d	IB	H0	-8	omega1	0.907629	0.907629	0.907629
-8d	IB	H0	-8	WRC_2	0.00000000	0.00000000	0.00000000
-8d	IB	H0	-8	GYW_0	0.00000000	0.00000000	0.00000000
-8d	IB	H0	-8	T1	0.25491387	0.25491387	0.25491387
-8d	IB	H0	-8	C1	0.17129405	0.17129405	0.17129405
-8d	IB	H0	-8	A1	0.27713364	0.27713364	0.27713364
-8d	IB	H0	-8	G1	0.29665845	0.29665845	0.29665845
-8d	IB	H0	-8	T2	0.23019233	0.23019233	0.23019233
-8d	IB	H0	-8	C2	0.23759098	0.23759098	0.23759098
-8d	IB	H0	-8	A2	0.28370261	0.28370261	0.28370261
-8d	IB	H0	-8	G2	0.24851408	0.24851408	0.24851408
-8d	IB	H0	-8	T3	0.18420372	0.18420372	0.18420372
-8d	IB	H0	-8	C3	0.33676310	0.33676310	0.33676310
-8d	IB	H0	-8	A3	0.16408458	0.16408458	0.16408458
-8d	IB	H0	-8	G3	0.31494860	0.31494860	0.31494860
-8d	IB	H0	-8	MaxDiv	2.28	2.28	2.28
-8d	IB	H0	-8	MeanDiv	0.329682539682539	0.329682539682539	0.329682539682539
-8d	IB	HLP18ci	-8	subst	41213.743283	41213.743283	41213.743283
-8d	IB	HLP18ci	-8	kappa	2.40529	2.40529	2.40529
-8d	IB	HLP18ci	-8	omega0	0.506098	0.506098	0.506098
-8d	IB	HLP18ci	-8	omega1	0.647169	0.619044	0.666701
-8d	IB	HLP18ci	-8	WRC_2	3.79376874	3.79376874	3.79376874
-8d	IB	HLP18ci	-8	GYW_0	4.56090825	4.56090825	4.56090825
-8d	IB	HLP18ci	-8	WA_1	2.96921513	2.96921513	2.96921513
-8d	IB	HLP18ci	-8	TW_0	1.04302515	1.04302515	1.04302515
-8d	IB	HLP18ci	-8	SYC_2	-0.61088649	-0.61088649	-0.61088649
-8d	IB	HLP18ci	-8	GRS_0	-0.59932706	-0.59932706	-0.59932706
-8d	IB	HLP18ci	-8	T1	0.00000000	0.00000000	0.00000000
-8d	IB	HLP18ci	-8	C1	0.00000000	0.00000000	0.00000000
-8d	IB	HLP18ci	-8	A1	0.00000000	0.00000000	0.00000000
-8d	IB	HLP18ci	-8	G1	0.00000000	0.00000000	0.00000000
-8d	IB	HLP18ci	-8	T2	0.00000000	0.00000000	0.00000000
-8d	IB	HLP18ci	-8	C2	0.00000000	0.00000000	0.00000000
-8d	IB	HLP18ci	-8	A2	0.00000000	0.00000000	0.00000000
-8d	IB	HLP18ci	-8	G2	0.00000000	0.00000000	0.00000000
-8d	IB	HLP18ci	-8	T3	0.00000000	0.00000000	0.00000000
-8d	IB	HLP18ci	-8	C3	0.00000000	0.00000000	0.00000000
-8d	IB	HLP18ci	-8	A3	0.00000000	0.00000000	0.00000000
-8d	IB	HLP18ci	-8	G3	0.00000000	0.00000000	0.00000000
-8d	IB	HLP18ci	-8	MaxDiv	2.44	2.44	2.44
-8d	IB	HLP18ci	-8	MeanDiv	0.337407407407407	0.337407407407407	0.337407407407407
